first,second,freq
chelsea,vs,21
vs,liverpool,21
national,anthem,17
one,chelsea,15
pick,one,14
fa,cup,11
great,see,9
see,got,9
got,trending,9
we've,kicked,9
kicked,sl,9
come,chelsea,8
graham,norton,8
trending,better,8
better,something,8
something,one,8
one,direction,8
direction,lady,8
lady,gaga,8
gaga,eh,8
chelsea,liverpool,7
final,de,7
de,la,7
cup,final,6
cech,bosingwa,6
bosingwa,ivanovic,6
ivanovic,terry,6
terry,cole,6
ramires,mata,6
mata,kalou,6
kalou,drogba,6
go,liverpool,6
last,night,5
fans,booing,5
la,final,5
martin,skrtel,5
flying,high,5
cole,lampard,5
lampard,mikel,5
mikel,ramires,5
come,liverpool,5
lt,3,5
norton,got,4
got,inside,4
liverpool,vs,4
vs,chelsea,4
come,reds,4
we'll,keep,4
keep,blue,4
alineaciones,chelsea,4
chelsea,cech,4
0,0,4
come,boys,4
drogba,last,4
inside,drogba,4
liverpool,win,3
viendo,la,3
en,la,3
skrtel,man,3
man,many,3
many,talents,3
talents,apparently,3
walk,alone,3
come,blues,3
let's,go,3
blue,flag,3
flag,flying,3
many,fans,3
jeered,national,3
7,minutes,3
v,liverpool,3
watching,chelsea,3
booing,national,3
chelsea,win,3
didier,drogba,3
reina,johnson,3
spearing,henderson,3
henderson,downing,3
gerrard,spearing,3
smirnoff,ice,3
steven,gerrard,3
go,blues,3
3,lt,3
oh,blues,3
blues,go,3
harus,menang,2
wembley,stadium,2
watching,i'm,2
cheering,reds,2
fans,jeering,2
jeering,national,2
anthem,liverpool,2
drogba,graham,2
inside,last,2
feels,weird,2
john,terry,2
want,see,2
go,chelsea,2
never,walk,2
watch,fa,2
arranca,el,2
lets,go,2
fans,boo,2
boo,national,2
supporting,chelsea,2
chelsea,2,2
wembley,today,2
high,sky,2
sky,we'll,2
high,stamford,2
stamford,bridge,2
bridge,wembley,2
wembley,we'll,2
camera,man,2
one,day,2
live,updates,2
blue,colour,2
fans,sang,2
sang,national,2
anthem,many,2
fans,even,2
even,jeering,2
jeering,jeered,2
watching,game,2
cameraman,playing,2
shall,supporting,2
kick,amp,2
team,v,2
liverpool,cech,2
cech,bos,2
bos,iva,2
iva,jt,2
jt,c,2
c,cole,2
cole,mik,2
mik,lamps,2
lamps,ram,2
ram,mata,2
mata,kal,2
kal,drog,2
drog,sl,2
anxious,anxious,2
1,st,2
say,graham,2
norton,inside,2
inside,didier,2
jay,spearing,2
looks,like,2
drinking,games,2
games,i'm,2
i'm,ready,2
ready,r,2
r,amp,2
amp,r,2
r,tonight,2
night,watch,2
chelsea,go,2
bellamy,suarez,2
i'm,going,2
i'm,glad,2
banner,wembley,2
skrtel,hard,2
hard,asked,2
asked,big,2
big,mac,2
mac,burger,2
burger,king,2
king,got,2
got,one,2
managed,get,2
liverpool,pick,2
i'm,waiting,2
pic,plse,2
plse,reds,2
reds,fans,2
kenny,dalglish,2
get,inside,2
abide,sung,2
sung,bottle,2
bottle,smirnoff,2
alineaciones,liverpool,2
liverpool,reina,2
johnson,agger,2
agger,skrtel,2
skrtel,enrique,2
enrique,gerrard,2
downing,bellamy,2
someone,else,2
phil,dowd,2
chelsea,0,2
0,liverpool,2
go,go,2
go,steaming,2
whether,u,1
u,like,1
like,suarez,1
suarez,raise,1
raise,hand,1
hand,game,1
game,believe,1
believe,torres,1
torres,might,1
might,step,1
blues,kudu,1
kudu,harus,1
stadium,london,1
everyone,else,1
else,watching,1
i'm,sat,1
sat,watching,1
watching,big,1
big,bang,1
bang,theory,1
theory,therefore,1
therefore,win,1
long,scum,1
scum,liverpool,1
win,i'll,1
i'll,happy,1
least,look,1
good,luck,1
think,i'll,1
i'll,cheering,1
liverpool,fc,1
fc,shocked,1
shocked,everything,1
everything,ashamed,1
ashamed,nothing,1
spearing,good,1
good,touch,1
touch,accurate,1
accurate,long,1
long,ball,1
ball,johnson,1
c'mon,blues,1
blues,torres,1
torres,winner,1
winner,;),1
;),x,1
classic,commentary,1
commentary,drogba,1
weird,cheering,1
cheering,team,1
team,blue,1
blue,come,1
come,rentboys,1
rentboys,turn,1
turn,em,1
wow,even,1
even,england,1
england,fans,1
booing,whistling,1
whistling,national,1
anthem,abide,1
abide,football,1
football,fans,1
think,like,1
like,seeing,1
seeing,spearing,1
spearing,matched,1
matched,mata,1
believe,terry,1
terry,bellamy,1
bellamy,hate,1
hate,could,1
could,interesting,1
actually,fuck,1
fuck,i'm,1
i'm,backin,1
backin,still,1
de,entre,1
entre,liverpool,1
chelsea,los,1
los,reds,1
reds,van,1
van,x,1
x,su,1
su,2,1
2,da,1
da,copa,1
copa,en,1
la,temporada,1
got,feeling,1
feeling,either,1
either,score,1
score,winner,1
winner,today,1
ahhh,time,1
time,ko,1
ko,come,1
nice,see,1
see,jimmy,1
jimmy,armfield,1
armfield,presented,1
presented,players,1
players,true,1
true,gentleman,1
think,play,1
play,torres,1
torres,drogba,1
drogba,together,1
we're,official,1
official,official,1
official,betting,1
betting,partners,1
care,less,1
less,score,1
score,would,1
would,nice,1
nice,john,1
terry,finished,1
finished,serious,1
serious,injury,1
injury,prick,1
chelsea,bismillahirrahmanirrahim,1
bismillahirrahmanirrahim,abak,1
abak,2,1
2,ku,1
ku,ih,1
ih,palunnn,1
palunnn,hahahah,1
best,thing,1
thing,happen,1
happen,season,1
going,lie,1
lie,want,1
see,right,1
right,chelsea,1
chelsea,female,1
female,physio,1
years,fa,1
cup,reminds,1
reminds,editor,1
editor,time,1
time,west,1
west,coast,1
coast,gang,1
gang,like,1
like,bloods,1
bloods,vs,1
vs,crips,1
crips,pick,1
pick,color,1
kita,tengok,1
tengok,siapa,1
siapa,walk,1
alone,pagi,1
pagi,ni,1
cieeeehh,chelsea,1
effect,women's,1
women's,football,1
football,goodnight,1
score,amp,1
john,obi,1
obi,mukel,1
mukel,hench,1
roberto,di,1
di,matteo,1
matteo,make,1
make,three,1
three,row,1
row,italian,1
italian,coaches,1
coaches,winning,1
winning,succeeding,1
succeeding,mancini,1
mancini,ancelott,1
let's,chelsea,1
hear,chelsea,1
chelsea,fans,1
booing,saurez,1
saurez,oh,1
oh,irony,1
blues,reds,1
chelsea-liverpool,qien,1
qien,le,1
le,van,1
van,voy,1
voy,con,1
con,los,1
los,blues,1
fans,jeer,1
jeer,national,1
anthem,would,1
would,like,1
like,played,1
played,instead,1
instead,ferry,1
ferry,cross,1
cross,mersey,1
naufal,kata,1
kata,takpe,1
takpe,abah,1
abah,naufal,1
naufal,ada,1
final,lounge,1
lounge,evening,1
evening,plenty,1
plenty,drinks,1
drinks,food,1
