first,second,freq
fa,cup,33
la,la,30
cup,final,19
come,chelsea,18
come,liverpool,17
fabrice,muamba,16
come,reds,15
never,walk,15
walk,alone,15
vs,liverpool,14
chelsea,vs,13
come,chels,13
liverpool,supporters,9
supporters,best,9
best,world,9
good,luck,8
sun,shining,7
shining,fans,7
2,1,6
starting,xi,6
xi,reina,6
reina,johnson,6
johnson,skrtel,6
skrtel,agger,6
agger,jose,6
jose,enrique,6
enrique,spearing,6
spearing,henderson,6
henderson,downing,6
downing,gerrard,6
gerrard,bellamy,6
bellamy,suarez,6
v,liverpool,6
chelsea,come,6
let's,go,6
go,blues,6
chelsea,fc,5
liverpool,starting,5
liverpool,win,5
hard,fi,5
10,mins,5
chelsea,subs,5
subs,turnbull,5
1,st,5
sure,dance,4
dance,routines,4
walk,walk,4
walk,hope,4
hope,heart,4
chelsea,liverpool,4
nice,see,4
muamba,guest,4
guest,honour,4
final,fa,4
i'm,going,4
guest,honor,4
come,blues,4
come,pool,4
2,0,4
let's,get,4
turnbull,essien,4
essien,torres,4
torres,malouda,4
malouda,meireles,4
meireles,ferreira,4
ferreira,sturridge,4
opening,ceremony,4
liverpool,12,4
12,15,4
15,et,4
et,131,4
131,st,4
st,oldest,4
oldest,soccer,4
soccer,tournament,4
tournament,world,4
world,seeking,4
seeking,1,4
st,fa,4
cup,titl,4
come,mighty,4
foil,dancers,4
come,come,4
come,boys,3
come,red,3
red,men,3
fuck,chelsea,3
got,history,3
european,cups,3
cups,18,3
18,leagues,3
call,history,3
bring,cup,3
cup,home,3
come,redmen,3
see,fabrice,3
go,go,3
liverpool,chelsea,3
chelsea,v,3
wembley,red,3
go,chelsea,3
chelsea,chelsea,3
mary,jess,3
la,chelsea,3
cech,bosingwa,3
bosingwa,ivanovic,3
ivanovic,terry,3
terry,cole,3
round,applause,3
banner,wembley,3
martin,skrtel,3
skrtel,hard,3
hard,asked,3
asked,big,3
big,mac,3
mac,burger,3
burger,king,3
king,got,3
got,one,3
blue,colour,3
de,la,3
liverpool,cech,3
chelsea,win,3
mighty,reds,3
loool,dese,3
dese,bacon,3
bacon,foil,3
dancers,signs,3
signs,things,3
come,olympic,3
olympic,opening,3
ceremony,perhaps,3
cup,chelsea,3
heart,never,3
win,final,2
liverpool,come,2
red,blue,2
watching,liverpool,2
chelsea,today,2
ucl,final,2
final,coming,2
fc,aint,2
aint,got,2
history,five,2
five,european,2
leagues,that's,2
that's,call,2
liverpool,way,2
chelsea,way,2
come,bring,2
fuck,tin,2
tin,foil,2
liverpool,never,2
let's,win,2
luck,chelsea,2
c'mon,paint,2
paint,wembley,2
red,amp,2
amp,win,2
win,love,2
love,amp,2
amp,hope,2
hope,malaysia,2
10,minutes,2
best,team,2
0,chelsea,2
game,come,2
chelsea,la,2
nation,anthem,2
right,chelsea,2
today,come,2
want,see,2
plastic,flags,2
best,banner,2
wembley,far,2
far,martin,2
muamba,fa's,2
fa's,guest,2
honour,warm,2
warm,ovation,2
ovation,recovering,2
recovering,defender,2
football,game,2
chelsea,beat,2
going,1,2
beastie,boys,2
good,see,2
muamba,gets,2
best,bit,2
go,liverpool,2
follow,action,2
action,clicking,2
clicking,live,2
live,coverage,2
coverage,tab,2
tab,right,2
can't,wait,2
going,watch,2
:),good,2
la,final,2
win,today,2
chelsea,2,2
bring,home,2
piece,silverware,2
3,rd,2
go,boys,2
final,de,2
que,gane,2
lt,3,2
nervous,live,2
live,episode,2
episode,guess,2
guess,that's,2
that's,magic,2
magic,come,2
go,reds,2
hoping,reds,2
reds,win,2
en,wembley,2
team,v,2
cech,bos,2
bos,iva,2
iva,jt,2
jt,c,2
c,cole,2
cole,mik,2
mik,lamps,2
lamps,ram,2
ram,mata,2
mata,kal,2
kal,drog,2
drog,sl,2
wembley,today,2
retweet,think,2
think,chelsea,2
win,2012,2
chelsea,fans,2
fans,clapping,2
liverpool,:),2
chelsea,lose,2
things,come,2
3,1,2
1,chelsea,2
final,kick,2
man,watching,2
mins,kick,2
win,fa,2
pre,match,2
ramires,mata,2
mata,kalou,2
kalou,drogba,2
get,get,2
picture,team,2
team,warming,2
warming,we'll,2
we'll,kick-off,2
kick-off,half,2
half,hour,2
hour,sl,2
adrian,chiles,2
bring,trophy,2
trophy,home,2
u,beat,2
muamba,wembley,2
ik,ga,2
e,e,2
boys,win,1
win,cup,1
bet,two,1
two,sat,1
sat,press,1
press,box,1
box,together,1
together,tweeting,1
tweeting,come,1
liverpool,forever,1
forever,come,1
cmon,reds,1
reds,fuck,1
fc,ain't,1
ain't,got,1
history,5,1
5,european,1
leagues,thats,1
thats,call,1
huge,game,1
game,boys,1
boys,come,1
liverpool,bring,1
home,cup,1
cup,double,1
stupid,kick,1
kick,time,1
hope,lfc,1
lfc,win,1
final,fans,1
fans,greatest,1
greatest,deserve,1
earlier,poll,1
poll,50.8,1
50.8,rtd,1
rtd,wanted,1
wanted,win,1
win,49.2,1
49.2,rooting,1
rooting,close,1
wembley,run,1
run,red,1
blue,vs,1
final,prediction,1
prediction,2,1
1,drogba,1
drogba,lampard,1
lampard,suarez,1
day,long,1
long,henderson,1
henderson,amp,1
amp,spearing,1
spearing,far,1
far,good,1
good,enough,1
enough,vs,1
vs,likes,1
likes,lampard,1
lampard,amp,1
amp,ramires,1
ragazzi,link,1
link,per,1
per,vedere,1
vedere,la,1
la,di,1
wonder,watching,1
liverpool,club,1
club,take,1
take,chelsea,1
heart,amp,1
amp,never,1
esta,belleza,1
belleza,quien,1
quien,es,1
que,hermosura,1
hermosura,de,1
de,mosaico,1
mosaico,chelsea,1
come,cheeelseeeeeeaaaaaaaaaaaa,1
win,one,1
chelsea,must,1
must,win,1
final,losing,1
losing,huge,1
huge,blow,1
blow,team's,1
team's,confidence,1
confidence,especially,1
especially,since,1
since,ucl,1
cup,kick,1
kick,red,1
torres,bench,1
bench,give,1
give,man,1
man,chance,1
chance,hungry,1
hungry,thump,1
thump,liverpool,1
liverpool,bad,1
bad,decision,1
nu,chelsea,1
liverpool,kijken,1
kijken,go,1
starting,feel,1
feel,atmosphere,1
atmosphere,wish,1
1,last,1
last,29,1
29,fa,1
cup,games,1
games,chelsea,1
chelsea,conceded,1
conceded,game,1
game,keeping,1
keeping,12,1
12,clean,1
clean,sheets,1
sheets,period,1
fi,really,1
thought,finishing,1
finishing,saw,1
saw,3.15,1
3.15,tv,1
tv,guide,1
guide,even,1
even,started,1
see,standa,1
honour,wembley,1
go,idi,1
idi,final,1
season,defining,1
defining,90,1
90,minutes,1
