first_name,last_name
"2-1 for CHELSEA ! #CFC #KTBFFH RT @GOAL_ID: Tweeps, berapa prediksi anda untuk skor final #FACup Chelsea Vs. Liverpool?",Sat May 05 16:11:00 +0000 2012
"RT @FOXSoccer: On @LFC's strengths today: ""For the Reds it's all about number 8 and number 7."" - @warrenbarton2 on Steven Gerrard and Lu ...",Sat May 05 16:11:00 +0000 2012
"Ah, the romance of the #FACup... a child with a Bacardi Breezer. http://t.co/NxMr7X6e",Sat May 05 16:11:00 +0000 2012
"RT @BuckettRFC: Don't care who wins this , hate them both #FACup",Sat May 05 16:11:00 +0000 2012
"2-2. Masuk ke extra time, terus adu pinalti RT @GOAL_ID Tweeps, berapa prediksi anda untuk skor final #FACup Chelsea Vs. Liverpool?",Sat May 05 16:11:00 +0000 2012
Should be a good match #LFC,Sat May 05 16:11:00 +0000 2012
Nervous! Come on Liverpool! @LFC #YNWA,Sat May 05 16:11:00 +0000 2012
Loving how long its taking jimmy armfield to shake everyone's hands. #typicalenglishgent #facup,Sat May 05 16:11:00 +0000 2012
"Drogba, BANG HOME THE GOALS!!!! @chelseafc",Sat May 05 16:11:00 +0000 2012
"Come on @LFC batter the chelsea scum. Suarez, Gerrard and Skrtel to score.",Sat May 05 16:11:00 +0000 2012
Ready for the #FACupFinal!,Sat May 05 16:11:01 +0000 2012
#FACup (: !,Sat May 05 16:11:01 +0000 2012
RT @joehimself: Come on you blues @chelseafc @CFCInAmerica @LAChelseaBlues.....  #facupfinal #cfc,Sat May 05 16:11:00 +0000 2012
"3 reasons I want #LFC to win... 1. I hate john terry, 2. #cfc booed the hillsborough min silence, 3. I hate chelski!! #facupfinal",Sat May 05 16:11:01 +0000 2012
@Matty_WFC: I hate both teams but as im sat with two liverpool fans ill take a chelsea win #FACUP,Sat May 05 16:11:01 +0000 2012
"Liverpool to win the FA cup, hate him or love him suarez is a quality player, and I think he'll have a big game today. #FAcup #LFC",Sat May 05 16:11:01 +0000 2012
Aw they all look so sad #FACupFinal,Sat May 05 16:11:01 +0000 2012
Kick off :) #lfc,Sat May 05 16:11:01 +0000 2012
Doesn't King Kenny have a suit? #facupfinal,Sat May 05 16:11:01 +0000 2012
Hope Stevie G is in a bad mood always plays better! Come #LFC beat the Chelsea scum!!! #YNWA,Sat May 05 16:11:01 +0000 2012
Where's the National Anthem!?!  #NotImpressed  #FACup,Sat May 05 16:11:01 +0000 2012
I am telling u now n u heard it hear first that John Terry will win this game for Chelsea!RembreI said it first! #comeonchelsea #FACupFinal,Sat May 05 16:11:01 +0000 2012
RT @TheFooTypster: I am not going to lie....All i want to see right now is the Chelsea Female Physio!!! #FACupFinal,Sat May 05 16:11:01 +0000 2012
RT @LFC: Liverpool supporters: best in the world http://t.co/LUjnDdV7,Sat May 05 16:11:01 +0000 2012
825 clubs entered the #FACUP this season #staggering,Sat May 05 16:11:01 +0000 2012
RT @smeIIy: Did anyone see that drunk Chelsea fan with a Smirnoff Ice in her hand? LMFAO. #facupfinal,Sat May 05 16:11:01 +0000 2012
RT @chelseafc: RT @GullitR: I think that #Chelsea will win the FA cup,Sat May 05 16:11:01 +0000 2012
It's time... the most eagerly anticipated showcase of the year... Clash of the Racists #FAcupFinal,Sat May 05 16:11:01 +0000 2012
@ChelseaFansCol. Desde santa marta #CFCWembley,Sat May 05 16:11:01 +0000 2012
"This is the season. Screw the league, screw the CL, this is it for us #LFC #YNWA #JFT96 #COYR",Sat May 05 16:11:01 +0000 2012
Not feeling confident but... COME ON LIVERPOOL #LFC #YNWA,Sat May 05 16:11:02 +0000 2012
steven gerrard #isowould ;) #facup,Sat May 05 16:11:02 +0000 2012
"Managers not wearing a suit, no royalty, 5.15pm kick off mid-season. They couldn't have shit on tradition more if they tried #facupfinal",Sat May 05 16:11:01 +0000 2012
Reds vs Blues #FACup #final,Sat May 05 16:11:02 +0000 2012
"Umm, who do I want to lose more?? #facupfinal",Sat May 05 16:11:02 +0000 2012
"RT @AlexEagles93: As a londoner I'm supporting chelsea, but I'd be much more enthusiastic if torres was starting. #cfc #lfc #facup",Sat May 05 16:11:02 +0000 2012
Always in my heart until the end.. *tag : @chelseafc &amp; @ChelseaIndo ..,Sat May 05 16:11:02 +0000 2012
God I hate the @itv commentators. Dire. #facupfinal #facup,Sat May 05 16:11:02 +0000 2012
Come on you redmen.. #LFC http://t.co/vTiBjgkk,Sat May 05 16:11:02 +0000 2012
Is that Sir Matt Busby? #FACupFinal,Sat May 05 16:11:02 +0000 2012
What we'd give to have him in that midfield today. #FACup #LFC RT @XabiAlonso: Come on Reds! YNWA.,Sat May 05 16:11:02 +0000 2012
*FAT KID KLAXON* #liverpoolmascot #facup,Sat May 05 16:11:02 +0000 2012
Football commentators are ridiculous #FACupfinal 'he battled with cancer... cancer didn't stand a chance',Sat May 05 16:11:02 +0000 2012
In #Drogba we trust... #CFC,Sat May 05 16:11:02 +0000 2012
Nice one! RT @iainbluett: @Claassenman exactly! (see my previous tweet) #facupfinal,Sat May 05 16:11:02 +0000 2012
"3-3 (3-0 adu pen) RT @GOAL_ID: Tweeps, berapa prediksi anda untuk skor final #FACup Chelsea Vs. Liverpool?",Sat May 05 16:11:02 +0000 2012
It's fokken ON!!!! GET IN #LFC #liverpoolFc #FAcup #YNWA,Sat May 05 16:11:02 +0000 2012
Come on chelsea!! @chelseafc,Sat May 05 16:11:02 +0000 2012
"RT @tinpanscally: #LFC, I want to see John Terry crying at the final whistle. Make it so.",Sat May 05 16:11:02 +0000 2012
RT @ladydawnie: #Terry wherever you may be you are a man of the #CFC bring on the blue ribbons http://t.co/YCax6xdQ,Sat May 05 16:11:02 +0000 2012
"RT @leesiemaszko: RT this pic plse reds fans, #FACupFinal #ChelseaScum #Disrespect #JFT96 #LFC #YNWA http://t.co/xQFWh8Kk",Sat May 05 16:11:02 +0000 2012
RT @timcaple: 825 teams entered #FACup compare that to over 7000 that entered the French cup,Sat May 05 16:11:02 +0000 2012
Liverpools jackets are awful #FACupfinal,Sat May 05 16:11:02 +0000 2012
"Without stating the obvious, but, that fat kid needed a bigger sized kit #facupfinal #Wembley",Sat May 05 16:11:02 +0000 2012
Watching #FACup on ITV. Unfortunately that means Clive Tyldesley. Mute button under thumb.,Sat May 05 16:11:02 +0000 2012
Come on Reds! Fuck of Chelsea FC #FACUP,Sat May 05 16:11:02 +0000 2012
#FACupFinal go Chelsea!!,Sat May 05 16:11:02 +0000 2012
"Uuuuu ""@soal_SOCCER: Yg dukung Chelsea mana RT nya !!! #FAcup""",Sat May 05 16:11:02 +0000 2012
COME ON BOYS!!!!!!!! @chelseafc,Sat May 05 16:11:03 +0000 2012
"The travelling Kop is absolutely out of this world. You can only hear them,Only them. #LFC",Sat May 05 16:11:03 +0000 2012
Feel like chewing my fingers off @chelseafc,Sat May 05 16:11:03 +0000 2012
Tbh I want Liverpool to win #facup,Sat May 05 16:11:03 +0000 2012
Ya ingresan al terreno de juego Chelsea y Liverpool para disputar la final de la #FACup,Sat May 05 16:11:03 +0000 2012
Come on chelsea #cfc,Sat May 05 16:11:03 +0000 2012
"RT @CISC_store: RT @chelseafc Team v Liverpool: Cech; Bos, Iva, JT (c), Cole; Mik, Lamps; Ram, Mata, Kal; Drog.  #CFCWembley #FACupFinal.",Sat May 05 16:11:03 +0000 2012
COME ON YOU REDS!!!!! #YNWA #ComeOnYouReds #FaCupFinal,Sat May 05 16:11:03 +0000 2012
Best of luck to @LiverpoolFC today in the FA Cup Final at Wembley Stadium! @John_W_Henry #YNWA,Sat May 05 16:11:03 +0000 2012
"RT @TheREAL_Abi: #FACup Pas malam terang bulan, malamnya Chelsea.",Sat May 05 16:11:03 +0000 2012
Part 1 of the double starts today @chelseafc,Sat May 05 16:11:03 +0000 2012
"""Adrian Chiles"" people low him he supports west brom for pete's sake #adrianchiles #facupfinal",Sat May 05 16:11:03 +0000 2012
#LFC to loose to #CFC 2-0 !!,Sat May 05 16:11:03 +0000 2012
"Yeah, it would be much appreciated if you couldn't cut out now, ITV online. #FACupFinal",Sat May 05 16:11:03 +0000 2012
only time il be chearing for chelsea. #FaCupFinal,Sat May 05 16:11:03 +0000 2012
@Ryan2207 @mosesbanner @erinnyc75 @leemurphy05 @mikeylamb1 @canrun4toffee @lfc @lucasleiva87 lmao,Sat May 05 16:11:03 +0000 2012
"Do not disturb please....
#Chelsea is coming to the win!
#FACup",Sat May 05 16:11:04 +0000 2012
#FACupFinal Come On Liverpool! You Can Win This!!!,Sat May 05 16:11:04 +0000 2012
RT @chelseafc: Seems to be drying out in NW London. Fingers crossed! #CFCWembley #FACupFinal (SL),Sat May 05 16:11:03 +0000 2012
Chelsea Vs Liverpool Atmosphere around #WembleyStadium is electric! It's going to be a #decent final! #FACup,Sat May 05 16:11:04 +0000 2012
COME ON YOU BLUES #FACup #Chelsea  http://t.co/1EOGy3Nu,Sat May 05 16:11:04 +0000 2012
@johncrossmirror Song is truly a V good player but not in a holding roll has not got the discipline  its so bloody frustrating.,Sat May 05 16:11:04 +0000 2012
Uwoooww RT @LFC: Liverpool supporters: best in the world http://t.co/VWEd52CM,Sat May 05 16:11:04 +0000 2012
I HOPE RAMIRES IS PLAYING #FACupFinal,Sat May 05 16:11:04 +0000 2012
Come on Blues ! #ChelseaFC #FACup,Sat May 05 16:11:04 +0000 2012
C'mon #lfc #ynwa,Sat May 05 16:11:04 +0000 2012
"Hahaha, ukuzwe ngaphi wena? RT @nqobilebhebhe: going to bed i hear some 'super' african phophet 'saw Chelsea' lifting #FACup",Sat May 05 16:11:04 +0000 2012
RT @danwalkerbbc: Kenny Dalglish has never lost to Chelsea as a manager - 13 games in total! #LFC #CFC #FACupFinal #stat,Sat May 05 16:11:04 +0000 2012
"RT @tinpanscally: #LFC, I want to see John Terry crying at the final whistle. Make it so.",Sat May 05 16:11:04 +0000 2012
"RT @SubbuteoOficial: This afternoon at 5:15pm, @chelseafc and @LFC will fight to win the final #FACup. Both teams are available in #Subb ...",Sat May 05 16:11:04 +0000 2012
COME ON #LFC!!!,Sat May 05 16:11:04 +0000 2012
"Het You'll Never Walk Alone galmt door Wembley, kippenvel. Heb dr zin in, go Reds! #facup #cheliv",Sat May 05 16:11:04 +0000 2012
Chelsea!!!! #CFCWEMBLEY,Sat May 05 16:11:04 +0000 2012
Scouser!!! RT @Andrea_JuiceFM: Come on the reds #lfc,Sat May 05 16:11:04 +0000 2012
Will the telly show the #LFC banner reminding the Chelsea fans about respect for the dead? #stuffiwonder,Sat May 05 16:11:05 +0000 2012
RT @StevelfcJones: WE ARE ONE #LFCfamily #LFC #YNWA,Sat May 05 16:11:04 +0000 2012
Great to see Jimmy Armfield looking so well at #facupfinal,Sat May 05 16:11:05 +0000 2012
The FA Cup Final once the only live TV game you saw each season involving Football Clubs is now a meaningless non-spectacle! #FACup,Sat May 05 16:11:05 +0000 2012
I think that chick in the crowd was just slightly drunk... already. #FACupFinal,Sat May 05 16:11:05 +0000 2012
RT @rickedwards1: aha. Hard-Fi. Good to see some archive footage of the 2005 pre-match entertainment. OH. #facup,Sat May 05 16:11:05 +0000 2012
#YNWA #LFC,Sat May 05 16:11:05 +0000 2012
"COME ON LIVERPOOL&lt;3 
#LFC #FACupFinal",Sat May 05 16:11:05 +0000 2012
"hanya FA, tidak untuk UCL RT @soal_SOCCER: Yg dukung Chelsea mana RT nya !!! #FAcup",Sat May 05 16:11:05 +0000 2012
#KTBFH :D #CFC,Sat May 05 16:11:05 +0000 2012
"John Terry would be walking the officials up the team line, introducing them as 'brown...white...brown...' #FACUPFINAL",Sat May 05 16:11:05 +0000 2012
Come on Liverpool!!!!! #FACupFinal,Sat May 05 16:11:05 +0000 2012
Whatever happens tonight a racist scumbag is gunna get their grubby little hands on a Cup with so much tradition. Its a sad day #FACupFinal,Sat May 05 16:11:05 +0000 2012
Rock on Blues!!!! You can do it! #KTBFFH. Go @Chelseafc | #CFC #Chelsea http://t.co/LfIhvclm,Sat May 05 16:11:05 +0000 2012
Come onnn the boys! #LFC #YNWA,Sat May 05 16:11:05 +0000 2012
Spearing is uglier than gollum #FACup,Sat May 05 16:11:05 +0000 2012
"Zo, op het bankje thuis in deze #ijstijd
#FACup op #eredivisielive 
Go #suarez go!!!!",Sat May 05 16:11:06 +0000 2012
Here we go! #Chelsea #goblues #facup #yesidolikesoccer,Sat May 05 16:11:05 +0000 2012
I'm going with Chelsea for this one #FACupFinal #ChelseaVsLiverpool,Sat May 05 16:11:06 +0000 2012
"Zo dan, halve dag gewerkt #doodop #kruisband. Nu languit #facup finale #cheliv #eredivisielive",Sat May 05 16:11:06 +0000 2012
RT @thefadotcom: Stats in today's #FACupFinal match programme are provided by @OptaJoe - This will be the 31st meeting between #CFC &amp ...,Sat May 05 16:11:06 +0000 2012
"3-2 Liverpool RT@GOAL_ID: Tweeps, berapa prediksi anda untuk skor final #FACup Chelsea Vs. Liverpool?",Sat May 05 16:11:06 +0000 2012
Proper shittin it !! #FACUPFINAL,Sat May 05 16:11:06 +0000 2012
"RT @Mikeebateman: Every bloody year Abide with me, reduces me to tears, need to man up a bit I think #FACupFinal",Sat May 05 16:11:06 +0000 2012
RT @chelseafc: RT @JMcEachran20: Come on Chelsea!!!,Sat May 05 16:11:06 +0000 2012
@ratedshavez Good Luck!:) #FACupFinal,Sat May 05 16:11:06 +0000 2012
Why can't they both lose #FACupFinal,Sat May 05 16:11:06 +0000 2012
Wow that Liverpool mascot is so fat! Probs not the best role model for other little kids. #facupfinal,Sat May 05 16:11:06 +0000 2012
"Pumped come on Chelsea, do us proud #CFC #KTBFFH",Sat May 05 16:11:06 +0000 2012
Let the best team win! #LFC,Sat May 05 16:11:06 +0000 2012
Come on you Reds! Liverpool til I die! #YNWA #FACupFinal,Sat May 05 16:11:06 +0000 2012
#nw Chelsea - Liverpool #FAcup #cheliv,Sat May 05 16:11:06 +0000 2012
Got a feeling this game will go to ET #FACupFinal,Sat May 05 16:11:06 +0000 2012
RT @soal_SOCCER: Yg dukung Chelsea mana RT nya !!! #FAcup,Sat May 05 16:11:06 +0000 2012
RT @KendylLeRoux: @SuperManning1  @KyleVR @liamKPbrown let's goooo (from @keagsface)  #LFC #YNWA,Sat May 05 16:11:06 +0000 2012
Come on Chelsea! #LiverpoolScum #FACup,Sat May 05 16:11:07 +0000 2012
CAAAAAAAARE FREE #CFC #FAcup,Sat May 05 16:11:07 +0000 2012
ana bashaga3 el Reds :D Love #LFC :D,Sat May 05 16:11:07 +0000 2012
@stevecole82 lick Jimmy Armfield????? #FACupFinal,Sat May 05 16:11:07 +0000 2012
RT @emmajb123: Come On Chelsea  #FACupFinal,Sat May 05 16:11:07 +0000 2012
Liverpool vs. Chelsea!!! #facupfinal,Sat May 05 16:11:07 +0000 2012
#cfc Come On Chelsea..,Sat May 05 16:11:07 +0000 2012
Ito na! Chelsea vs Liverpool!!! #FACup,Sat May 05 16:11:07 +0000 2012
I m so excited. C'mon Chelsea. #CFC #chelseafc #LiverpoolvsChelsea,Sat May 05 16:11:07 +0000 2012
"RT @GOAL_ID: Hasil polling prediksi pembaca GOAL_ID: Chelsea menang 57.8%, Liverpool menang 37.7%. Preview http://t.co/YF5SUhUz #FACup",Sat May 05 16:11:07 +0000 2012
#LFC,Sat May 05 16:11:07 +0000 2012
"No royals at the #facupfinal ? Who's gonna present the cup then, not Roy Hodgson I hope!",Sat May 05 16:11:07 +0000 2012
@espn 5 hours of build up setting the mood for this mouthwatering clash for it to be wrecked by the worst football TV commentator. #facup,Sat May 05 16:11:07 +0000 2012
Chelsea vs Liverpool http://t.co/Xwxy486M @GetGlue #FACup,Sat May 05 16:11:07 +0000 2012
"Jimmy Armfield, been listening to him for 25+ years and he's still consistently the best pundit/summariser around. #FACupFinal",Sat May 05 16:11:07 +0000 2012
Team sheet! Literally! #FACUP #LFC #CFC http://t.co/cCI8exn2,Sat May 05 16:11:07 +0000 2012
RT @JoeSimpson18: Sun will always come out for Cup Final day. #FaCupFinal,Sat May 05 16:11:07 +0000 2012
Vamos Chelsea !!! #FACup,Sat May 05 16:11:07 +0000 2012
@fifacom 2-0 for Liverpool. Goal Scorer Gerrard and @luis16suarez #FACupFinal #YNWA,Sat May 05 16:11:07 +0000 2012
I didn't know Jan Molbys son was a mascot at the #facupfinal,Sat May 05 16:11:07 +0000 2012
"Gonna go for a 2-1 chelsea win, Liverpool to score first though #FAcup",Sat May 05 16:11:07 +0000 2012
"2-0 chelsea!RT @GOAL_ID: Tweeps, berapa prediksi anda untuk skor final #FACup Chelsea Vs. Liverpool?",Sat May 05 16:11:07 +0000 2012
RT @vedgy: Some cold tinnies ready on the table and tuned in on @janaagefjortoft leading the pre match studio chat. Come on the reds! #f ...,Sat May 05 16:11:07 +0000 2012
"Listo para la final de la #FACup , voy a arriesgar un poco con las Altas de 2.5 goles.",Sat May 05 16:11:07 +0000 2012
#nw Final #FAC Chelsea vs Liverpool come on #cfc come on!,Sat May 05 16:11:07 +0000 2012
#TeamLiverpool #Liverpool #LFC #TeamLiverpool #TeamLiverpool,Sat May 05 16:11:07 +0000 2012
Chelsea #facup,Sat May 05 16:11:07 +0000 2012
Come on you reds!! #LFC #YNWA,Sat May 05 16:11:08 +0000 2012
#FACUP is about the fans not Wembley's totally excessive PA system. I can hear it from here!,Sat May 05 16:11:08 +0000 2012
"hoaaammm #yawn RT @FRNNDIVN: siap siap, anteng nonton final FA #ynwa @lfc (y)",Sat May 05 16:11:08 +0000 2012
Good shot of pissed female Chelsea fan waving her Smirnoff Ice about during Abide With Me #brokenbritain #facupfinal,Sat May 05 16:11:08 +0000 2012
Dalglish doesn't even lead team out in a suit. What a knob he has become. #FAcupfinal,Sat May 05 16:11:08 +0000 2012
this best be a good match #FACupFinal,Sat May 05 16:11:08 +0000 2012
On show today at #FACupFinal England's old and new captain #YNWA # StevieGerrard,Sat May 05 16:11:08 +0000 2012
@LFC is going to bring home a second trophy today #YNWA #beatchelsea,Sat May 05 16:11:08 +0000 2012
Really hope John Terry gets sent off again to show how much of a thug footballer he really is. #FACupFinal #facup #CFC #scum,Sat May 05 16:11:08 +0000 2012
I'm going with 2-1 #CFC #Torres #lampard and #Gerard for #LFC,Sat May 05 16:11:08 +0000 2012
Blue icing because blue is the colour! #gochelsea #facupfinal  http://t.co/4X44mLwi,Sat May 05 16:11:08 +0000 2012
@chelseafc will win this match,Sat May 05 16:11:08 +0000 2012
"Kenneth couldn't afford a suit for the cup final, he spent all his money on Stella. #FACup",Sat May 05 16:11:08 +0000 2012
Chelsea nebo Liverpool? Asi je to jedno...#facup,Sat May 05 16:11:08 +0000 2012
@HusamAlrayes hes solid...has his moments...ie against united...but hes growing one for the future #FACupFinal,Sat May 05 16:11:08 +0000 2012
#CFC COME ON!,Sat May 05 16:11:08 +0000 2012
#FACup hymn? that's a disgrace. #kickitout,Sat May 05 16:11:08 +0000 2012
"RT @tinpanscally: #LFC, I want to see John Terry crying at the final whistle. Make it so.",Sat May 05 16:11:08 +0000 2012
Have to work during @chelseafc FA Cup match today &amp; going to see Avengers after work. Going offline til late for fear of seeing result.,Sat May 05 16:11:09 +0000 2012
"@drewski1980 can't see you in the crowd, chewbak give us a wave, chewbak, chewbak give us a wave #facupfinal #mayweathervcotto #drunk #mates",Sat May 05 16:11:09 +0000 2012
"RT @Liverpool_PLS: Momento himno !!
Respeto absoluto .
#LFC #YNWA #JFT96 
Futbol ingles puro y duro, recuerdo para Muamba impresionante. ...",Sat May 05 16:11:09 +0000 2012
RT @chelseafc: RT @JMcEachran20: Come on Chelsea!!!,Sat May 05 16:11:09 +0000 2012
RT @DavidM33: Come on the Chels! #cfc,Sat May 05 16:11:09 +0000 2012
"RT @InfostradaLive: Roberto di Matteo can make it three in a row for Italian coaches winning the #FACup, succeeding Mancini and Ancelott ...",Sat May 05 16:11:09 +0000 2012
RT @chelseafc: RT @JMcEachran20: Come on Chelsea!!!,Sat May 05 16:11:09 +0000 2012
"bersyukurr aja dah :-)  ,,#LFC, luiz Habsy Suarez is gol haha @PoppyAmoy",Sat May 05 16:11:09 +0000 2012
Y mi @LFC esta de regreso en Wembley! Vamos equipoooo a ganarle al Chelsea!!,Sat May 05 16:11:09 +0000 2012
"RT @tinpanscally: #LFC, I want to see John Terry crying at the final whistle. Make it so.",Sat May 05 16:11:09 +0000 2012
"@BigFashionista I'll keep you posted, darl, xx #CFC #FACup",Sat May 05 16:11:09 +0000 2012
RT @chelseafc: RT @JMcEachran20: Come on Chelsea!!!,Sat May 05 16:11:09 +0000 2012
End our season with 2cups come on redman #LFC #YNWA,Sat May 05 16:11:09 +0000 2012
RT @EmmaK67: COME ON ARSENAL! #facup,Sat May 05 16:11:09 +0000 2012
Hmm... Should I stay up and watch the match or do the right thing and go to sleep? #facupfinal,Sat May 05 16:11:09 +0000 2012
#FACup,Sat May 05 16:11:09 +0000 2012
Let's not forget Chelsea fans boo'd during the one minute silence for Hillsborough #LFC,Sat May 05 16:11:10 +0000 2012
CHELSEA &lt;3 #CFCWembley,Sat May 05 16:11:09 +0000 2012
Surely the guest of honour knows who the players are? #facupfinal,Sat May 05 16:11:10 +0000 2012
"RT @InfostradaLive: Roberto di Matteo can make it three in a row for Italian coaches winning the #FACup, succeeding Mancini and Ancelott ...",Sat May 05 16:11:09 +0000 2012
"Nerves.....
Liverpool vs Chelsea. #2012FAcupFinal ...
C'mon Reds!! Lets win this. #YNWA #LFC",Sat May 05 16:11:10 +0000 2012
I couldn't possibly tell you who's going to win. I'd be guessing if I even tried to tell you who's playing. #facup #football,Sat May 05 16:11:10 +0000 2012
Phil Dowd is a right fat cunt aint he. #outofshaperef #facup,Sat May 05 16:11:10 +0000 2012
this best b a good FA cup final need cheering up #FACupFinal,Sat May 05 16:11:10 +0000 2012
Chelsea vs Liverpool #FAcupfinal and Mayweather vs Cotto boxing tonight. Looks like no #revision till tommorow!!!,Sat May 05 16:11:10 +0000 2012
#FACupFinal come on liverpool!!!!! #YNWA,Sat May 05 16:11:10 +0000 2012
here we go @LFC come on you reds. #FAcup,Sat May 05 16:11:10 +0000 2012
Chelsea-Liverpool #FACupFinal,Sat May 05 16:11:10 +0000 2012
Come on Chelsea! #FACupFinal,Sat May 05 16:11:10 +0000 2012
Game is bout to start so I will #STFU. Hoping for a #LFC win. COME ON YOU REDS!!!,Sat May 05 16:11:10 +0000 2012
"RT @FIFAcom: RT @ankitCFC: 2-1 for Chelsea Goal scorer Drogba, Mata and Gerrard #CFC #LFC #FACupFinal",Sat May 05 16:11:10 +0000 2012
SUAREZ. TERRY. DALGLEISH. DROGBA. HICKS. ABRAMOVICH. GILLETT. The 2012 FA Cunts Final. #FACup #LFC #CFC,Sat May 05 16:11:10 +0000 2012
@Greg_Dillon you must be going mental! Hope the boys do you proud! #facupfinal http://t.co/nYSPzh29,Sat May 05 16:11:10 +0000 2012
Se viene la final de la #FAcup #Chelsea #Liverpool.,Sat May 05 16:11:10 +0000 2012
Shitting myself now #FACupFinal,Sat May 05 16:11:10 +0000 2012
"@scotwilliams come on then Scot , score prediction please :-) #FAcup",Sat May 05 16:11:10 +0000 2012
RT @Amina_xxx: Here we go!! #LFC,Sat May 05 16:11:10 +0000 2012
MENTION 4 FOLLBACK #TeamFollowBack #AutoFollowBack #InstantFollow #FollowMe #FollowFriday #500aday #1000aDay #OpenFollow #CfC,Sat May 05 16:11:10 +0000 2012
#facupfinal  come on torres and chelsea,Sat May 05 16:11:10 +0000 2012
RT @smeIIy: Did anyone see that drunk Chelsea fan with a Smirnoff Ice in her hand? LMFAO. #facupfinal,Sat May 05 16:11:10 +0000 2012
Thinking I'm too old to be taken out onto the pitch like the little kids :( #cfc,Sat May 05 16:11:11 +0000 2012
come on #lfc,Sat May 05 16:11:11 +0000 2012
#liverpool cmon prove me wrong :P #facupfinal,Sat May 05 16:11:11 +0000 2012
So nervous CMON YOU BLUES!!!!!!!!!!!!!! &lt;3 @chelseafc,Sat May 05 16:11:11 +0000 2012
RT @Shaun_Payne_7: I just don't get why they call #CFC fans 'chavs'... http://t.co/3FSAdhEK,Sat May 05 16:11:11 +0000 2012
"RT @chelseafc: Team v Liverpool: Cech; Bos, Iva, JT (c), Cole; Mik, Lamps; Ram, Mata, Kal; Drog.  #CFCWembley #FACupFinal. (SL)",Sat May 05 16:11:11 +0000 2012
Quem vai ganhar @chelseafc ou @liverpoolFC ?,Sat May 05 16:11:11 +0000 2012
#FACupFinal Bonus points for cutting to absolutely hammered Chelsea girl halfway through Abide With Me. Nice touch.,Sat May 05 16:11:11 +0000 2012
Chelsea-Liverpool? Com'n Liverpool!!! #lfc #FACupFinal,Sat May 05 16:11:11 +0000 2012
"The least Kenny could do is where a suit, its the fucking FA Cup final. #facup #soldlesferdinand #signedpauldalglish",Sat May 05 16:11:11 +0000 2012
One of the few occasions I will be watching football and cheering as much for the lino as #lfc - good luck burtie.,Sat May 05 16:11:11 +0000 2012
What a beautiful woman with a beautiful voice.  Shame ITV chose to focus on a young girl seemingly drunk on Smirnoff Ice!  Classy! #facup,Sat May 05 16:11:11 +0000 2012
@realshanerichie Who you routing for Shane? #FACup,Sat May 05 16:11:11 +0000 2012
C'mon you Blues! #cfc #facup http://t.co/SUIclyRu,Sat May 05 16:11:11 +0000 2012
Come on Liverpool! #facupfinal,Sat May 05 16:11:11 +0000 2012
"No matter what happen, I will always be Liverpudlian. Come @LFC be the best! Ganbatte @Gerrard8FanPage ... http://t.co/0lSLekWz",Sat May 05 16:11:11 +0000 2012
RT @chelseafc: A picture of the team warming up... We'll kick-off in just under half an hour...#CFCWembley #FACupFinal (SL) http://t.co/ ...,Sat May 05 16:11:11 +0000 2012
Come on you mighty reds #Liverpool #FACupFinal,Sat May 05 16:11:12 +0000 2012
RT @2nd_time_champ: Still can't help thinking it could have been us today #FaCup #Everton,Sat May 05 16:11:12 +0000 2012
RT @curtnickisch: Big game about to start for Fenway Sports Group. Not #redsox. #Liverpool plays for #FACup.,Sat May 05 16:11:12 +0000 2012
Shaking like a shitting dog! C'mon reds let's do these bastards!! #LFC,Sat May 05 16:11:12 +0000 2012
Watching the #FACUP final as a neutral... As usual! haha!,Sat May 05 16:11:12 +0000 2012
#FACupFinal Torres will scores !!,Sat May 05 16:11:12 +0000 2012
This #FACup is also known as the battle of Adidas.,Sat May 05 16:11:12 +0000 2012
#FACup final + pannenkoeken van Cher. Lekker begin van deze zaterdagavond.,Sat May 05 16:11:12 +0000 2012
"Hate #LFC , can't stand #Chelsea , but first and foremost I'm a Manc. C'mon Chelsea!!!!!",Sat May 05 16:11:12 +0000 2012
#FAcupfinal - Chelsea are the better team but it boils down to same old battle #lampardvsgerrard @henrywinter,Sat May 05 16:11:12 +0000 2012
I wonder what Terry &amp; Suarez will be talking about?  #FACUP,Sat May 05 16:11:12 +0000 2012
Pre match nerves now kicked in #FACupFinal #YNWA,Sat May 05 16:11:12 +0000 2012
and now time for business #FAcupfinal #ChealseVsLiverpool,Sat May 05 16:11:12 +0000 2012
I apologize in advance for my spaming today. #facupfinal,Sat May 05 16:11:12 +0000 2012
"RT @GOAL_ID: Liverpool Subs: Carroll, Maxi, Kuyt, Carragher, Doni, Shelvey, Kelly. #FACup",Sat May 05 16:11:12 +0000 2012
Drinking tea and watching the #FAcupfinal #goodday,Sat May 05 16:11:12 +0000 2012
Vamos #Chelsea por la primera copa de la temporada. Final #FACup.,Sat May 05 16:11:12 +0000 2012
That girl with the smirnoff ice on #espn looks fecked #Liverpool #Facup,Sat May 05 16:11:12 +0000 2012
footie is so spiritual 'Abide with Me' #facupfinal,Sat May 05 16:11:12 +0000 2012
Steak &amp; chips coupled with the #FACupFinal - a good mix! :),Sat May 05 16:11:12 +0000 2012
U can walk wif loosers.. #cfc don't care RT @princehelix: You will never walk Alone...,Sat May 05 16:11:12 +0000 2012
Come on Chelsea. Today is the first of two. #CFC #CFC,Sat May 05 16:11:12 +0000 2012
Cmon @LFC,Sat May 05 16:11:12 +0000 2012
I would give my left arm to be at Wembley right now.... #lfc,Sat May 05 16:11:12 +0000 2012
"2-1 untuk chelsea RT@GOAL_ID weeps, berapa prediksi anda untuk skor final #FACup Chelsea Vs. Liverpool?",Sat May 05 16:11:13 +0000 2012
#FACup Final... Let's go!! http://t.co/OiB8lrpm,Sat May 05 16:11:12 +0000 2012
#LFC #YNWA,Sat May 05 16:11:13 +0000 2012
Decent to see skrtel an agger back! #Liverpool to win 2-1 @luis16suarez 1st goal #FACupFinal #YNWA,Sat May 05 16:11:13 +0000 2012
Chelsea - Liverpool #FACup,Sat May 05 16:11:13 +0000 2012
COME ON CHELSEA!!! #FACupFinal #CFC,Sat May 05 16:11:13 +0000 2012
Gone cold &amp; got the shivers it must mean Liverpool are about to play and the nerves are well and truly settled in. COME ON RED MEN #LFC,Sat May 05 16:11:13 +0000 2012
Vamos #Liverpool a ganar la #FACup,Sat May 05 16:11:13 +0000 2012
RT @chelseafc: You can tune into Chelsea TV's live commentary right here http://t.co/Gc2EjcbU #FACupFinal #CFCWembley (SL),Sat May 05 16:11:13 +0000 2012
#FACupFinal,Sat May 05 16:11:13 +0000 2012
Come On Liverpool! @LFC,Sat May 05 16:11:13 +0000 2012
5 more minutes!!! #LFC #FACupFinal,Sat May 05 16:11:13 +0000 2012
Only 5 minutes until #Chelsea kick off. Send me your score prediction. A #FF for any correct guesses. #CFC,Sat May 05 16:11:13 +0000 2012
#LFC get a fucking tracksuit on you scummy cunt. King Kenny i despise you,Sat May 05 16:11:13 +0000 2012
#FAcup prediction. 2-1 Chelsea.,Sat May 05 16:11:13 +0000 2012
RT @ollarichi: Nobar Chelsea vs Liverpool #CFC #KTBFFH (@ Plangi Sky Dining w/ 31 others) http://t.co/BE9ArXil,Sat May 05 16:11:13 +0000 2012
Come On Liverpool! #LFC,Sat May 05 16:11:13 +0000 2012
"Drogba vs suarez , 2 girls one cup #FACupFinal",Sat May 05 16:11:13 +0000 2012
waiting for #FACupFinal,Sat May 05 16:11:14 +0000 2012
"RT @Neil89official: Either way, a racist will win the FA cup today, horrible #FACupFinal",Sat May 05 16:11:13 +0000 2012
LIVERPOOL ALL #FACUP THE WAY #YNWA.,Sat May 05 16:11:13 +0000 2012
#Chelsea #FACupFinal am a blue today. Lampard's day today,Sat May 05 16:11:14 +0000 2012
Can't watch the #FACup final between Chelsea vs. Liverpool because I'm out.. #sigh,Sat May 05 16:11:14 +0000 2012
@ItsCllaire on no claire! I hope you spelt the team rong and you mean Liverpool??? Lol #FACup,Sat May 05 16:11:14 +0000 2012
yimz RT @Adu_Michael CFC all the way!!!! #FACUP,Sat May 05 16:11:14 +0000 2012
RT @shane_salt: Come on your Chels! #FACupFinal #KTBFFH #CFCWEMBLEY http://t.co/lIRP8Ajr,Sat May 05 16:11:14 +0000 2012
Big match #FACup Final - Let's go Reds!!!  @cuddybrooklyn @LFCBoston @LFCNY @LFC #ynwa,Sat May 05 16:11:14 +0000 2012
Semoga @chelseafc musim ini dapat 2 gelar :) #KTBFFH,Sat May 05 16:11:14 +0000 2012
It's wrong that the #FACup is on at 5:15 pm and and there are still league games to play. Respect the cup. Give the cup a champions league,Sat May 05 16:11:14 +0000 2012
Chelsea laa jelassss... Hahhhah RT @aganowirawijaya hope @LFC win this fa trophy and bring the glory for the fans.. #YNWA,Sat May 05 16:11:14 +0000 2012
RT @syanazverron: #CFC #CFC #CFC #CFC #CFC #CFC #CFC #CFC #CFC #CFC #CFC #CFC #CFC #CFC #CFC #CFC #CFC #CFC #CFC #CFC #CFC #CFC #CFC #CF ...,Sat May 05 16:11:14 +0000 2012
Go the fucking reds #LiverpoolFc #StevenGerrard8 #FACupFinal http://t.co/q8uby4sk,Sat May 05 16:11:14 +0000 2012
"another day at work is done, now to sit down and enjoy what hopefully will be a classic #FACupFinal",Sat May 05 16:11:14 +0000 2012
Come on you reds!! #YNWA #LFC http://t.co/c2AQUNIs,Sat May 05 16:11:14 +0000 2012
Liverpool...YNWA @LFC,Sat May 05 16:11:14 +0000 2012
Getting ready to watch #FACupFinal,Sat May 05 16:11:14 +0000 2012
Yaaaaaaaaayyy buddy! RT @NickAntonio: RT @JustBet_Ja: MATCH TIME !!!!!!!  #FACup FINAL !!!!!,Sat May 05 16:11:14 +0000 2012
Chelsea vs Liverpool.....don't know who I want to win. #FACupFinal,Sat May 05 16:11:14 +0000 2012
Come on Chelsea :-) #COYB #facupfinal,Sat May 05 16:11:14 +0000 2012
"#FAcup time!! Still a disgrace it is being played before end of the season, and at this time..... Let's hope its a good game",Sat May 05 16:11:14 +0000 2012
RT @JimmyMonstaFunk: @liverpooldeep Gerard looking at Buddha #lfc #facupfinal http://t.co/vDNuICow,Sat May 05 16:11:14 +0000 2012
"RT @InfostradaLive: Roberto di Matteo can make it three in a row for Italian coaches winning the #FACup, succeeding Mancini and Ancelott ...",Sat May 05 16:11:14 +0000 2012
RT @FIFAcom: What do you think the score will be today between @Chelseafc and @lfc in the FA Cup Final and who will get the goals? #CFC  ...,Sat May 05 16:11:14 +0000 2012
This FA Cup will just make my weekend!! Go Blues!! @chelseafc,Sat May 05 16:11:14 +0000 2012
Let's go Reds! #YNWA #LFC,Sat May 05 16:11:14 +0000 2012
Records are gonna be shattered here this evening regardless of the outcome #cfc #lfc #FAcup,Sat May 05 16:11:14 +0000 2012
Luis Suarez getting a thumbs up from Jimmy Armfield! #FACupFinal #lfc,Sat May 05 16:11:14 +0000 2012
"Ik krijg vandaag ineens de vrijheid!
*plop* &amp; #facup.
En er wordt gekookt......
Kijken wat er morgen uit de hoge hoed komt.",Sat May 05 16:11:15 +0000 2012
Come On Reds #YNWA #FACupFinal,Sat May 05 16:11:15 +0000 2012
"1-0""@GOAL_ID: Tweeps, berapa prediksi anda untuk skor final #FACup Chelsea Vs. Liverpool?""",Sat May 05 16:11:15 +0000 2012
I hate it when the ref picks up the match ball from a plinth on the way out. It was shit in the world cup and it's just as bad in the #facup,Sat May 05 16:11:15 +0000 2012
hate liverpool with a passion! so its come on chelski from me. 3-1 my prediction #facupfinal,Sat May 05 16:11:15 +0000 2012
@chelseafc im here for supporting you guyss :) and also praying for our victory today,Sat May 05 16:11:15 +0000 2012
#FACupFinal time. Hmmmmm who to support. #Liverpool #Chelsea,Sat May 05 16:11:15 +0000 2012
Buzzing for the game! Come on you reds! #YNWA #FACup,Sat May 05 16:11:15 +0000 2012
Imagine Gerard 4gets d name of a team mate during the introductory handshakes...... Terry more likely to forget though..... #facup,Sat May 05 16:11:15 +0000 2012
RT @RB7___: Come on Chelsea! #CFC,Sat May 05 16:11:15 +0000 2012
Get dem chelsea!! RT@SHE_soDAMNreal @hotskull123 #FACupFinal #Chelsea #Liverpool,Sat May 05 16:11:15 +0000 2012
@KatieSJordan @chelseafc hope you have a nice time:Dxxxxxxx,Sat May 05 16:11:15 +0000 2012
Itv or ESPN for #facup? #rockandhardplace,Sat May 05 16:11:15 +0000 2012
Nice tin foil dancing there. Why have so many kid mascots these days though? Looks like two of them didn't even want to be there? #facup,Sat May 05 16:11:16 +0000 2012
Can't decide which team I want to see get beat more... #NotInterested #FAcup,Sat May 05 16:11:16 +0000 2012
"RT @GOAL_ID: Selamat malam Tweeps, sudah siapkah untuk menyaksikan Live Commentary pertandingan final #FACup antara Chelsea dan Liverpool?",Sat May 05 16:11:16 +0000 2012
My heart be still... #LFC,Sat May 05 16:11:16 +0000 2012
"Seen Blues win away in Europe, seen Blues win at Wembley in the League Cup, would love to see us in the #FACup final one day.",Sat May 05 16:11:16 +0000 2012
Let's have it you red men! #facupfinal,Sat May 05 16:11:16 +0000 2012
#COYB the time is now #CFC #Believe #KTBFFH,Sat May 05 16:11:16 +0000 2012
This is it!!! GAME TIME!!! Come on the Pool!! #facup #LFC #cfc,Sat May 05 16:11:16 +0000 2012
"F.A cup final....yes :D #FACup 
Chelsea to win hopefully :)",Sat May 05 16:11:16 +0000 2012
just in time for the #facupfinal (:,Sat May 05 16:11:16 +0000 2012
Win or Victory!. RT @LFC: Liverpool supporters: best in the world http://t.co/sVCkixkw,Sat May 05 16:11:16 +0000 2012
95mins until we reveal the next FA cup champions! #CFC,Sat May 05 16:11:16 +0000 2012
Come on liverpool #LFC #FACup,Sat May 05 16:11:28 +0000 2012
"If the person next to ya is waving a plastic flag, giv em a good fuckin slap #wembley #lfc",Sat May 05 16:11:28 +0000 2012
Wouldn't want to meet Dagger in a bad mood down a dark alley #hardcase #LFC,Sat May 05 16:11:28 +0000 2012
Anyone get onto that Chelsea supporter with the smirnoff she was propa smashed #FACupFinal #ITV,Sat May 05 16:11:28 +0000 2012
3 - Luis Suarez has scored in all three of his FA Cup appearances for the Reds. #LFC #FACupFinal,Sat May 05 16:11:28 +0000 2012
#FACupFinal (@ Restoran Bangi Impian Maju w/ 3 others) http://t.co/GbFNosQL,Sat May 05 16:11:28 +0000 2012
Ya casi empieza #FACup,Sat May 05 16:11:28 +0000 2012
Hope it goes to penas #facup,Sat May 05 16:11:28 +0000 2012
@JayChukwuemeka @nke_ise @kennybadex @debolaolomo *it'll be nothing but blue after 90 mins. #Believe  #CFC,Sat May 05 16:11:28 +0000 2012
My nerves are like shredded wheat... come on you reds #LFC,Sat May 05 16:11:28 +0000 2012
RT @jafs_i_am: #cfc v #lfc #FACupFinal,Sat May 05 16:11:28 +0000 2012
So nervous I think I may actually be sick. #LFC #FACup,Sat May 05 16:11:28 +0000 2012
COME ON YOU REDS!! #YNWA #FACupFinal,Sat May 05 16:11:28 +0000 2012
"2-0 utk #CheLsea :) RT @GOAL_ID: Tweeps, berapa prediksi anda untuk skor final #FACup Chelsea Vs. Liverpool?",Sat May 05 16:11:28 +0000 2012
Nu even #facup kijken.,Sat May 05 16:11:28 +0000 2012
The #FACup ball named after my Dog. Neo. Good start. #cfc #lfc,Sat May 05 16:11:29 +0000 2012
Here we go Blues! #FACUP,Sat May 05 16:11:29 +0000 2012
RT @diadan87: Ovviamente supporto per il @chelseafc #FAcup,Sat May 05 16:11:29 +0000 2012
C'mon Chelsea #FACupFinal,Sat May 05 16:11:29 +0000 2012
Come on CHELSEA!!! KTBFFH! Let's hope drogba is in his mood -&gt; unstoppable. #CFC #FACupFinal,Sat May 05 16:11:29 +0000 2012
Thank you Mr @kennethdalglish for taking us to Wembley again. #lfc #ynwa,Sat May 05 16:11:29 +0000 2012
RT @vedgy: Some cold tinnies ready on the table and tuned in on @janaagefjortoft leading the pre match studio chat. Come on the reds! #f ...,Sat May 05 16:11:29 +0000 2012
"0-2 u/ merah RT @GOAL_ID: Tweeps, berapa prediksi anda untuk skor final #FACup Chelsea Vs. Liverpool?",Sat May 05 16:11:29 +0000 2012
#FACupFinal #Chelsea will win!!!,Sat May 05 16:11:29 +0000 2012
I would give my left breast to be there right now! #LFC,Sat May 05 16:11:29 +0000 2012
The #Liverpool jackets look cool though! #FACUPFINAL,Sat May 05 16:11:29 +0000 2012
Come on you reds!!! #LFC,Sat May 05 16:11:29 +0000 2012
RT @nikcikelon: #CFC,Sat May 05 16:11:29 +0000 2012
RT @njaanu: Bismillah first trophy. Ayoo!! #CFC,Sat May 05 16:11:30 +0000 2012
"10-0 buat Chelsea!!! RT @GOAL_ID: Tweeps, berapa prediksi anda untuk skor final #FACup Chelsea Vs. Liverpool?",Sat May 05 16:11:30 +0000 2012
My prediction - liverpool 2-0 suarez to score twice #lfc,Sat May 05 16:11:30 +0000 2012
Bernstein and Terry #HollowHandshakes #FACup,Sat May 05 16:11:30 +0000 2012
"RT @gunnerblog: Ah, the romance of a child with a Bacardi Breezer. #facup",Sat May 05 16:11:30 +0000 2012
Blues. Win. Please. I. Beg. You. #CFC,Sat May 05 16:11:30 +0000 2012
I'm rooting for Chelski today purely based on the fact that De Matteo looks smarter than Dalgleish #FACup,Sat May 05 16:11:30 +0000 2012
RT @nickwoody89: That Chelsea lass with the bottle of Smirnoff Ice during Abide With Me doesn't look like she'll see you the match. #FAC ...,Sat May 05 16:11:30 +0000 2012
"Liverpool XI: Reina; Johnson, Skrtel, Agger, Jose Enrique; Spearing, Henderson; Downing, Gerrard, Bellamy; Suarez. #FACup",Sat May 05 16:11:30 +0000 2012
RT @LuisSamuelMon: @LFC #ynwa #facup @luis16suarez @glen_johnson @glennotropolis vamos chucha!!!!!,Sat May 05 16:11:30 +0000 2012
@cchics_fac @FionaCulas @LFC Game on =),Sat May 05 16:11:30 +0000 2012
"2- 1 RT@GOAL_ID Tweeps, berapa prediksi anda untuk skor final #FACup Chelsea Vs. Liverpool?",Sat May 05 16:11:30 +0000 2012
FA Cup Final! #comeonyoublues #ktbffh #CFCWEMBLEY #,Sat May 05 16:11:31 +0000 2012
@yan_prodika gue nonton di rumah bang sm ade gue nih. Keep support Chelsea kita ya #KTBFFH #CFC,Sat May 05 16:11:31 +0000 2012
"Wembley looks more RED than BLUE, my eyes don't lie. Always great to see a final. Hope Chelsea get their asses whooped. #lfc #cfc",Sat May 05 16:11:31 +0000 2012
Let's fucking go reds!!! #LFC,Sat May 05 16:11:31 +0000 2012
Dalglish dressing up for the occasion... #FACupFinal,Sat May 05 16:11:31 +0000 2012
@byaru @rude_end @mumakeith @Itmustbeice @mrkangaroojack @patrickoyulu @stevieworts @duchace @rutagwera @empireofthekop @LiverpoolFC #ynwa,Sat May 05 16:11:31 +0000 2012
Dale @chelseafc !!,Sat May 05 16:11:31 +0000 2012
RT @chelseafc: You can tune into Chelsea TV's live commentary right here http://t.co/Gc2EjcbU #FACupFinal #CFCWembley (SL),Sat May 05 16:11:31 +0000 2012
#chelsea vs #liverpool final #FAcup,Sat May 05 16:11:31 +0000 2012
"RT @GOAL_ID: Hasil polling prediksi pembaca GOAL_ID: Chelsea menang 57.8%, Liverpool menang 37.7%. Preview http://t.co/YF5SUhUz #FACup",Sat May 05 16:11:31 +0000 2012
COME ON YOU REDMEN #LFC #facup,Sat May 05 16:11:31 +0000 2012
Phil dowd you fat bastard you better do your job #CFCWembley,Sat May 05 16:11:31 +0000 2012
"RT @SkySportsMobile: Liverpool team v Chelsea: Reina, Johnson, Agger, Skrtel, Enrique, Gerrard, Spearing, Henderson, Downing, Bellamy, S ...",Sat May 05 16:11:31 +0000 2012
@chelseafc #FACupFinal,Sat May 05 16:11:31 +0000 2012
RT @chelseafc: You can tune into Chelsea TV's live commentary right here http://t.co/Gc2EjcbU #FACupFinal #CFCWembley (SL),Sat May 05 16:11:31 +0000 2012
"Not the same without cup final wrestling,cup final swap shop,at the hotel and on the coach to wembley #facupfinal",Sat May 05 16:11:31 +0000 2012
Come on @LFC #YNWA #FACupFinal,Sat May 05 16:11:31 +0000 2012
But it's time for #FACupFinal!,Sat May 05 16:11:31 +0000 2012
"Oh man my stomach is killing me, my heart is beating like theres no tomorrow ahh so nervous #FaCupFinal",Sat May 05 16:11:32 +0000 2012
"RT @NotMartinTyler: Like the FA Cup, Phil Dowd is also sponsored by Budweiser. #BeerBelly #FACup",Sat May 05 16:11:31 +0000 2012
Good Luck @LFC - You'll never walk alone!!! Let's win this final!!! Losing is not an option.,Sat May 05 16:11:32 +0000 2012
Jay Spearing -no matter how many times I see the guy I will never get used to the fact that he looks exactly like a garden gnome #FACupFinal,Sat May 05 16:11:32 +0000 2012
Backing Liverpool for today's final! #FACupFinal,Sat May 05 16:11:32 +0000 2012
RT @Linda_Pizzuti: The sun is shining on @LFC fans http://t.co/OaRLcIK5,Sat May 05 16:11:32 +0000 2012
"Gausah muluk2 , 4-1 RT @GOAL_ID: Tweeps, berapa prediksi anda untuk skor final #FACup Chelsea Vs. Liverpool?",Sat May 05 16:11:32 +0000 2012
Juu ya veve supporting The Kop! #FACup,Sat May 05 16:11:32 +0000 2012
RT @Richard_Buxton_: Fabrice Muamba is the FA's guest of honour at the #FACupFinal. Warm ovation for the recovering #BWFC defender from  ...,Sat May 05 16:11:32 +0000 2012
RT @chelseafc: A picture of the team warming up... We'll kick-off in just under half an hour...#CFCWembley #FACupFinal (SL) http://t.co/ ...,Sat May 05 16:11:32 +0000 2012
"RT @rickedwards1: enjoyed that film about John Terry. The only way it could've been better is if the VO said ""And don't forget - he is a ...",Sat May 05 16:11:32 +0000 2012
Hopefully Liverpool #LFC will win FA Cup. Suarez will be great. #YNWA,Sat May 05 16:11:32 +0000 2012
"Coming this fall on FSC ""Our Liverpool: Never Walk Alone"" a documentary. Looking forward to seeing that. #YNWA #LFC",Sat May 05 16:11:32 +0000 2012
It's starting #FACupFinal #lfc #cfc #YNWA,Sat May 05 16:11:32 +0000 2012
"Big match today, just about to start Chelsea x Liverpool - FA Cup Final. Wish good luck to my team @chelseafc",Sat May 05 16:11:32 +0000 2012
RT @cam8710: Livvveeerrrrrpppoooolllllll!!!!! #LFC,Sat May 05 16:11:32 +0000 2012
RT @chelseafc: You can tune into Chelsea TV's live commentary right here http://t.co/Gc2EjcbU #FACupFinal #CFCWembley (SL),Sat May 05 16:11:32 +0000 2012
"""A cup final that needs no introduction"" -- we've had hours of build up mate. #FACupFinal",Sat May 05 16:11:32 +0000 2012
Goodluck @LFC ! Send the blues crying back to Stamford bridge !,Sat May 05 16:11:32 +0000 2012
Where's all the Chelsea haters at tonight ;) - Chelsea's Trophy! #FACupFinal #CFC,Sat May 05 16:11:32 +0000 2012
Bet ITV1 go to a break before kick-off. #FACupFinal,Sat May 05 16:11:32 +0000 2012
"RT @dailypostngr: #Liverpool: Reina; Johnson, Skrtel, Agger, Jose Enrique; Spearing, Henderson; Downing, Gerrard, Bellamy; Suarez. #FACup",Sat May 05 16:11:32 +0000 2012
Come on lads...lets do this! #lfc,Sat May 05 16:11:32 +0000 2012
comienza la fina numero 131 de la competicion mas antigua del mundo la #FACup que espectaculo!!,Sat May 05 16:11:32 +0000 2012
I'm going for 4-3.... Haven't decided who is gonna win yet though. #facupfinal,Sat May 05 16:11:32 +0000 2012
Come on Chelsea @NYBluesCFC @chelseafc http://t.co/RTHpj8zY,Sat May 05 16:11:32 +0000 2012
Decided I'm rooting for #LFC to show my support for Jordan Henderson #lovehimtoscorethewinner #hawayjordan,Sat May 05 16:11:33 +0000 2012
#liverpoolfanforlife #LFC You will never walk alone...,Sat May 05 16:11:33 +0000 2012
"Dont like either team, but I think I hate Chelsea slightly less than Liverpool which is why i want them to win, plus they're on my acca #CFC",Sat May 05 16:11:33 +0000 2012
RT @Sanele_MM: In 2000 Di Matteo won da FA Cup wit Chelsea as a player. 2nyt its his chance 2 win one as a manager #FACupFinal,Sat May 05 16:11:33 +0000 2012
Just seen the Liverpool line-up. Full strength pretty much. Eh. #FACup,Sat May 05 16:11:33 +0000 2012
Such an awkward handshake between Bernstein and Terry #FaCup #Chelsea #Liverpool,Sat May 05 16:11:33 +0000 2012
@chelseafc YOU CAN DO IT BOYS!!!!!!!!!!!,Sat May 05 16:11:33 +0000 2012
This is hard. I don't know which team I want to contract a mass case of rabies the most. #FACupFinal,Sat May 05 16:11:33 +0000 2012
"Kaya ketemu ya td ?? ""@ppadank: Goo bluesss to first tiltle #FAcupfinal""",Sat May 05 16:11:33 +0000 2012
"Que ya empiece el partido, voy con Chelsea #FAcup",Sat May 05 16:11:33 +0000 2012
Solo quiero que claven al @chelseafc hoy !!,Sat May 05 16:11:33 +0000 2012
#LFC,Sat May 05 16:11:33 +0000 2012
Fucking come on Liverpool!!!!!! #LFC #YNWA,Sat May 05 16:11:33 +0000 2012
Chelsea Vs Liverpool #FACupFinal #Nervous ! Aint gonna be easy!,Sat May 05 16:11:33 +0000 2012
RT @pablobili316: Chelsea or Liverpool... of course that Chelsea FC will win... Drogba will carry us... #CFC,Sat May 05 16:11:33 +0000 2012
Am so bloody Nervous #CFC #KeepTheBlueFlagFlyingHigh,Sat May 05 16:11:34 +0000 2012
RT @kenpootCFC: the young girl leading #Chelsea out on to the pitch is our very own @nannynutnutcfc granddaughter #KTBFFH #CFC #UTC,Sat May 05 16:11:33 +0000 2012
This match better just be good...can't believe I was sittin here watchin the build up for 2 hours like a real prick! -_- #FACupFinal,Sat May 05 16:11:34 +0000 2012
Vamos #Chelsea @chelseafc,Sat May 05 16:11:34 +0000 2012
Let's see how many fuck ups Phil Dowd as today #wanker #facup,Sat May 05 16:11:34 +0000 2012
Wembley feels like Anfield on a European night. Can you hear the Chelsea sing? #lfc,Sat May 05 16:11:34 +0000 2012
I wouldn't hate Liverpool so much if it wasn't for all the Scousers lol. #BinDippers #FACup,Sat May 05 16:11:34 +0000 2012
Epic day for sport: #FACupFinal #ChelseaVsLiverpool #FightNight #MayfeatherVsQuinto,Sat May 05 16:11:34 +0000 2012
Either way racism wins this one ... #FACUP,Sat May 05 16:11:34 +0000 2012
#NW : #FACupFinal #Chelsea #Liverpool,Sat May 05 16:11:34 +0000 2012
first time in a long time since I've worn my liverpool shirt when I'm watching a game on TV! Feel like I'm 6 haha #LFC,Sat May 05 16:11:34 +0000 2012
RT @LivEchoLFC: Great banner - Skrtel probably flame grills himself to warm up before games http://t.co/OfD729N0 #lfc #facup,Sat May 05 16:11:34 +0000 2012
"Come on Liverpool, do us proud !! #LFC",Sat May 05 16:11:34 +0000 2012
RT @Rob15Shotton: me and my sister got our liverpool tops on :P come on you reds #LFC http://t.co/RppLqGU0,Sat May 05 16:11:34 +0000 2012
RT @chelseafc: RT @JMcEachran20: Come on Chelsea!!!,Sat May 05 16:11:34 +0000 2012
@LFC 1 Chelsea 0 Gerrard to score first #facupfinal,Sat May 05 16:11:34 +0000 2012
Time for some real football #FAcupfinal. COME ON LIVERPOOL,Sat May 05 16:11:35 +0000 2012
Footie on... ready and waiting... come on Liverpool!!!!! #FACupFinal,Sat May 05 16:11:35 +0000 2012
@IAmTimish hahaha just made my pick. #CFC all the way.,Sat May 05 16:11:34 +0000 2012
"""@notaslimboy: But not their team .. :( RT @LFC: Liverpool supporters: best in the world http://t.co/SAXIqgsq""#agree bro..hiks..hiks:(#",Sat May 05 16:11:35 +0000 2012
Fancy Liverpool to win #FACupFinal,Sat May 05 16:11:35 +0000 2012
i want a draw!hehe nwa best team win pple #cfc vs #lfc,Sat May 05 16:11:35 +0000 2012
I love the Blues. #cfc,Sat May 05 16:11:35 +0000 2012
"Right, time for footy! Don't care who wins really. As long as it's not John Terry. Or Luis Suarez. Can both sides lose? #FACupFinal",Sat May 05 16:11:35 +0000 2012
Would actually love to be there! #LFC,Sat May 05 16:11:35 +0000 2012
@rachy_wright @Montana46 not that would be a massive same nnnnaaaatttttt #lfc #ynwa,Sat May 05 16:11:35 +0000 2012
Here we go #FACup Final 2012! I predict Chelsea 2-1 Liverpool,Sat May 05 16:11:35 +0000 2012
"Yg tanding di inggris, yg heboh luar biasa di tivi lokal #FACup",Sat May 05 16:11:35 +0000 2012
@AdrianRawlinson she looked like she was about to fall over or fall asleep! #LFC,Sat May 05 16:11:35 +0000 2012
"From Stamford Bridge to Wembley, we'll KEEP THE BLUE FLAG FLYING HIGH! #Chelsea Chelsea! #CFC!",Sat May 05 16:11:35 +0000 2012
Massey should be a referee's assistant for this match. She's quality #FACupFinal,Sat May 05 16:11:35 +0000 2012
"RT @p23v: Wow! That crowd shot is fantastic. Llove this club. RT ""@Linda_Pizzuti: The sun is shining on @LFC fans http://t.co/PpT64WyM""",Sat May 05 16:11:35 +0000 2012
@ZaidZaidane wer u watchin it??? #FACupFinal,Sat May 05 16:11:35 +0000 2012
RT @ikkyaulia: RT @chelseafc: RT @JMcEachran20: Come on Chelsea!!!,Sat May 05 16:11:35 +0000 2012
Woooohhhh!!!Gerard handsome!!! #FACupFinal,Sat May 05 16:11:35 +0000 2012
I stand by what I said a couple of weeks back. Come on #LFC !,Sat May 05 16:11:35 +0000 2012
"Walk on, walk on, with hope in your heart, and You'll Never Walk Alone! #liverpool #FACup",Sat May 05 16:11:35 +0000 2012
Come on Liverpool! #LFC,Sat May 05 16:11:35 +0000 2012
Liverpool - Chelsea #facup #finale,Sat May 05 16:11:36 +0000 2012
Prima weertje om binnen de #facup te kijken. Toch zonde dat de beker in Nederland nooit zo'n status zal krijgen. #cheliv,Sat May 05 16:11:35 +0000 2012
Let's do this LIVERPOOL #YNWA #Winning #FAcup,Sat May 05 16:11:36 +0000 2012
Liverpool for the win #YNWA #LFC,Sat May 05 16:11:36 +0000 2012
"RT @FIFAcom: RT @ankitCFC: 2-1 for Chelsea Goal scorer Drogba, Mata and Gerrard #CFC #LFC #FACupFinal",Sat May 05 16:11:35 +0000 2012
RT @chelseafc: You can tune into Chelsea TV's live commentary right here http://t.co/A1xoNfrA #FACupFinal #CFCWembley (SL),Sat May 05 16:11:36 +0000 2012
RT @TheOKFoundation: @radiojonno  As our backers #LFC go for their dream today we go for ours PLEASE sign petition for debfibs are Key h ...,Sat May 05 16:11:36 +0000 2012
My cat Rafa has just come in from outside to watch...COME ON REDMEN #LFC,Sat May 05 16:11:36 +0000 2012
#stfc #FACupFinal who to support? http://t.co/0RTrtHJy,Sat May 05 16:11:36 +0000 2012
Let's go reds #LFC &lt;#YNWA,Sat May 05 16:11:36 +0000 2012
C'mon Liverpool! C'mon Cup of Coffee!  #FACupFinal #LFC,Sat May 05 16:11:36 +0000 2012
RT @Bolanet: #FACupFinal streaming (MNCTV) http://t.co/vZ3K08yM . http://t.co/WWBoOkoB . http://t.co/eIVBg7Jj . http://t.co/QIpyvDPG - 2 ...,Sat May 05 16:11:36 +0000 2012
"RT @FIFAcom: RT @ankitCFC: 2-1 for Chelsea Goal scorer Drogba, Mata and Gerrard #CFC #LFC #FACupFinal",Sat May 05 16:11:36 +0000 2012
"RT @ESPNStatsInfo: Chelsea vs Liverpool, 12:15 ET in 131st #facupfinal (oldest soccer tournament in world). @LFC seeking 1st FA Cup titl ...",Sat May 05 16:11:36 +0000 2012
You'll never walk alone! #facupfinal #lfc #cfc,Sat May 05 16:11:36 +0000 2012
YOO INTENSE LOL COME ON LIVERPOOL GNA WIN THIS #LFC #FACupFinal 2012,Sat May 05 16:11:36 +0000 2012
"I'm going to be boring and go for a Chelsea 1-0 victory. I certainly hope I'm wrong, mind. #LFC #CFC #FACupFinal",Sat May 05 16:11:36 +0000 2012
"Liat babak pertama dulu RT @GOAL_ID: Tweeps, berapa prediksi anda untuk skor final #FACup Chelsea Vs. Liverpool?",Sat May 05 16:11:36 +0000 2012
Go you Blues. #FACupFinal,Sat May 05 16:11:36 +0000 2012
Done w/ #ShowerFlow after a good ass soccer workout...now to watch #FACupFinal and eat lunch...,Sat May 05 16:11:37 +0000 2012
Come on chelsea!!!!!!!! #Cfc,Sat May 05 16:11:37 +0000 2012
#FAcup #Blues,Sat May 05 16:11:37 +0000 2012
Go on Chels!!!!!! #CFC #facupfinal,Sat May 05 16:11:37 +0000 2012
"We're getting ready to watch the FA Cup, will the day be red or blue? #liverpool #chelsea #facup #footietalks",Sat May 05 16:11:37 +0000 2012
#FACup time. Going to have to support Chelsea I think,Sat May 05 16:11:37 +0000 2012
There's always that one man that has to sing the chant one more time than everyone else #cfc,Sat May 05 16:11:37 +0000 2012
#LFC #LFC #LFC #LFC #LFC #LFC #LFC #LFC #LFC #LFC #LFC #LFC #LFC #LFC #LFC #LFC #LFC #LFC #LFC #LFC #LFC #LFC #LFC #LFC #LFC #LFC #LFC #LFC,Sat May 05 16:11:37 +0000 2012
"@tomlilley1996 @HazAnjum95 as a neutral, may the best team win! #FAcupfinal",Sat May 05 16:11:37 +0000 2012
Come on #LFC !!!!!!!! #YNWA,Sat May 05 16:11:37 +0000 2012
RT @AlexSparksss: Skrtel and agger are such tanks #facupfinal,Sat May 05 16:11:37 +0000 2012
COME ON YOU REDMEN #LFC,Sat May 05 16:11:37 +0000 2012
Drogba needs to hit bullying mode #CFC,Sat May 05 16:11:37 +0000 2012
Come on you Chels!!!!! #CFC,Sat May 05 16:11:37 +0000 2012
I'#m ready to make #Wembley become BLUE . . .,Sat May 05 16:11:37 +0000 2012
Is torres playing? #facupfinal,Sat May 05 16:11:37 +0000 2012
I don't want either team to win #FACupfinal,Sat May 05 16:11:38 +0000 2012
Making nachos and watching #facupfinal perfect!,Sat May 05 16:11:38 +0000 2012
Awkward hand shake between Bernstein and Terry..... #FACupFinal,Sat May 05 16:11:38 +0000 2012
Watching the reds vs. The bleu's #facup final,Sat May 05 16:11:38 +0000 2012
Well i hate Kenny Dalglish more than Roberto Di Matteo so i'd rather Chelsea win. #FACupFinal,Sat May 05 16:11:38 +0000 2012
"RT @FrankLampardCfc: Is it me or #Daglish look an absolute mess, it's a cup final have some respect and wear a suit you nob #facup",Sat May 05 16:11:38 +0000 2012
Watching the #FACupFinal now. Come on Chelsea yeah.!,Sat May 05 16:11:38 +0000 2012
"It will be interesting to see the Terry and Suarez handshake, will it just be a handshake or will it be a love in? #FACupfinal",Sat May 05 16:11:38 +0000 2012
Tijd voor FA Cup finale! Liverpool - Chelsea! Hup Chelsea! #facup #suarezstinkt,Sat May 05 16:11:38 +0000 2012
Roberto Di Matteo had quite an FA Cup Career himself. (video) http://t.co/yKvfpX7y #cfc,Sat May 05 16:11:38 +0000 2012
"RT @leesiemaszko: RT this pic plse reds fans, #FACupFinal #ChelseaScum #Disrespect #JFT96 #LFC #YNWA http://t.co/xQFWh8Kk",Sat May 05 16:11:38 +0000 2012
CHHEELLLSSEEEAAAAA! #CFC #FACupFinal,Sat May 05 16:11:38 +0000 2012
Se viene el #FACup espero buen partido...,Sat May 05 16:11:38 +0000 2012
RT @Mr_Garo: #nw Chelsea vs Liverpool #FAcupfinal :D,Sat May 05 16:11:38 +0000 2012
RT @AlepHazwan: #nowwatching #LFC vs #CFC #FACup #Wembley #YNWA,Sat May 05 16:11:38 +0000 2012
"0-2 RT @GOAL_ID: Tweeps, berapa prediksi anda untuk skor final #FACup Chelsea Vs. Liverpool?",Sat May 05 16:11:39 +0000 2012
RT @adgmatthews: how pissed was that Chelsea girl with the smirnoff ice? #facup,Sat May 05 16:11:38 +0000 2012
#wembley #lfc #chealsea #facup  @ Nuuk http://t.co/533lLTFs,Sat May 05 16:11:39 +0000 2012
"RT @Borja_Pardo: Walk on, walk on, with hope in your heart... #YoullNeverWalkAlone #GoReds #FACup",Sat May 05 16:11:39 +0000 2012
Suena You'll never walk alone en Wembley #FACupFinal Chelsea-Liverpool,Sat May 05 16:11:39 +0000 2012
Quiero un Gool de Lampard y de Torres #FACup,Sat May 05 16:11:39 +0000 2012
Bismillahh . Come on REDS . #LFC,Sat May 05 16:11:39 +0000 2012
@edgarkasenene Let's go Liverpool #FACupFinal,Sat May 05 16:11:39 +0000 2012
"CFC 3 - 0 LIV RT @GOAL_ID: Tweeps, berapa prediksi anda untuk skor final #FACup Chelsea Vs. Liverpool?",Sat May 05 16:11:39 +0000 2012
LET GET READY!!!! #LFC,Sat May 05 16:11:39 +0000 2012
"RT @Borja_Pardo: Walk on, walk on, with hope in your heart... #YoullNeverWalkAlone #GoReds #FACup",Sat May 05 16:11:39 +0000 2012
come on you blues!!! beat that history club!!!!! #CFC,Sat May 05 16:11:39 +0000 2012
I only wish that there could be an outcome where either team doesn't win... Don't particularly like either...#FACupFinal #Liverpool #Chelsea,Sat May 05 16:11:39 +0000 2012
Need to figure out which of these two teams I detest least. #facupfinal,Sat May 05 16:11:39 +0000 2012
"3-0 untuk the blues!!""@GOAL_ID: Tweeps, berapa prediksi anda untuk skor final #FACup Chelsea Vs. Liverpool?""",Sat May 05 16:11:39 +0000 2012
@GOAL_ID 2-1 untuk Liverpool #FACup,Sat May 05 16:11:39 +0000 2012
"I'm not to keen on either of them, so will be cheering on players I like until i can decide #facup",Sat May 05 16:11:40 +0000 2012
RT @Shaun_Payne_7: I just don't get why they call #CFC fans 'chavs'... http://t.co/3FSAdhEK,Sat May 05 16:11:39 +0000 2012
RT @syanazverron: #CFC #CFC #CFC #CFC #CFC #CFC #CFC #CFC #CFC #CFC #CFC #CFC #CFC #CFC #CFC #CFC #CFC #CFC #CFC #CFC #CFC #CFC #CFC #CF ...,Sat May 05 16:11:40 +0000 2012
Time to poo my pants. Come on Redmen! #LFC,Sat May 05 16:11:40 +0000 2012
Can't stand Terry and Co but hope they send those murdering bastards home empty handed #FACupFinal,Sat May 05 16:11:40 +0000 2012
@mick_YNWA @TLalia good luck my scouser bro's! May the best team win!! Hopefully that will be the blues!! C'mon Chels!! #CFC,Sat May 05 16:11:40 +0000 2012
"Stevie G is suited and booted. Come on boys, don't let me down! #LiverpoolFC #FACupFinal #fb",Sat May 05 16:11:40 +0000 2012
Nearly there! COME ON THE REDS!!!!!!!!!! #facupfinal,Sat May 05 16:11:40 +0000 2012
"2-2 lanjut adu penalti chelsea menang RT @GOAL_ID Tweeps, berapa prediksi anda untuk skor final #FACup Chelsea Vs. Liverpool?",Sat May 05 16:11:40 +0000 2012
Let the blue flag fly high. Come on Chelsea!! #CFC,Sat May 05 16:11:40 +0000 2012
@clarelou137 @luis16suarez @lfc Haha! Prayin so!!,Sat May 05 16:11:40 +0000 2012
Go football! #neutral #FACup,Sat May 05 16:11:40 +0000 2012
Come on you redmen #lfc #ynwa #getitdone,Sat May 05 16:11:40 +0000 2012
"RT @adidasUK: Sun's out, Wembley's full. Time to #takethestage for the 2012 all-adidas #FACupFinal http://t.co/0473HgL1",Sat May 05 16:11:40 +0000 2012
RT @Shaun_Payne_7: I just don't get why they call #CFC fans 'chavs'... http://t.co/3FSAdhEK,Sat May 05 16:11:40 +0000 2012
"If it weren't for Suarez, I'd prob want #lfc to win. If it weren't for Terry, I'd prob want #cfc to win. I'm supporting the red card! #FACup",Sat May 05 16:11:40 +0000 2012
RT @chelseafc: RT @JMcEachran20: Come on Chelsea!!!,Sat May 05 16:11:40 +0000 2012
Wow!!! What a stadium!!! #Wembley #FAcupFinal,Sat May 05 16:11:40 +0000 2012
Keep The Blue Flag Flying High...come on @chelseafc ...,Sat May 05 16:11:40 +0000 2012
RT @philknox: It's not right. 5.15. #facup,Sat May 05 16:11:40 +0000 2012
"Liverpool Subs: Carroll, Maxi, Kuyt, Carragher, Doni, Shelvey, Kelly. #FACup",Sat May 05 16:11:40 +0000 2012
"Cukup 2-0 *Torres, Drogba* ""@GOAL_ID: Tweeps, berapa prediksi anda untuk skor final #FACup Chelsea Vs. Liverpool?""",Sat May 05 16:11:41 +0000 2012
Being a neutral im unfortunately going to go with Chelski. #FAcup,Sat May 05 16:11:41 +0000 2012
"If this game were decided by who can best wave a blue chequered flag, Chelsea would be 4-0 up already #facupfinal",Sat May 05 16:11:41 +0000 2012
Blue racist vs red racist. I'm cheering for red racist. #FACupFinal,Sat May 05 16:11:41 +0000 2012
COME ON YOU REDS. #facupfinal #FACup #ynwa #lfc #overexcitedhashtag,Sat May 05 16:11:41 +0000 2012
"And the game is set we need a great cup night 
#ktbff #cfc",Sat May 05 16:11:41 +0000 2012
Chess match finished in the nick of time with Jnr D ...... now #facup .... Beer O'Clock ;D,Sat May 05 16:11:41 +0000 2012
"RT @InfostradaLive: Roberto di Matteo can make it three in a row for Italian coaches winning the #FACup, succeeding Mancini and Ancelott ...",Sat May 05 16:11:41 +0000 2012
"3-2 Liverpool RT""@GOAL_ID: Tweeps, berapa prediksi anda untuk skor final #FACup Chelsea Vs. Liverpool?""",Sat May 05 16:11:41 +0000 2012
RT @asyrafnaz: Chelsea! Chelsea! Chelsea! Chelsea! Chelsea! Chelsea! Chelsea! Chelsea! #CFC #GGMU,Sat May 05 16:11:41 +0000 2012
Let's go Blues! #facupfinal #Chelsea #KTBFFH,Sat May 05 16:11:41 +0000 2012
Great to see Jimmy Armfield as guest of honour at the #FACUP final,Sat May 05 16:11:41 +0000 2012
22 yr old Jay Spearing &amp; 21 yr old Jordan Henderson start for Liverpool @ Wembley. #TheFutureIsRed #LFC #FACupFinal,Sat May 05 16:11:41 +0000 2012
"2-1 torres golin RT @GOAL_ID: Tweeps, berapa prediksi anda untuk skor final #FACup Chelsea Vs. Liverpool?",Sat May 05 16:11:41 +0000 2012
lets not kid ourselves this isn't the highlight of chelsea's upcoming fixtures #FACupFinal,Sat May 05 16:11:41 +0000 2012
"#LFC #FACup #LIVERPOOL #LIVERPOOL #LIVERPOOL #LIVERPOOL #LIVERPOOL #LIVERPOOL #LIVERPOOL #LIVERPOOL  #LIVERPOOL
#LFC #LFC #LFC #LIVERPOOL",Sat May 05 16:11:41 +0000 2012
#KTBFFH #CFC,Sat May 05 16:11:41 +0000 2012
"RT @InfostradaLive: Roberto di Matteo can make it three in a row for Italian coaches winning the #FACup, succeeding Mancini and Ancelott ...",Sat May 05 16:11:41 +0000 2012
Cmon @LFC bring us the #facup,Sat May 05 16:11:42 +0000 2012
Liverpool vs Chelsea #YNWA #LFC #FAcupfinal,Sat May 05 16:11:42 +0000 2012
A quick blast of The Liquidator by Harry J Allstars CHELSEA #ktbffh #cfc #UpTheChels #carefree,Sat May 05 16:11:42 +0000 2012
Quite fancy Chelsea to win. At least then I can say my team went out to them #facup,Sat May 05 16:11:42 +0000 2012
As long as its a decent game i dont care #FACupFinal,Sat May 05 16:11:42 +0000 2012
now will tweet after the match... #comeonchelsea #CFC best of luck Lads,Sat May 05 16:11:42 +0000 2012
Come on Liverpool!!!! @LFC,Sat May 05 16:11:42 +0000 2012
Come on Liverpool! #FACupFinal,Sat May 05 16:11:42 +0000 2012
I've come to the conclusion the best for me today in #FACup is that Torres gets the winner and Terry gets sent off so he can't lift the cup,Sat May 05 16:11:42 +0000 2012
Liverpool..Liverpool..Liverpool..#ComeOnReds #LFC #FaCup,Sat May 05 16:11:42 +0000 2012
"#CincoDeMayo, no one cares... Its all about the #FACupFinal... #YNWA",Sat May 05 16:11:42 +0000 2012
I fuckin hate scousers! Absolute tramps that all look the same #inbreds #lfc #CFC come on Chelsea #KTBFFH,Sat May 05 16:11:42 +0000 2012
"Chel 3 - 1 Liv RT@GOAL_ID Tweeps, berapa prediksi anda untuk skor final #FACup Chelsea Vs. Liverpool?",Sat May 05 16:11:42 +0000 2012
Think it'll be 1-1 #facupfinal,Sat May 05 16:11:43 +0000 2012
"#FACupFinal official suits 
#johnterry #Suarez http://t.co/M6pkjXDz",Sat May 05 16:11:43 +0000 2012
"come on @chelseafc, bring another FA Cup home. #cfc",Sat May 05 16:11:43 +0000 2012
Who wants someone from the British royals to attend the final we got king Kenny #YNWA #lfc,Sat May 05 16:11:43 +0000 2012
RT @Linda_Pizzuti: The sun is shining on @LFC fans http://t.co/OaRLcIK5,Sat May 05 16:11:43 +0000 2012
"Lovely day with @jtalmage @nicolaswann1976! Now settled down with a small child, pint of Guinness and The FA Cup Final #FACup #Domesticbliss",Sat May 05 16:11:43 +0000 2012
@birchy639 where you say this time lad give us a gander at your view #Wembley,Sat May 05 16:11:43 +0000 2012
"Come on Liverpool, come on Liverpool, come on Liverpool! #lfc #facup #ynwa",Sat May 05 16:11:43 +0000 2012
How Hot Is J Terry Looking?! With Stevie G Looking OLD #FACupFinal,Sat May 05 16:11:43 +0000 2012
It's time! C'mon red! #LFC,Sat May 05 16:11:43 +0000 2012
Hard-Fi playing at the #FACupFinal. Awesome!,Sat May 05 16:11:43 +0000 2012
#FACupFinal,Sat May 05 16:11:43 +0000 2012
The cup marched out by an R.A.F Liverpool fan...it's also the only blue I have ever worn. It's gotta be a good sign! #YNWA #LFC,Sat May 05 16:11:43 +0000 2012
BUZZING!!! COME ON YOU REDS #LFC,Sat May 05 16:11:43 +0000 2012
"RT @bluesq: 5 minutes to KO then. To lift the #FACup: 4/5 #CFC, Evens #LFC. Don't forget, we'll refund a range of bets if Suarez OR Torr ...",Sat May 05 16:11:43 +0000 2012
Liverpool vs Chelsea!! http://t.co/WTN1SCfJ @GetGlue #FACup,Sat May 05 16:11:44 +0000 2012
#FACup Chelsea Vs Liverpool #Now_PlayinG Forza #Chelsea,Sat May 05 16:11:44 +0000 2012
"I would have had a cheeky bet on #LFC if they didn't have a shit defence, a shit midfield, a shit strikeforce &amp; a shit manager. #FACUP #CFC",Sat May 05 16:11:44 +0000 2012
FA Cup final 2 teams I hate. Any chance both can lose?? #FACupFinal #cfc #lfc,Sat May 05 16:11:44 +0000 2012
Racist vs Racists all i know is a Racist team is gonna win the #facupfinal,Sat May 05 16:11:44 +0000 2012
Good evening of sport #faCupFinal and @GBHockey2012 Glad to say the hockey has taken priority with the cup final sky plussed Come on boys,Sat May 05 16:11:44 +0000 2012
Gran ambiente final #FAcup #Chelsea #Liverpool,Sat May 05 16:11:44 +0000 2012
RT @Linda_Pizzuti: The sun is shining on @LFC fans http://t.co/OaRLcIK5,Sat May 05 16:11:44 +0000 2012
"We're closing in on kickoff at Wembley. Two of the biggest clubs in English history, @ChelseaFC &amp; @LFC in the 2012 FA Cup Final. #FACUPonFOX",Sat May 05 16:11:44 +0000 2012
Have to agree with that. #YNWA RT @LFC: Liverpool supporters: best in the world http://t.co/J6RNbFFy,Sat May 05 16:11:44 +0000 2012
Believe #chelsea #cfc @chelseafc http://t.co/sCZHGnlK,Sat May 05 16:11:44 +0000 2012
Enjoying a @cc_whisky and dry and about to watch @LFC in the #FACupFinal . C'mon Liverpool !!!,Sat May 05 16:11:44 +0000 2012
Almost try Come On Stoke  RT @EmmaK67: COME ON ARSENAL! #facup,Sat May 05 16:11:44 +0000 2012
And we're underway. Come on you Blues!! #CFC,Sat May 05 16:11:44 +0000 2012
Weeeeeeeee! I just met @StephanieBe :) and now we're all gonna scream like footie hooligans for #LFC YAY!!,Sat May 05 16:11:44 +0000 2012
It's time! Finally!! Come on Liverpool! #LFC #YNWA,Sat May 05 16:11:44 +0000 2012
"What happened to 80,000 fans singing abide with me? #pindrop #FACupFinal",Sat May 05 16:11:44 +0000 2012
Come on Chelsea! Beat the scum! #FACup,Sat May 05 16:11:44 +0000 2012
"Jus five more minutes, then boys will be seperated from men! . . . . #FACupFinal",Sat May 05 16:11:44 +0000 2012
RT!!!!!!! @soal_SOCCER: Yang dukung Chelsea mana RT nya !!! #FAcup,Sat May 05 16:11:44 +0000 2012
"Liverpool have won 73, drawn 33 and lost 56 of 162 previous league and cup matches against Chelsea over 105 years. #Facup",Sat May 05 16:11:44 +0000 2012
"2-1 @GOAL_ID: Tweeps, berapa prediksi anda untuk skor final #FACup Chelsea Vs. Liverpool?""",Sat May 05 16:11:44 +0000 2012
It should be Everton on that pitch right now. I hate Liverpool! Its just hit me now how gutted i am that Everton lost last week #facupfinal,Sat May 05 16:11:45 +0000 2012
Come on Reds @LFC!!!!!,Sat May 05 16:11:45 +0000 2012
Pretty happy that Bellamy's starting. Goooooo Liverpool #FACupFinal,Sat May 05 16:11:45 +0000 2012
RT @The5thLine: The Wembley Stadium announcer is no Eddy Good. #FACupFinal #fb,Sat May 05 16:11:45 +0000 2012
cmon the lads... #lfc #ynwa,Sat May 05 16:11:45 +0000 2012
T as bon ? #FAcup,Sat May 05 16:11:45 +0000 2012
"""The #FACupFinal needs no introduction!"" You just spent 2 bloody hours introducing it!",Sat May 05 16:11:45 +0000 2012
RT @Hectorfernandez: C'mon Reds!!! #FACup,Sat May 05 16:11:45 +0000 2012
"RT @MirrorFootball: RT @paulharlock: RT @jacksconlon: ""MARTIN SKRTEL IS SO HARD HE ASKED FOR A BIG MAC IN BURGER KING AN GOT ONE"" top #L ...",Sat May 05 16:11:45 +0000 2012
RT @richardbudden: Is there a way for both teams to lose?? #FACupFinal #kickitout,Sat May 05 16:11:45 +0000 2012
Can't wait to see Liverpool lift the #FACup,Sat May 05 16:11:45 +0000 2012
"Chelseas game to win ""@EASPORTSFIFA: #FACupFinal. Let's do this. Predictions?""",Sat May 05 16:11:45 +0000 2012
#lfc #cmonReds,Sat May 05 16:11:45 +0000 2012
RT @chelseafc: You can tune into Chelsea TV's live commentary right here http://t.co/Gc2EjcbU #FACupFinal #CFCWembley (SL),Sat May 05 16:11:45 +0000 2012
Lets go to d #wembley stadium. Soccer things on my mind.....RT if u love d game!,Sat May 05 16:11:46 +0000 2012
loving the girl pissed out of her skull off smirnoff ice at the cup final #lightweight #timeforbed #chelseavliverpool #facup,Sat May 05 16:11:46 +0000 2012
"RT @FrankLampardCfc: Is it me or #Daglish look an absolute mess, it's a cup final have some respect and wear a suit you nob #facup",Sat May 05 16:11:46 +0000 2012
@Donedav Where are ya? #FACupfinal Chelseatowin,Sat May 05 16:11:46 +0000 2012
RT @chelseafc: You can tune into Chelsea TV's live commentary right here http://t.co/Gc2EjcbU #FACupFinal #CFCWembley (SL),Sat May 05 16:11:46 +0000 2012
Here we go! #FACup,Sat May 05 16:11:46 +0000 2012
RT @ZaidaGS: Great to see Muamba in the stands:) #FACup,Sat May 05 16:11:45 +0000 2012
@_doofy I don't believe in luck. @LFC for the win.,Sat May 05 16:11:46 +0000 2012
Chelsea to win 3-1 #FACupFinal,Sat May 05 16:11:46 +0000 2012
#NowWatching Chelsea vs Liverpool #FACUP,Sat May 05 16:11:46 +0000 2012
Lets win this #lfc #ynwa,Sat May 05 16:11:46 +0000 2012
#LFC please please win.,Sat May 05 16:11:46 +0000 2012
"RT @InfostradaLive: Roberto di Matteo can make it three in a row for Italian coaches winning the #FACup, succeeding Mancini and Ancelott ...",Sat May 05 16:11:46 +0000 2012
Hope the players realise they're honoured to meet Sir Jimmy Armfield #facup #wembley,Sat May 05 16:11:46 +0000 2012
Let's to be winner..  @chelseafc,Sat May 05 16:11:46 +0000 2012
I'd be quite happy for neither team to win #facup,Sat May 05 16:11:46 +0000 2012
"2-0 Liverpool angkat thropy RT @GOAL_ID Tweeps, berapa prediksi anda untuk skor final #FACup Chelsea Vs. Liverpool?",Sat May 05 16:11:46 +0000 2012
Terry must really hate his teammates #CFC #LFC,Sat May 05 16:11:47 +0000 2012
"All set up for #FACup final viewing: well-fed, caffeinated, pantsless, in front of large TV.",Sat May 05 16:11:47 +0000 2012
RT @LFC: Liverpool supporters: best in the world http://t.co/zQwxzMdV,Sat May 05 16:11:47 +0000 2012
RT @cormacoshea95: Come on Liverpool #FACUPFINAL,Sat May 05 16:11:47 +0000 2012
The one singing the national anthem at the start of the #facupfinal looks like marriage material #Majestic,Sat May 05 16:11:46 +0000 2012
#FACupFinal time!,Sat May 05 16:11:47 +0000 2012
Fat kenny still looks like a piss soaked tramp even on cup final day #lfc #MUFC19,Sat May 05 16:11:47 +0000 2012
Here we go. Liverpool vs Chelsea. #FACupFinal. Come on you Reds! Beat Chelsea!,Sat May 05 16:11:47 +0000 2012
#FACupFinal,Sat May 05 16:11:47 +0000 2012
come on Liverpool #YNWA #LFC,Sat May 05 16:11:47 +0000 2012
OK...!!!RT:@chelseafc,Sat May 05 16:11:47 +0000 2012
"Nuansa Final #FACup kayanya bakal terulang di Manahan, cuma ada 2 Warna Orange Vs Blue !! #PersijaVsAREMA",Sat May 05 16:11:47 +0000 2012
Lekker #facup finale kijken #cheliv,Sat May 05 16:11:47 +0000 2012
Hopefully they serve up a good game for the neutral! #facupfinal,Sat May 05 16:11:47 +0000 2012
Come on you reds #lfc #YNWA #FACupFinal,Sat May 05 16:11:47 +0000 2012
COME ON YOU BLUES! #facupfinal,Sat May 05 16:11:47 +0000 2012
Come on @chelseafc #FACupFinal,Sat May 05 16:11:47 +0000 2012
Ya we will be climbing those 107 steps of Wembley later tonite #FACupFinal #CFC,Sat May 05 16:11:47 +0000 2012
Wembley stadi herzamanki gibi muhtesem :) #CFC #FACupFinal,Sat May 05 16:11:48 +0000 2012
RT @rickedwards1: is Steven Gerrard wearing make-up? That's a very bold move #facup,Sat May 05 16:11:48 +0000 2012
"Jimmy Armfield! Legend, best co-commentator in the business #FACupFinal",Sat May 05 16:11:48 +0000 2012
Come on #lfc,Sat May 05 16:11:48 +0000 2012
Come on you red men #facup #YNWA,Sat May 05 16:11:48 +0000 2012
"Chelsea!!! Let's do this!!! :D
#FACupFinal",Sat May 05 16:11:48 +0000 2012
#FACupFinal,Sat May 05 16:11:48 +0000 2012
#FACupfinal kijken,Sat May 05 16:11:48 +0000 2012
"Decent score on the Rasometer""@bhavsingh: Who is this screeching woman with half a dress missing?  #FACup""",Sat May 05 16:11:48 +0000 2012
Phil Dowd is the worst ref in the country #fact #facup,Sat May 05 16:11:48 +0000 2012
RT @ScottHunt_: Haha she is mortal!!! #chelsea #liverpool #facup http://t.co/uYJ6tzkT,Sat May 05 16:11:48 +0000 2012
"RT @GOAL_ID: Liverpool Subs: Carroll, Maxi, Kuyt, Carragher, Doni, Shelvey, Kelly. #FACup",Sat May 05 16:11:48 +0000 2012
You'll  never walk alone @LFC #Liverpool,Sat May 05 16:11:48 +0000 2012
@realshanerichie who are you rooting for Shane??? #FACupFinal,Sat May 05 16:11:48 +0000 2012
"Could you no have worn your suit for the final, Dalglish? Manky git.#FACup",Sat May 05 16:11:49 +0000 2012
Totally impartial today can't stand Chelsea or Liverpool #FACupFinal,Sat May 05 16:11:49 +0000 2012
Watching the #FACup.. Possibly gonna be the most boring saturday night of me life!,Sat May 05 16:11:49 +0000 2012
cmon the 'pool #FACupfinal,Sat May 05 16:11:49 +0000 2012
"Over my mums, bc she has fox soccer..  #facupfinal #cfc",Sat May 05 16:11:49 +0000 2012
@chelseafc come on Chelsea this only will be the first!!! #KTBFFH,Sat May 05 16:11:49 +0000 2012
RT @AnthonyShaw_: #FACupFinal time!,Sat May 05 16:11:49 +0000 2012
come on the reds!! #lfc #comeonthepool #facup #history,Sat May 05 16:11:49 +0000 2012
#YNWA come on @LFC @Liverpool_FC_,Sat May 05 16:11:49 +0000 2012
"don't want either team to win the fa cup,but someones got too! come on chelsea!! #FACupFinal #fuckliverpool",Sat May 05 16:11:49 +0000 2012
"@andrepike Sha, I just really don't smuck #LFC. Like from the bottom of my heart. Lool. I wish you luck tho, coz you're my brother.",Sat May 05 16:11:49 +0000 2012
RT @thespyglass: COME ON YOU REDS. #facupfinal #FACup #ynwa #lfc #overexcitedhashtag,Sat May 05 16:11:49 +0000 2012
As 1/4 Scouse I feel obliged... Ho'way Liverpool! #FACupFinal,Sat May 05 16:11:49 +0000 2012
RT @empireofthekop: RT @LFC: Liverpool supporters: best in the world http://t.co/csccHu7B,Sat May 05 16:11:49 +0000 2012
"Come on reds, get the trophy home!!! @LFC #YNWA",Sat May 05 16:11:49 +0000 2012
RT @EmmaK67: COME ON ARSENAL! #facup,Sat May 05 16:11:49 +0000 2012
#NW : @chelseafc vs Liverpool FC from Clio Cafe Bandung.. #ktbffh :),Sat May 05 16:11:49 +0000 2012
"I wonder at what crucial stage of the #FAcup final, will #ITV go for a break?",Sat May 05 16:11:49 +0000 2012
"'Abide With Me' gets me every time but that was absolutely stunning, Mary-Jess Leaverland - no gimmicks, just pure note-perfect #FACupFinal",Sat May 05 16:11:49 +0000 2012
watching Chelsea play... @AdeleCFC would be so proud of me :P #CFC,Sat May 05 16:11:50 +0000 2012
Does she look drunk to you too? :P #FACupFinal http://t.co/Ek9wQMof,Sat May 05 16:11:49 +0000 2012
Prediction - #LFC 2-2 #CFC - LFC to win on pens,Sat May 05 16:11:50 +0000 2012
watching the #FACupFinal and revising - will this work?! #LFC #YNWA,Sat May 05 16:11:50 +0000 2012
RT @new_mercury: Come on you reds!!!!! #lfc #ynwa,Sat May 05 16:11:50 +0000 2012
RT @Linda_Pizzuti: The sun is shining on @LFC fans http://t.co/OaRLcIK5,Sat May 05 16:11:50 +0000 2012
RT @Linda_Pizzuti: The sun is shining on @LFC fans http://t.co/OaRLcIK5,Sat May 05 16:11:50 +0000 2012
"2-1 buat chelsea min :) RT @GOAL_ID Tweeps, berapa prediksi anda untuk skor final #FACup Chelsea Vs. Liverpool?",Sat May 05 16:11:50 +0000 2012
RT @chelseafc: You can tune into Chelsea TV's live commentary right here http://t.co/Bm7xZ8Fl #FACupFinal #CFCWembley (SL),Sat May 05 16:11:50 +0000 2012
Racist game. Haha. #FACup,Sat May 05 16:11:50 +0000 2012
"Time to forget the league, another cup win please #LFC",Sat May 05 16:11:50 +0000 2012
C'mon Chelsea! #trueblue #Cfc #FACup #wembley #scousers  http://t.co/Ig15T0YS,Sat May 05 16:11:50 +0000 2012
"""Glory on the Kingdom."" - Oujou White Knights #CFC",Sat May 05 16:11:50 +0000 2012
Ik HAAT ze allebei dus het intereseerd mij geen tyfus wie er wint #facup #cheliv,Sat May 05 16:11:50 +0000 2012
#FACupFinal Prediction: Chelsea 3-1 Liverpool,Sat May 05 16:11:50 +0000 2012
RT @chelseafc: You can tune into Chelsea TV's live commentary right here http://t.co/Gc2EjcbU #FACupFinal #CFCWembley (SL),Sat May 05 16:11:50 +0000 2012
Should be a great game!!! #facupfinal,Sat May 05 16:11:51 +0000 2012
Pre-match nerves/excitement. #lfc,Sat May 05 16:11:51 +0000 2012
"May the best team win #FACUP #Chelsea
and #Liverpool",Sat May 05 16:11:51 +0000 2012
RT @chelseafc: You can tune into Chelsea TV's live commentary right here http://t.co/Gc2EjcbU #FACupFinal #CFCWembley (SL),Sat May 05 16:11:51 +0000 2012
Come on Chelsea! Really do hope Torres scores too. #facupfinal,Sat May 05 16:11:51 +0000 2012
COME ON CHELSEA #cfc #FACupFinal,Sat May 05 16:11:51 +0000 2012
C'mon redmen! #lfc #ynwa,Sat May 05 16:11:51 +0000 2012
Ahora si a ver la final de la FA cup esperando que gane @chelseafc #vamosCHELSEA,Sat May 05 16:11:51 +0000 2012
Don't mind who wins just want to see a good game!! #FAcupfinal,Sat May 05 16:11:51 +0000 2012
So nervous #LFC,Sat May 05 16:11:51 +0000 2012
"Wasn't sure who I wanted to win,then the camera zoomed in on Gerard and then Terry #FACup  #YNWA #fuckyouterry",Sat May 05 16:11:51 +0000 2012
"for me, i think Chelsea will win 3-1 #FACupFinal",Sat May 05 16:11:51 +0000 2012
im just watching it and im shitting it more than the players are :( #FACupFinal,Sat May 05 16:11:51 +0000 2012
"Come on, hurry up grandad #FACupFinal",Sat May 05 16:11:51 +0000 2012
We know how Liverpool finals end! Never! Stories live on forever #lfc #ynwa,Sat May 05 16:11:51 +0000 2012
"Would love United to get to the Cup final again, been years since they last did #FACUP",Sat May 05 16:11:51 +0000 2012
Come on u REDS! Bag emm FA cup home! #LFC,Sat May 05 16:11:51 +0000 2012
Comeon chelsea #facup,Sat May 05 16:11:51 +0000 2012
Our prediction? 2-1 #LFC after extra time #letthewgoalfestbegin #facup,Sat May 05 16:11:51 +0000 2012
#CFC to win the #FACUP,Sat May 05 16:11:51 +0000 2012
RT @Richard_Buxton_: 'You'll Never Walk Alone' blasting out at Wembley now #LFC #CFC #FACupFinal http://t.co/CAdhROYd,Sat May 05 16:11:51 +0000 2012
Come on Chelsea. This is our trophy.... #coyb #cfc,Sat May 05 16:11:51 +0000 2012
Are you taking the piss letting fat Phil Dowd referee this? #FACupFinal,Sat May 05 16:11:51 +0000 2012
Chelsea are going to win the #FACup - how do i know? Phil Dowd is the referee. He's awful,Sat May 05 16:11:51 +0000 2012
Come on chelsea!!! #FACupFinal,Sat May 05 16:11:51 +0000 2012
RT @smeIIy: Did anyone see that drunk Chelsea fan with a Smirnoff Ice in her hand? LMFAO. #facupfinal,Sat May 05 16:11:51 +0000 2012
Little uh footy action. Little uh Saturday morning footy action. #FAcup #RedsVBlues,Sat May 05 16:11:52 +0000 2012
#LFC to win. Handsomely.,Sat May 05 16:11:52 +0000 2012
The sun is shining on the #LFC fans at Wembley x,Sat May 05 16:11:52 +0000 2012
Let the game begin #FACupFinal,Sat May 05 16:11:52 +0000 2012
@MargoMcAuley @Ncardenas04 @camjordn who you backing for the #FACupFinal #CFC  or #LFC ??,Sat May 05 16:11:52 +0000 2012
#FAcup #ynwa http://t.co/X756ouLs,Sat May 05 16:11:52 +0000 2012
RT @chelseafc: You can tune into Chelsea TV's live commentary right here http://t.co/Gc2EjcbU #FACupFinal #CFCWembley (SL),Sat May 05 16:11:52 +0000 2012
#FACupFinal,Sat May 05 16:11:52 +0000 2012
Comon You Blues... #LfcvsCfc #facupfinal,Sat May 05 16:11:52 +0000 2012
Mata is SO SHORT. :DDDD #facupfinal,Sat May 05 16:11:52 +0000 2012
"Hate #LFC, haven't wanted Chelsea to win any more than today.",Sat May 05 16:11:52 +0000 2012
"RT @chelseafc: Team v Liverpool: Cech; Bos, Iva, JT (c), Cole; Mik, Lamps; Ram, Mata, Kal; Drog.  #CFCWembley #FACupFinal. (SL)",Sat May 05 16:11:52 +0000 2012
#FACupFinal,Sat May 05 16:11:53 +0000 2012
"Would love to be at Wembley now, going to be a good game #FaCupFinal",Sat May 05 16:11:53 +0000 2012
"da tym has cum #FAcup ,,,lets go reds,,,lets go!!! @LFC",Sat May 05 16:11:53 +0000 2012
C'mon Redmen! #ynwa #lfc #facupfinal,Sat May 05 16:11:53 +0000 2012
COMEE ON YOU BLUES! #COMEONCHELSEA #FACUpFinal #Carefree #Chelsea #facup,Sat May 05 16:11:53 +0000 2012
Come on the Reds.  #lfc.,Sat May 05 16:11:53 +0000 2012
bring us home another cup! #LFC #YNWA,Sat May 05 16:11:53 +0000 2012
liverpool lah bal RT @iqbalSchmeichel: Siapa menang menurut ko reanerfanda #facup,Sat May 05 16:11:53 +0000 2012
Y is not a kalou playing ??  #facup,Sat May 05 16:11:53 +0000 2012
Stevie g just came on tv there and @_NatashaMcNeil  just said he's gorgeous. I've never been so proud! :') #haha #LFC #CmonYouRed,Sat May 05 16:11:53 +0000 2012
Right everyone ready? #FACupFinal #lfc #cfc,Sat May 05 16:11:53 +0000 2012
"As you can see from the OptaJoke RT bellow,I was right. That girl was indeed drunk.  Smirnoff Ice. #LOL #FACupFinal",Sat May 05 16:11:53 +0000 2012
"RT @lfc_gers_147: We love you Liverpool we do, we love you Liverpool we do, oh Liverpool we love you! #LFC #YNWA #FACupFinal #FACUP #Wem ...",Sat May 05 16:11:53 +0000 2012
Lampard looks like the sort of person who would have a really limp handshake #FACupFinal,Sat May 05 16:11:53 +0000 2012
Terry says something racist about Jon Obi Mikel. The Duke of Kent laughs with glee #facupfinal,Sat May 05 16:11:53 +0000 2012
GO LIVERPOOL BEAT FUCKING CHELSEAAA! FA CUP FINAL!! LETS GOOO!! YOU'LL NEVER WALK ALONE REDMEN!! BRING IT HOME!! #fuckCFC @flambreton @LFC,Sat May 05 16:11:53 +0000 2012
Shaking all over the ground.... #FACupFinal,Sat May 05 16:11:53 +0000 2012
"RT @Liverpool_PLS: Suena el #YNWA !!!
Nos nos callaran !!
Vamoooooooosssss reds !!!
#YNWA #LFC #JFT96 #GoReds",Sat May 05 16:11:53 +0000 2012
@jonnytaylor @TomScrivens1 here we go... May the best man win! #gloryhunters #facup,Sat May 05 16:11:54 +0000 2012
"I'm going 3-1 to Chelsea and lampard to score a penalty , hope chelsea win #facupfinal",Sat May 05 16:11:54 +0000 2012
"RT @LFC: #LFC subs: Carroll, Maxi, Kuyt, Carragher, Doni, Shelvey, Kelly.",Sat May 05 16:11:54 +0000 2012
"Not a fan of either Liverpool OR Chelsea, but I HATE Chelsea and @Born_Spook  likes Liverpool so COME ON LIVERPOOL! #FACup ;)",Sat May 05 16:11:54 +0000 2012
Liverpool to win 2-1 #BackingTheReds #LFC,Sat May 05 16:11:54 +0000 2012
come on #liverpool #FAcup we can win this,Sat May 05 16:11:54 +0000 2012
COME ON LIVERPOOL! #FACupFinal,Sat May 05 16:11:54 +0000 2012
RT @RosieCFC: COME ON CHELSEA! #CFC,Sat May 05 16:11:54 +0000 2012
RT @LouieDutch: #FACUPFINAL who see that drunk chick? #SMIRNOFFICE,Sat May 05 16:11:54 +0000 2012
"RT @ESPNStatsInfo: Chelsea vs Liverpool, 12:15 ET in 131st #facupfinal (oldest soccer tournament in world). @LFC seeking 1st FA Cup titl ...",Sat May 05 16:11:54 +0000 2012
"1-3 untuk Chelsea :) RT @GOAL_ID: Tweeps, berapa prediksi anda untuk skor final #FACup Chelsea Vs. Liverpool?",Sat May 05 16:11:54 +0000 2012
Come on Chelsea!! #CFC #carefree,Sat May 05 16:11:55 +0000 2012
We behind our boys #@chelseafc,Sat May 05 16:11:55 +0000 2012
RT @AlepHazwan: #nowwatching #LFC vs #CFC #FACup #Wembley #YNWA,Sat May 05 16:11:55 +0000 2012
banyaklah orang berjudi sekarang ni #FACUPFINAL,Sat May 05 16:11:55 +0000 2012
Hahaha dream on cos its Chelsea's win RT @wayneveysey: Prediction time. I'm going for #LFC to win by a goal &amp;amp; Suarez to be the star o...,Sat May 05 16:11:55 +0000 2012
"Here we go!!! Come on you reds!!! #LFC got the beer, chippy and my boyfs LFC shirt on ;) @JayboPetch",Sat May 05 16:11:55 +0000 2012
RT @chelseafc: You can tune into Chelsea TV's live commentary right here http://t.co/Gc2EjcbU #FACupFinal #CFCWembley (SL),Sat May 05 16:11:55 +0000 2012
CMON #LFC,Sat May 05 16:11:55 +0000 2012
RT @Football_Tweet_: Liverpool fans with the #banter banner... #LFC #FACup http://t.co/ltJeEiII,Sat May 05 16:11:55 +0000 2012
Tremendous singing by @maryjessmusic of Abide With Me #FACUPFINAL,Sat May 05 16:11:55 +0000 2012
#FACupFinal YES!,Sat May 05 16:11:55 +0000 2012
We practically own the FA CUP #Believe #CFC,Sat May 05 16:11:55 +0000 2012
Who are we supporting. You tell me? #FACup,Sat May 05 16:11:56 +0000 2012
Come on you reds!! #LFC,Sat May 05 16:11:56 +0000 2012
"Chelsea menang 3-1 RT @GOAL_ID: Tweeps, berapa prediksi anda untuk skor final #FACup Chelsea Vs. Liverpool?",Sat May 05 16:11:56 +0000 2012
all of Chelsea's players are pretty cool.......all of Liverpool's are chavs! #FACup,Sat May 05 16:11:56 +0000 2012
"Bueno, empieza lo gordo, Chelsea - Livepool, final de la #FACup, lamentablemente sin Torres en el once. #GoBlues",Sat May 05 16:11:56 +0000 2012
Come on boys #LFC #Reds.,Sat May 05 16:11:56 +0000 2012
"oh, is the #facupfinal on today? huh... explains the rowdy, chanting chelsea fans on the tube earlier... #oblivious",Sat May 05 16:11:56 +0000 2012
stevie g is the best skipper! #LFC,Sat May 05 16:11:55 +0000 2012
Boswinga get the razor out! #monobrow #cfc,Sat May 05 16:11:56 +0000 2012
Bosingwa has the best monobrow #FACupFinal,Sat May 05 16:11:56 +0000 2012
"Who is winner? @rayz_mufc: #RacistDerby here we go! #FACupFinal""",Sat May 05 16:11:56 +0000 2012
"RT @tinpanscally: #LFC, I want to see John Terry crying at the final whistle. Make it so.",Sat May 05 16:11:56 +0000 2012
"Adu penalti aja biar seru RT @GOAL_ID: Tweeps, berapa prediksi anda untuk skor final #FACup Chelsea Vs. Liverpool?",Sat May 05 16:11:56 +0000 2012
Come on Liverpool! #LFC,Sat May 05 16:11:57 +0000 2012
RT @AlyaNatashaaa: Supporting #CFC tonight!,Sat May 05 16:11:56 +0000 2012
#LFC #YNWA,Sat May 05 16:11:57 +0000 2012
"This years #FACupFinal is shit, Two teams I can't stand to watch, but i'm gunna watch it anyway..",Sat May 05 16:11:57 +0000 2012
HON THE POOL! @LFC,Sat May 05 16:11:57 +0000 2012
Here we go! Please lord... #LFC #FACUP,Sat May 05 16:11:57 +0000 2012
Drogba #KingOfWembley #cfc,Sat May 05 16:11:57 +0000 2012
"Oh look, we're Chelsea. We play with a fancy font on our shirts. #facupfinal",Sat May 05 16:11:57 +0000 2012
RT @chelseafc: You can tune into Chelsea TV's live commentary right here http://t.co/ZvnrgGZC #FACupFinal #CFCWembley (SL),Sat May 05 16:11:57 +0000 2012
"""@sarahyoungs: @johnhpainter #facupfinal #LFC all the way!"". Jethro Tull on the CD player then. ""Living in the Past"".",Sat May 05 16:11:57 +0000 2012
I think we all know which final John Terry would rather be in. #FACupFinal,Sat May 05 16:11:57 +0000 2012
@chelseafc -------&gt; Like,Sat May 05 16:11:57 +0000 2012
@MissAmyFlon I've no idea. Far cry from the days when Bernard Cribbins used to lead the singing. #facup,Sat May 05 16:11:57 +0000 2012
@OrlaBurden lets dooo this! #lfc,Sat May 05 16:11:58 +0000 2012
Op welke zender zenden ze de #FACup uit?,Sat May 05 16:11:58 +0000 2012
#FACupFinal,Sat May 05 16:11:58 +0000 2012
"#facup prediction...3-1 Chelsea, Drogba to score first, Lamps penalty, Suarez to score, Torres to finish it off, Skrtel or Enrique sent off",Sat May 05 16:11:58 +0000 2012
"Open tweet to all #NYR fans; I maybe not be watching the #Rangers today due to the #FACupFinal, but flood my TL w/ goal tweets! #Cheslea",Sat May 05 16:11:58 +0000 2012
Watching #facup final #lfc vs #cfc go go @LFC (@ khaleeluh rahman colony) http://t.co/DUG1gcoA,Sat May 05 16:11:58 +0000 2012
"I'm feeling sorry for the poor mascots - they don't get a handshake from the old fellas :(
#facupfinal",Sat May 05 16:11:58 +0000 2012
RT @NorwegianCFCboy: #ComeOnYouBlues!! #KeepTheBlueFlagFlyingHigh #CFC,Sat May 05 16:11:58 +0000 2012
Fancy #LFC to triumph but can see this one going all the way to penalties.,Sat May 05 16:11:58 +0000 2012
So the FA cup final! Wil John Terry shake Suarez's hand?? #facupfinal,Sat May 05 16:11:58 +0000 2012
Maybe next year Fabrice will be on the pitch at Wembley helping #bwfc to win the #facupfinal. A girl can dream.,Sat May 05 16:11:59 +0000 2012
RT @ESPNTVUK: Remember we're advert free from now until after the trophy is lifted. No reason not to tune in! #FACupFinal #lfc #cfc,Sat May 05 16:11:58 +0000 2012
Pumped for this but nervous. Come on boys! #LFC #FACupFinal,Sat May 05 16:11:59 +0000 2012
@sjmaltman that's the spirit scott! Hahahah.. come on the reds #LFC,Sat May 05 16:11:59 +0000 2012
Which racist is going to win today? Should be kicked out of football #facup,Sat May 05 16:11:59 +0000 2012
CHELSEA  vs  LIVERPOOL  #FAcup,Sat May 05 16:11:59 +0000 2012
Come On Chelsea !!! #CFC,Sat May 05 16:11:59 +0000 2012
RT @Linda_Pizzuti: The sun is shining on @LFC fans http://t.co/SIzkCXRV,Sat May 05 16:11:59 +0000 2012
Prediction: Chelsea 2 Liverpool 1! #FACupFinal #Wembley,Sat May 05 16:11:59 +0000 2012
RT @ESPNTVUK: Hard-Fi take to the stage to rehearse ahead of their set later this afternoon for the #FACupFinal. It sounds... loud! http ...,Sat May 05 16:11:59 +0000 2012
For the sake of my dad's cheerful mood . .  Come on Liverpool! #FACup,Sat May 05 16:11:59 +0000 2012
RT @chelseafc RT @JMcEachran20 Come on Chelsea!!!,Sat May 05 16:11:59 +0000 2012
"Not bothered about the result, just please be a good game #FACupFinal",Sat May 05 16:11:59 +0000 2012
Did terry foul that little girl then wouldn't surprise me #FACupFinal,Sat May 05 16:11:59 +0000 2012
#FACupFinal Chelsea Vs Liverpool. at the pub.,Sat May 05 16:11:59 +0000 2012
"Red vs Blue, North vs South, it's FA Cup Final Day and I'm watching in Raynes Park in 3D #FACupFinal #3D #footballgeek",Sat May 05 16:11:59 +0000 2012
need a drink for my nerves #FACupFinal c'mon @chelseafc,Sat May 05 16:11:59 +0000 2012
"Here we go. Come on Liverpool, end the season on a huge high #LFC",Sat May 05 16:11:59 +0000 2012
YNWA #FACupFinal,Sat May 05 16:11:59 +0000 2012
Liverpool you are champion FAcup #lfc,Sat May 05 16:11:59 +0000 2012
