first_name,last_name
Ready for the game! #ynwa @LFC @LFCTV,Sat May 05 15:58:06 +0000 2012
Wembley memerah RT @LFC: Liverpool supporters: best in the world http://t.co/ovlZmORj,Sat May 05 15:58:06 +0000 2012
C'MON LIVERPOOL! #YNWA #LFC FUCK OFF CHELSEA FC #FACupFinal,Sat May 05 15:58:08 +0000 2012
"RT @MirrorFootball: RT @paulharlock: RT @jacksconlon: ""MARTIN SKRTEL IS SO HARD HE ASKED FOR A BIG MAC IN BURGER KING AN GOT ONE"" top #L ...",Sat May 05 15:58:08 +0000 2012
#FACupFinal a 3-1 Liverpool win with some unusual style they always have agains't Chelsea.  Not confident at all. Tired players.,Sat May 05 15:58:09 +0000 2012
"RT @JamesPearceEcho: Great scenes as You'll Never Walk Alone echoes around Wembley. #LFC got 25,000 tickets but thousands more Kopites here",Sat May 05 15:58:09 +0000 2012
"Los 11 de #Liverpool!! Reina, Johnson, Agger, Skrtel, Enrique, Gerrard, Spearing, Henderson, Downing, Bellamy, Suarez. #FACupFinal",Sat May 05 15:58:09 +0000 2012
RT @chelseafc: You can follow all the action by clicking on the live coverage tab right here http://t.co/UyqvckuQ #CFCWembley #FACupFina ...,Sat May 05 15:58:09 +0000 2012
"RT @JamesPearceEcho: Great scenes as You'll Never Walk Alone echoes around Wembley. #LFC got 25,000 tickets but thousands more Kopites here",Sat May 05 15:58:09 +0000 2012
RT @UpYerrViva: @CompleteGleek88 lolz seriously I did :') either way I hate chelsea so they can't win #LFC,Sat May 05 15:58:09 +0000 2012
Might be down a couple of fans after wembley escalator was closed rather large person was crying as they hassle to walk #FACupFinal #LFC,Sat May 05 15:58:09 +0000 2012
RT @chelseafc: You can follow all the action by clicking on the live coverage tab right here http://t.co/eYWD36Ns ... http://t.co/DOgaqJnI,Sat May 05 15:58:09 +0000 2012
Hope it's John Terry lifting the FA Cup tonight! Come on Chelsea!! #CFC #facupfinal,Sat May 05 15:58:10 +0000 2012
RT @DailyPostLFC: Great banner - Skrtel probably flame grills himself to warm up before games http://t.co/ZjcY9EE9 #lfc #facup,Sat May 05 15:58:09 +0000 2012
#FACupFinal so nervous #YNWA,Sat May 05 15:58:10 +0000 2012
@Lil_Luchie COME ON THE REDS! #LFC,Sat May 05 15:58:10 +0000 2012
"QUE ARDA EL CHELSEA, Y QUE ARDA WEMBLEY! #LFC #YNWA",Sat May 05 15:58:10 +0000 2012
RT @akadej: Come On Liverpool!!! ... Please RETWEET if you support LIVERPOOL!!! ... #LFC #FACupFinal,Sat May 05 15:58:10 +0000 2012
4 pertemuan terakhir @LFC selalu menang #superior,Sat May 05 15:58:10 +0000 2012
RT @Yakubu_24: Neymars feelings when linked with a big money move to a top european club this summer  #FACup #HarryPotterIsOurLife http: ...,Sat May 05 15:58:10 +0000 2012
come on #LFC,Sat May 05 15:58:10 +0000 2012
RT @BluesChronicle: Blue Is The Colour playing at Wembley. Stadium filling-up with a little under half an hour to go until kick off in t ...,Sat May 05 15:58:10 +0000 2012
Got that right! #YNWA RT @LFC: Liverpool supporters: best in the world http://t.co/5p1FySa6,Sat May 05 15:58:10 +0000 2012
Lets go Liverpool!!!! #FACup,Sat May 05 15:58:11 +0000 2012
Lots of Scousers in the middle tier above us; must have stolen the tickets #cfc,Sat May 05 15:58:11 +0000 2012
RT @annapbennett: Reds! Reds! Reds! Let's go let's go let's go!!!! This #FACup is OURS!! #YNWA @LFC @LFCBoston yesyesyesyesyes!!!!!,Sat May 05 15:58:11 +0000 2012
Nervous. Come on Chelsea #CFC,Sat May 05 15:58:11 +0000 2012
Almighty reds #LFC,Sat May 05 15:58:11 +0000 2012
Vamos liverpool  #ComeOnReds #YNWA @liverpool_col #FaCupFinal,Sat May 05 15:58:11 +0000 2012
"#Chelsea sale con! Cech, Bosingwa, Ivanovic, Terry, Cole, Lampard, Mikel, Ramires, Mata, Kalou, Drogba #FACupFinal",Sat May 05 15:58:11 +0000 2012
Holy Fuck Queen Kenny isnt wearing his shell suit #FACUPFINAL,Sat May 05 15:58:11 +0000 2012
RT @chelseafc: You can follow all the action by clicking on the live coverage tab right here http://t.co/UyqvckuQ #CFCWembley #FACupFina ...,Sat May 05 15:58:11 +0000 2012
RT @LFC: Liverpool supporters: best in the world http://t.co/kmNDAH36,Sat May 05 15:58:11 +0000 2012
"RT @JamesPearceEcho: Great scenes as You'll Never Walk Alone echoes around Wembley. #LFC got 25,000 tickets but thousands more Kopites here",Sat May 05 15:58:12 +0000 2012
@PeeleT Come on the Reds #YNWA #lfc,Sat May 05 15:58:12 +0000 2012
The Liverpool fans are creating their famous 'atmosphere' singing YNWA over &amp; over. I'm quaking in my fucking boots #sarcasm #cfc,Sat May 05 15:58:12 +0000 2012
Cup final time! Come on you red men!! #LFC #YNWA,Sat May 05 15:58:12 +0000 2012
RT @chelseafc: You can follow all the action by clicking on the live coverage tab right here http://t.co/sQXiBpUV #CFCWembley #FACupFinal (S,Sat May 05 15:58:12 +0000 2012
Ik ben voor Liverpool #FACup,Sat May 05 15:58:12 +0000 2012
RT @Richard_Buxton_: 'You'll Never Walk Alone' blasting out at Wembley now #LFC #CFC #FACupFinal http://t.co/CAdhROYd,Sat May 05 15:58:12 +0000 2012
#FACupFinal,Sat May 05 15:58:13 +0000 2012
"#FACup suena You'll Never Walk Alone en las gradas de Wembley, Liverpool FC listo para salir a la cancha en la final contra el Chelsea FC",Sat May 05 15:58:13 +0000 2012
@TomW2005 stomach in knots! Shakes everything! Come on u redmen? #lfc #ynwa,Sat May 05 15:58:13 +0000 2012
RT @TomKongWatson: Off to teach a seminar at Ocean gym then gonna watch Liverpool win the FA Cup! #FACupFinal,Sat May 05 15:58:13 +0000 2012
"Go on then chelsea, I'm feeling a John Terry winner #YSB #FACupFinal",Sat May 05 15:58:13 +0000 2012
Come on you bin dippers #facupfinal,Sat May 05 15:58:13 +0000 2012
@pratamaaris_ @rayhantaswin thanks gooners and cules for your respect to #LFC !,Sat May 05 15:58:13 +0000 2012
Here's hoping Chelsea can cheer me up! #FACupFinal,Sat May 05 15:58:13 +0000 2012
Jose Mourinho berbicara tentang #FACupFinal,Sat May 05 15:58:13 +0000 2012
Come on Reds! We can do it :D #YNWA #LFC,Sat May 05 15:58:13 +0000 2012
"wahh gila wembley penuh bngt, gw mau nyari tmpat duduk dulu #wembley #lfc #ynwa",Sat May 05 15:58:14 +0000 2012
@IamMase @stevepercy05 @alanbaker_ @spit84 @eddwillmot right now that shits over lets see how bad Liverpool are. #FACup,Sat May 05 15:58:14 +0000 2012
RT @ESPNTVUK: Spine-tingling rendition of #YNWA by @lfc fans at Wembley. Real back of the neck stuff. #FACupFinal #lfc,Sat May 05 15:58:14 +0000 2012
#CFC!,Sat May 05 15:58:14 +0000 2012
https://t.co/PmNMwcGX Let's go Reds! #LFC #YNWA,Sat May 05 15:58:14 +0000 2012
Come on Chelsea! #facup #CFC http://t.co/21Iqv7lS,Sat May 05 15:58:14 +0000 2012
"""@sportmaniaMNCTV: #FACupFinal Chelsea vs Liverpool. Prediksi?"" Chelsea dnk!!! 4-1 lh utk kemenangan the blus!!!",Sat May 05 15:58:14 +0000 2012
RT @Lil_Luka_Modric: Adrian Chiles interviewing Fabrice Muamba....hasn't that poor boy suffered enough?! #facup,Sat May 05 15:58:14 +0000 2012
"@NickTsamplakos Mate, entrance K - Chelsea end. I'm guessing opposite side of ground to you! COYB! lol. Just hope it's a good game. #Wembley",Sat May 05 15:58:15 +0000 2012
I'm at Yates bar in Reading which is crammed with #LFC fans... the one Chelsea fan is currently outside selling the big issue...,Sat May 05 15:58:15 +0000 2012
RT @soccerdotcom: Retweet if you think Liverpool will win the 2012 #FACup! #LFC,Sat May 05 15:58:15 +0000 2012
"3-1 for liverpool, suarez, gerrard, Downing, skrtel(own goal)
 RT @FIFAcom: What do you think the score will b #CFC #LFC #FACupFinal",Sat May 05 15:58:15 +0000 2012
"""@empireofthekop: Shout out to our fans in Asia &amp; Australia who are burning the midnight oil to watch the game #ComeOnReds #FACupFinal""",Sat May 05 15:58:15 +0000 2012
God as if im watching this shit #FACupFinal  hurry up and dance so i dont have to watch it anymore haha,Sat May 05 15:58:15 +0000 2012
#facup good way for the king to say goodbye IMO. Hope #LFC win it for him #legend,Sat May 05 15:58:15 +0000 2012
RT @OptaJoe: 11 - Fernando Torres has scored (7) or assisted (4) more goals than any other Chelsea player under Roberto Di Matteo. Bench ...,Sat May 05 15:58:15 +0000 2012
Filled with equal parts excitement and dread! C'mon the Red Men #lfc,Sat May 05 15:58:16 +0000 2012
"@MichaelH29 I hope you boys do it today, due to your league position I think this will more than make up for that #LFC",Sat May 05 15:58:16 +0000 2012
RT @gegeraldd: #WEM8LEY #YNWA #LFC,Sat May 05 15:58:15 +0000 2012
Ovviamente supporto per il @chelseafc #FAcup,Sat May 05 15:58:16 +0000 2012
Lets bring the cup home boys !! #FACupFinal #YNWA #fb,Sat May 05 15:58:16 +0000 2012
@mollylew come on Chelsea. #cfc,Sat May 05 15:58:16 +0000 2012
Nervous now! #ynwa #lfc #redmen,Sat May 05 15:58:16 +0000 2012
"RT @umbro: To win signed Andy Carroll Speciali boots, just RT this message before the end of today's #FACup http://t.co/Mn4uSsn0",Sat May 05 15:58:16 +0000 2012
"#tebak2 skor jik RT @junkriks: Saya dukung celsea RT @adhiardana: Chelsea vs liverpool #FACup 
Siapapun yg mnang sama sajalah..",Sat May 05 15:58:16 +0000 2012
"RT @namasayamimi: RT @_emint_: Chelsea Subs: Turnbull, Essien, Torres, Malouda, Meireles, Ferreira, Studge. #CFC",Sat May 05 15:58:16 +0000 2012
Come on Liverpool #LFC #YNWA #facupfinal,Sat May 05 15:58:16 +0000 2012
"Fuck yer kop, fuck yer YNWA, fuck yer Gerrard, fuck yer king kenny and FUCK YER LIVERPOOL FC #CFC",Sat May 05 15:58:16 +0000 2012
"RT @ESPNTVUK: Liverpool team: Reina, Johnson, Agger, Skrtel, Enrique, Gerrard, Spearing, Henderson, Downing, Bellamy, Suarez. #lfc #FACu ...",Sat May 05 15:58:16 +0000 2012
Around 15mins before kick off. Are you ready lads?!! Come on you Reds!!! #YNWA #FACupFinal,Sat May 05 15:58:17 +0000 2012
Our seats are rubbish. #facup http://t.co/qdzurLYa,Sat May 05 15:58:17 +0000 2012
RT @nham1234: I'd rather Liverpool win but I can't see it happening #FACupFinal,Sat May 05 15:58:17 +0000 2012
Amazing rendition of 'you'll never walk alone' by #lfc fans. Have a feeling it could be Dalglish's day.... @Natpirks http://t.co/w2UeWUKF,Sat May 05 15:58:17 +0000 2012
#torress will score a hatrick against #lfc today.and 1 for #drogbar. #cfc,Sat May 05 15:58:17 +0000 2012
Increible el estadio de Wembley sonando YOUR NEVER WALK ALONE #FAcup,Sat May 05 15:58:17 +0000 2012
Just like a team that's gonna win the FA Cup.. We shall not be moved.. #LFC,Sat May 05 15:58:17 +0000 2012
"@NadMjd07 WILD GUESS :p yeah, AC's on.. Chillin and watchin #IPL till the #FACUP finals :)",Sat May 05 15:58:17 +0000 2012
#lfc come on you reds,Sat May 05 15:58:18 +0000 2012
Its #FAcup final time - always like the FA cup - then out for Greek food and drinks! Happy Saturday!,Sat May 05 15:58:18 +0000 2012
"RT @ESPNTVUK: Chelsea team: Chelsea: Cech, Bosingwa, Ivanovic, Terry, Cole, Lampard, Mikel, Ramires, Mata, Kalou, Drogba #cfc #FACupFinal",Sat May 05 15:58:18 +0000 2012
RT @ESPNTVUK: Remember we're advert free from now until after the trophy is lifted. No reason not to tune in! #FACupFinal #lfc #cfc,Sat May 05 15:58:18 +0000 2012
Happy to see Fabrice Muamba doing good #Facup,Sat May 05 15:58:18 +0000 2012
"Alright Chelsea, let's do this :D #CFC #FACupFinal",Sat May 05 15:58:18 +0000 2012
Listos para #FACupFinal Vamos @chelseafc por este campeonato !!! A vencer al #Liverpool !! #Blues,Sat May 05 15:58:18 +0000 2012
i dont think anyone understands how excited i am about this game. #LFC,Sat May 05 15:58:18 +0000 2012
RT @Ddwyer14: Need @k_warzycha @SoonySaad and @Kev_Ellis4 to hurry back as its cup final day!! #ComeOnYouReds #FAcup,Sat May 05 15:58:18 +0000 2012
@sofiahisham come on #LFC #YNWA,Sat May 05 15:58:18 +0000 2012
It appears #cfc have the advantage... Every seat has a plastic flag on it! #FACupFinal,Sat May 05 15:58:19 +0000 2012
Got thrills after watching the #lfcred crowd in #wembley.. Come on Reds.. #YNWA @LFC,Sat May 05 15:58:19 +0000 2012
You will never walk alone. Come on Reds #LFC,Sat May 05 15:58:19 +0000 2012
#FACup #LFC #Gerrard looks pumped. #Wembley looks great. #SeaOfRed. Come on the reds,Sat May 05 15:58:19 +0000 2012
Am certain loserfool will be walking alone after 90 mins #FAcupFinal #lfc #cfc,Sat May 05 15:58:19 +0000 2012
"Doesn't feel like a FA Cup final day.no matter who was in the final, it always seemed a special day for football. Not anymore. #FACupFinal",Sat May 05 15:58:19 +0000 2012
RT @LFC: Liverpool supporters: best in the world http://t.co/T5a6aFpa,Sat May 05 15:58:20 +0000 2012
#KTBFFH #FACupFinal,Sat May 05 15:58:19 +0000 2012
@chelseafc LET'S GO BLUES... #CFC,Sat May 05 15:58:20 +0000 2012
Come on @chelseafc #FACUpFinal,Sat May 05 15:58:20 +0000 2012
"@robakehurst93 he was doing the presentation at Worth 7s, plays for England 7s - on sky sports now, watching it untill the #facupfinal",Sat May 05 15:58:20 +0000 2012
"Chelsea Vs Liverpool, Suarez Vs Terry and Cole Vs Gerrard. I'm really struggling to decided which team I dislike more. #FACup",Sat May 05 15:58:20 +0000 2012
@TheScript_Danny yeh go watch the fa cup final #ynwa #facupfinal #lfc,Sat May 05 15:58:20 +0000 2012
"11 del @chelseafc (4-2-2-2): Cech, Bosingwa, Ivanovic, Terry, Cole, Mikel, Lampard, Ramires, Mata, Kalou y Drogba.",Sat May 05 15:58:20 +0000 2012
C'maaaaaaan @LFC . Av iiiiiiiiit,Sat May 05 15:58:20 +0000 2012
"Yg jelas hsil mlam ini ga akan mengurangi kesetiaan saya sama @LFC, Jd percuma aja ngata2in LFC ke saya, Siapapun juara, bakal saya slametin",Sat May 05 15:58:20 +0000 2012
FA Cup final!  Go Liverpool!  #lfc #youllneverwalkalone,Sat May 05 15:58:21 +0000 2012
#FACupFinal #CFCWembley come on Chelsea!!! #CFC,Sat May 05 15:58:21 +0000 2012
JAMES BULGER WUD HAVE BEEN THERE TODAY WATCHIN #LIVERPOOL PLS FOLLOW HIS CHARITY @jbmt1 RT WHEN U TWEET 4 LIVERPOOL #YNWA #LFC XXX,Sat May 05 15:58:21 +0000 2012
At #thetoucan with the kids watching the build up to the #FACupFinal. Go Liverpool! YNWA! http://t.co/nio7hDDk,Sat May 05 15:58:21 +0000 2012
Lovely seats at Club Wembley. Might get to touch the players if we win! Fuckin come on red men!!! #LFC,Sat May 05 15:58:21 +0000 2012
FUCK. Massively misjudged curfew. Now have to watch #FACupFinal at home with that gobshite Craig Foster,Sat May 05 15:58:21 +0000 2012
"The nerves have started, it's wine o'clock!! #CFCWembley",Sat May 05 15:58:21 +0000 2012
"RT @ESPNdeportesMX: #FACup #Chelsea Cech, Cole, Terry, Bosignwa, Ivanovic, Lampard, Mikel Obi, Ramires, Drogba, Kalou y Mata http://t.co ...",Sat May 05 15:58:21 +0000 2012
"""@Richard_Buxton_: 'You'll Never Walk Alone' blasting out at Wembley now #LFC #CFC #FACupFinal http://t.co/3ZnQOLWp""",Sat May 05 15:58:21 +0000 2012
"@LFC 

Percy the Penguin is wearing red today #paintapets #lfc
 come on you reds",Sat May 05 15:58:21 +0000 2012
RT @soccerdotcom: Retweet if you think Liverpool will win the 2012 #FACup! #LFC,Sat May 05 15:58:21 +0000 2012
aku liverpool km apa cuy ? RT @Baduur_SH: hanya mnunggu bbrapa menit lagi... Chelsea VS Liverpool #FaCupFinal,Sat May 05 15:58:22 +0000 2012
Cmon Chelsea!!!!! Let's grab it!! #chelsea #trueblue #facup,Sat May 05 15:58:22 +0000 2012
RT @akadej: Come On Liverpool!!! ... Please RETWEET if you support LIVERPOOL!!! ... #LFC #FACupFinal,Sat May 05 15:58:22 +0000 2012
aku bg hadiah ciuman sapa2 teman aku tgk #cfc mlm ni...tak nak la tgk ngn buaya n awek dia ja -.-,Sat May 05 15:58:22 +0000 2012
@chelseafc Big win blues!,Sat May 05 15:58:22 +0000 2012
RT @littlehez: Come on Redmen #believe #InKingKennyWeTrust #FACupFinal #YNWA,Sat May 05 15:58:22 +0000 2012
@LFC please follow me???? (:,Sat May 05 15:58:22 +0000 2012
"RT @Baggie1993: Walk on, Walk on...Defo just decided that's gonna be a tattoo to get. Brilliant scenes on Itv, still bricking it though. ...",Sat May 05 15:58:22 +0000 2012
"RT @ESPNTVUK: Chelsea team: Chelsea: Cech, Bosingwa, Ivanovic, Terry, Cole, Lampard, Mikel, Ramires, Mata, Kalou, Drogba #cfc #FACupFinal",Sat May 05 15:58:22 +0000 2012
RT @TVNewsroom: Ladbrokes are offering 33/1 for ITV transmission to cut out or cut to another studio during the match http://t.co/1NHYZy ...,Sat May 05 15:58:22 +0000 2012
Nerves kicking in... #FACupFinal #Chelsea,Sat May 05 15:58:23 +0000 2012
"RT @FootballLaw: Best banner at Wembley so far: ""Martin Skrtel is so hard he asked for a Big Mac at Burger King and got one"". #FAcup",Sat May 05 15:58:23 +0000 2012
"Lol RT @paulharlock: RT @jacksconlon: ""MARTIN SKRTEL IS SO HARD HE ASKED FOR A BIG MAC IN BURGER KING AN GOT ONE"" top #LFC banner at wembley",Sat May 05 15:58:23 +0000 2012
I still don't understand why the #FACup is sponsored by Budweiser,Sat May 05 15:58:23 +0000 2012
"FA Cup Final 2012. Ideally, I'd like both teams to lose #LFC #CFC #couldntcareless",Sat May 05 15:58:23 +0000 2012
Come on you reds lets twat the Di Matteo gang. #lfc #cfc #FACup,Sat May 05 15:58:23 +0000 2012
"RT @1stLadyOfFooty: Let's walk on, with HOPE IN OUR HEARTS my #LFC familia -  http://t.co/QFWBYszf  #YNWA",Sat May 05 15:58:23 +0000 2012
Come on Liverpool YNWA #facup,Sat May 05 15:58:23 +0000 2012
"Forgett about DFB-Pokal , Copa del Rey or the scudetto .This is #FACup",Sat May 05 15:58:23 +0000 2012
RT @TVNewsroom: Ladbrokes are offering 33/1 for ITV transmission to cut out or cut to another studio during the match http://t.co/1NHYZy ...,Sat May 05 15:58:23 +0000 2012
Vamos BLUE!! Haciendo fuerza desde colombia @chelseafc,Sat May 05 15:58:24 +0000 2012
I'd like to disagree with this from @StocksC_cricket but can't - if Liverpool win #FACupFinal their season is a success http://t.co/4Y9F9PJQ,Sat May 05 15:58:24 +0000 2012
Cmon the pool. # lfc #facup,Sat May 05 15:58:24 +0000 2012
When did the cup final change from 3pm kick off time? #facup,Sat May 05 15:58:24 +0000 2012
Watchin jose mourinho talking about @chelseafc :),Sat May 05 15:58:24 +0000 2012
4 FA cup finals in 6 years. Wembley will forever be blue ! #cfc,Sat May 05 15:58:24 +0000 2012
"Wish i was there! Come on Lads, cheer me up #lfc",Sat May 05 15:58:24 +0000 2012
Let's go Reds #LFC,Sat May 05 15:58:25 +0000 2012
"U got it! RT @jamessowah: ThanX..I need it RT @ahetow: All the best bro! ""@jamessowah: All-Set for the game @ #Wembley http://t.co/TZONUSML""",Sat May 05 15:58:25 +0000 2012
RT @QuinnyGA: great to see in this time of sponsors &amp; stupid kick off times we still have a genuine giant killing opportunity on our ...,Sat May 05 15:58:24 +0000 2012
So Proud :D RT @LFC: Liverpool supporters: best in the world http://t.co/urSp6jKl,Sat May 05 15:58:25 +0000 2012
Jjjaaaaaa #FAcup,Sat May 05 15:58:25 +0000 2012
"Today's #FACupFinal is a tough one to call.... Who do I dislike the least, scousers or southerners!",Sat May 05 15:58:25 +0000 2012
Surprised Kenny wore a suit #FACup,Sat May 05 15:58:25 +0000 2012
"The crowd is a giant sea of red. C'mon Liverpool, bring home another trophy!!!! #YNWA #FAcupfinal",Sat May 05 15:58:25 +0000 2012
It is going to be a fascinating FA Cup final. Liverpool win - its a cup double and Dalglish safe. #facupfinal,Sat May 05 15:58:25 +0000 2012
"RT @FIFAcom: In our earlier poll, 50.8% of those who RTd wanted @Chelseafc to win while 49.2% are rooting for @LFC. So close! #CFC #LFC  ...",Sat May 05 15:58:25 +0000 2012
#LFC,Sat May 05 15:58:25 +0000 2012
Really hope Chelsea win today hate them scumbags liverpool #COYB #Arsenal4Life #FAcup,Sat May 05 15:58:25 +0000 2012
On sum cool banku n tilapia to face #LFC vrs #CHL,Sat May 05 15:58:25 +0000 2012
@Broady83 I've got a cheeky Lady Godiva on The Drog as first scorer @ 6/1. He loves scoring at Wembley #FACFinal #LFC #CFC,Sat May 05 15:58:25 +0000 2012
@LFC @LucasLeiva87 @Charlie26Adam Goosebumps when 'You'll Never Walk Alone' comes on,Sat May 05 15:58:25 +0000 2012
If wembley were to become Auschwitz today the world would be a better place #chelseascousescum #facup,Sat May 05 15:58:26 +0000 2012
OUR FANS ARE TOP TOP QUALITY!!!!!!! #LFC #YNWA,Sat May 05 15:58:26 +0000 2012
RT @chelseafc: A picture of the team warming up... We'll kick-off in just under half an hour...#CFCWembley #FACupFinal (SL) http://t.co/ ...,Sat May 05 15:58:26 +0000 2012
COME ON YOU BLUES!!! #CFC,Sat May 05 15:58:26 +0000 2012
RT @heyyypaula: All the more reason to dislike the color BLUE now. #LFC,Sat May 05 15:58:26 +0000 2012
Get then flags snapped in half! #FACupFinal,Sat May 05 15:58:26 +0000 2012
RT @Richard_Buxton_: 'You'll Never Walk Alone' blasting out at Wembley now #LFC #CFC #FACupFinal http://t.co/CAdhROYd,Sat May 05 15:58:26 +0000 2012
"RT @philmcnulty: RT @johncrossmirror: Sagna broken fibula, misses Euros. Same leg as at Tottenham. He was kicked ... http://t.co/FD69NNcS",Sat May 05 15:58:26 +0000 2012
"RT @FootballLaw: Best banner at Wembley so far: ""Martin Skrtel is so hard he asked for a Big Mac at Burger King and got one"". #FAcup",Sat May 05 15:58:26 +0000 2012
"I love Kennys feathery fringe 

#lfc",Sat May 05 15:58:26 +0000 2012
IN THE WORLD* RT @LFC: Liverpool supporters: best in the world http://t.co/banqPgHJ,Sat May 05 15:58:27 +0000 2012
RT @soccerdotcom: Retweet if you think Chelsea will win the 2012 #FACup! #CFC,Sat May 05 15:58:27 +0000 2012
"RT @BeritaLFC: Walk on , walk on with hope in your heart &amp; YOU'LL NEVER WALK ALONE ! #LFC #Wem8ley #8elieve.",Sat May 05 15:58:27 +0000 2012
RT @HelloMiaIlmi: RT @indoLFCnews: RT @Richard_Buxton_: 'You'll Never Walk Alone' blasting out at Wembley now #LFC #CFC #FACupFinal http ...,Sat May 05 15:58:27 +0000 2012
With jay spearing starting Liverpool wont win not good enough #FACupFinal #justsaying,Sat May 05 15:58:27 +0000 2012
C'mon Chelsea! #FaCup #LetsDoThis,Sat May 05 15:58:27 +0000 2012
Torres dosnt score he gets to play he gets 4 goals in 2weeks and he is on bench :/ #wtf #facup #LFC #CFC,Sat May 05 15:58:27 +0000 2012
Final #FACup link: Chelsea vs Liverpool http://t.co/QmVlehAQ  #futbolenvivo #livestream + links http://t.co/FWQlJTMV,Sat May 05 15:58:27 +0000 2012
"#YNWA 
#lfc 
#GetTheF***In",Sat May 05 15:58:27 +0000 2012
COME ON YOU REDS! #LFC,Sat May 05 15:58:27 +0000 2012
Todoo liiistooo vaaaaamooooonooos!! @borrego08 @chelseafc,Sat May 05 15:58:28 +0000 2012
At desk with most of Rymans and elaborate revison timetable.Bet @MikeBeaber &amp;@Waspy07 will be hard at work too&amp;not watching#FAcupfinal #obvz,Sat May 05 15:58:28 +0000 2012
RT @chelseafc: You can follow all the action by clicking on the live coverage tab right here http://t.co/UyqvckuQ #CFCWembley #FACupFina ...,Sat May 05 15:58:28 +0000 2012
"I hate it when for no apparent reason I feel sad.... #facupfinal on, hubby doing Braai, coffee with friends and son visiting #shouldbehappy",Sat May 05 15:58:28 +0000 2012
Torres off the bench to score the winner!! #FACup,Sat May 05 15:58:28 +0000 2012
You'll Never Walk Alone is something #cfc will never have! #ynwa #facupfinal #bbcfootball,Sat May 05 15:58:29 +0000 2012
Chelseeeeeeaaa ... the reds: yo'll never WIN again :D RT @hakimchircus @liverpool @LFC @LiverpoolWays Siap siap nntn @liverpool @LFC,Sat May 05 15:58:29 +0000 2012
COME ON RED MEN. LET'S HAVE IT! #LFC,Sat May 05 15:58:29 +0000 2012
RT @LFC: Liverpool supporters: best in the world http://t.co/Fp8cjHhL  // ARRIBA REDS! #Liverpool ! COME ONNNN!,Sat May 05 15:58:29 +0000 2012
"Enak di dengar ""Liverpool sudah menang 5x, walaupun udah lama sekali"" #Commentator #MNCtv #FAcup",Sat May 05 15:58:29 +0000 2012
763 teams man.... #faCup #cheliv,Sat May 05 15:58:29 +0000 2012
@robh_78 it's like being given the choice of dipping your balls in acid or volcanic lava #facup #ESPNvITV,Sat May 05 15:58:29 +0000 2012
Let's do this Liverpool @lfc #ynwa,Sat May 05 15:58:29 +0000 2012
+50000 RT: @LFC Liverpool supporters: best in the world http://t.co/gxuaVy53,Sat May 05 15:58:29 +0000 2012
"RT @LFC: RT @TitiCamara22: I hope LFC win the final, you fans are the greatest you deserve this #YNWA",Sat May 05 15:58:29 +0000 2012
Ahhhhh do one Preston!!! Bet ya pie head missed a sitter! Good end to the season for rovers. Fa cup time now! Hope #lfc do the business,Sat May 05 15:58:30 +0000 2012
"Chelsea 0-1 Liverpool #ynwa  RT @sportmaniaMNCTV #FACupFinal Chelsea vs Liverpool. Prediksi?""",Sat May 05 15:58:29 +0000 2012
TRUE!! RT @LFC: Liverpool supporters: best in the world http://t.co/LIyQFCEf,Sat May 05 15:58:30 +0000 2012
Come on @chelseafc! F.A cup is ours! #CFC,Sat May 05 15:58:30 +0000 2012
You'll never walk alone... Come on Liverpool.. Big game.. Fa Cup final.. Let's go.... #LFC  #YNWA,Sat May 05 15:58:30 +0000 2012
"RT @rickedwards1: enjoyed that film about John Terry. The only way it could've been better is if the VO said ""And don't forget - he is a ...",Sat May 05 15:58:30 +0000 2012
Let's go Liverpool! Let's win the FA Cup! #LFC #YNWA #FACupFinal,Sat May 05 15:58:30 +0000 2012
#YNWA #LFC #FACupFinal http://t.co/wz4UAPvx,Sat May 05 15:58:30 +0000 2012
#YNWA #LFC,Sat May 05 15:58:30 +0000 2012
COME ON LIVERPOOL! #LFC,Sat May 05 15:58:30 +0000 2012
"#cheliv kijken, #FAcup finale",Sat May 05 15:58:30 +0000 2012
WARNING! Chelsea tweets coming up! Chelsea boy is ready! #upthechels #cfc,Sat May 05 15:58:30 +0000 2012
"@Rober_ArmyMU jajajjajajajaja ay si ajaaa, ya lo veremos, tuuu deberias apoyar a mi @LiverpoolFC  eee",Sat May 05 15:58:30 +0000 2012
"TrueBlues !! RT @agungseptian17: LIVERPOOL! RT ""@fikriislamoriza: CHELSEACHELSEACHELSEACHELSEACHELSEACHELSEA !! #CFC #KTBFFH""",Sat May 05 15:58:30 +0000 2012
Liverpool vs chelsea in 10min...               #Wembley F.A FINAL...,Sat May 05 15:58:30 +0000 2012
"@FIFAcom @Chelseafc @lfc 2-1 for Chelsea Goal scorer Drogba, Mata and Gerrard",Sat May 05 15:58:30 +0000 2012
"RT @JamesPearceEcho: Great scenes as You'll Never Walk Alone echoes around Wembley. #LFC got 25,000 tickets but thousands more Kopites here",Sat May 05 15:58:30 +0000 2012
Cmon @LFC bring home #TheFACup #YNWA,Sat May 05 15:58:30 +0000 2012
RT @soccerdotcom: Retweet if you think Liverpool will win the 2012 #FACup! #LFC,Sat May 05 15:58:30 +0000 2012
RT @cfc_manager: The Liverpool fans are creating their famous 'atmosphere' singing YNWA over &amp; over. I'm quaking in my fucking boots ...,Sat May 05 15:58:30 +0000 2012
Waiting for the #FACupFinal lets go @chelseafc!!,Sat May 05 15:58:31 +0000 2012
Great interview by SBS with Craig Johnston. Dead set LFC legend! Bloody hero!!! COME ON LFC!!! #LFC,Sat May 05 15:58:31 +0000 2012
RT @AccioMaria: Clive Owen is standing a few feet away from me. Had no idea he was a Liverpool supporter. #LFC,Sat May 05 15:58:31 +0000 2012
#lfc comeonyoureds #ynwa,Sat May 05 15:58:31 +0000 2012
RT @LFC: Liverpool supporters: best in the world http://t.co/0JoVm6GS,Sat May 05 15:58:31 +0000 2012
This isnt a home game for #lfc. Why are they playing '...walk alone'? On that basis I want some Chas n' Dave next time we're there #norush,Sat May 05 15:58:30 +0000 2012
#Chelsea prematch entertainment excruciating . Just turn it off so we can shout at each other. #facupfinal,Sat May 05 15:58:31 +0000 2012
Predictions for the final?? #FACup,Sat May 05 15:58:31 +0000 2012
RT @Richard_Buxton_: Plenty of plastic looking flags being waved by #CFC fans as 'Blue is the Colour' blasts out. Little singing but syc ...,Sat May 05 15:58:31 +0000 2012
few minutes remaining before the big match :) .Come on CHELSEA !!! #FACupFinal http://t.co/RZL0ZNR5,Sat May 05 15:58:32 +0000 2012
uit 174 clubs die mee deden aan de FA-Cup zijn er nog maar 2 over... Liverpool vs. Chelsea ! #facup,Sat May 05 15:58:32 +0000 2012
finally #facupfinal #teamliverpool,Sat May 05 15:58:32 +0000 2012
Come on Liverpool!! So nervous #LFC,Sat May 05 15:58:32 +0000 2012
"RT @JamesPearceEcho: Great scenes as You'll Never Walk Alone echoes around Wembley. #LFC got 25,000 tickets but thousands more Kopites here",Sat May 05 15:58:32 +0000 2012
"C'mon #cfc I hope you beat #LFC on penalties....
Suarez and Gerrard to miss penalty each #Mufc",Sat May 05 15:58:32 +0000 2012
RT @FIFAcom: What do you think the score will be today between @Chelseafc and @lfc in the FA Cup Final and who will get the goals? #CFC  ...,Sat May 05 15:58:32 +0000 2012
RT @cfc_manager: The Liverpool fans are creating their famous 'atmosphere' singing YNWA over &amp; over. I'm quaking in my fucking boots ...,Sat May 05 15:58:32 +0000 2012
I'm not an #LFC fanatic but hearing #YNWA was quite emotional. Looking forward to the big match. #FA CUP 2012,Sat May 05 15:58:32 +0000 2012
@chelsea_debates falta poco para verte ya #CAMPEON de la #FACUP,Sat May 05 15:58:32 +0000 2012
"#Chelsea: Cech; Bosingwa, Ivanovic, Terry, Cole; Mikel, Lampard; Ramires, Mata, Kalou; Drogba. #FACup",Sat May 05 15:58:32 +0000 2012
Win or lose I'm Liverpool until I die #YNWA #LFC,Sat May 05 15:58:32 +0000 2012
15 mins until kick off #CFC,Sat May 05 15:58:33 +0000 2012
@grundman11 you want to put a tenner on the winner?! #COYR #LFC #YNWA #FACup,Sat May 05 15:58:33 +0000 2012
The #FACupFinal is earlier this year ?,Sat May 05 15:58:33 +0000 2012
"RT @ChelseaIndo: Chelsea XI:  Cech, Bosingwa, Ivanovic, Terry, Cole, Lampard, Mikel, Ramires, Mata, Kalou, Drogba. #cfc",Sat May 05 15:58:33 +0000 2012
RT @ninanaka: RT @akadej: Come On Liverpool!!! ... Please RETWEET if you support LIVERPOOL!!! ... #LFC #FACupFinal,Sat May 05 15:58:33 +0000 2012
Winning team @LFC http://t.co/hAynmtVh,Sat May 05 15:58:33 +0000 2012
15 mins! God its too long #FACupFinal,Sat May 05 15:58:33 +0000 2012
RT @jjswifty: Come on you reds!!!! #LFC #FACupFinal,Sat May 05 15:58:33 +0000 2012
With @leedurant at the FA Cup final. My 3rd one. Both the other 2 went to penalties. Will Liverpool &amp; Chelsea go the distance too? #cfc #lfc,Sat May 05 15:58:33 +0000 2012
Getting ready to watch the football #LFC #FACupFinal,Sat May 05 15:58:33 +0000 2012
YNWA. I have a feeling #LFC will deliver today. Let's turn this season into a triumphant one. Suarez and Kuyt to score. 2-1 #LFC.,Sat May 05 15:58:34 +0000 2012
"Chelsea to run away with the Fa cup, they deserve it than the Racists #Facup",Sat May 05 15:58:34 +0000 2012
go get it @CFC,Sat May 05 15:58:34 +0000 2012
"Biased pre match highlights from @itvfootball.. are they chelsea fans? @kennethdalglish is a legend, always will be! Come on @LFC YNWA",Sat May 05 15:58:34 +0000 2012
Cmon you fucking rent boys! #CFC,Sat May 05 15:58:34 +0000 2012
RT @chelseafc: You can follow all the action by clicking on the live coverage tab right here http://t.co/UyqvckuQ #CFCWembley #FACupFina ...,Sat May 05 15:58:34 +0000 2012
May the best team win #FACupFinal,Sat May 05 15:58:34 +0000 2012
#cfc blue is the colour!,Sat May 05 15:58:34 +0000 2012
RT @JimmyMonstaFunk: Come on Liverpool #LFC #YNWA #facupfinal,Sat May 05 15:58:34 +0000 2012
big day today #FACupFinal,Sat May 05 15:58:34 +0000 2012
RT @soccerdotcom: Retweet if you think Chelsea will win the 2012 #FACup! #CFC,Sat May 05 15:58:34 +0000 2012
"Don't like Chelsea or Liverpool, but I hate Liverpool a little more than Chelsea, so I hope Chelsea win lol #Logic #FACup",Sat May 05 15:58:34 +0000 2012
Gak nge RT ah. @MRZ7: RT if you believe @LFC will win! #YNWA :D,Sat May 05 15:58:34 +0000 2012
"RT @Just7Jake: This is Anfield South. Come on reds, its showtime #YNWA #COYR #LFC #FAcupfinal",Sat May 05 15:58:34 +0000 2012
"It's now or never!! Come on guys,let's go!! #KTBFFH #CFC",Sat May 05 15:58:35 +0000 2012
RT @LFC: Liverpool supporters: best in the world http://t.co/2yIR5CFG,Sat May 05 15:58:35 +0000 2012
#facupfinal c'mon @chelseafc,Sat May 05 15:58:35 +0000 2012
"Bitches Pleaseeeee,  His Majesty has never lost game against Chelsea as a   #LFC #YNWA #FACupFinal",Sat May 05 15:58:35 +0000 2012
I can feel it. Chelsea will win the FA Cup. :&gt; #FACUP,Sat May 05 15:58:35 +0000 2012
Come on #Liverpool lets do the #cupdouble and win the #FACupFinal,Sat May 05 15:58:35 +0000 2012
"Alineacion del Liverpool: Reina, Johnson, Agger, Skrtel, Enrique, Gerrard, Spearing, Henderson, Downing, Bellamy y Suarez. #FACup",Sat May 05 15:58:35 +0000 2012
"@throwback52 Get in, mate! Have a bag, a fag &amp; a pint at the pub for me. #LFC",Sat May 05 15:58:35 +0000 2012
RT @Richard_Buxton_: 'You'll Never Walk Alone' blasting out at Wembley now #LFC #CFC #FACupFinal http://t.co/CAdhROYd,Sat May 05 15:58:35 +0000 2012
"Liverpool to win the FA cup and suarez to get the winner, come on you reds! #LFC #neverwalkalone",Sat May 05 15:58:35 +0000 2012
Come on #LFC #FACUPFINAL.,Sat May 05 15:58:35 +0000 2012
@misslilygelder fock you @chelseafc over the #scousescum,Sat May 05 15:58:35 +0000 2012
I'm going for 2-1 #Chelsea #facup,Sat May 05 15:58:36 +0000 2012
"RT @rickedwards1: enjoyed that film about John Terry. The only way it could've been better is if the VO said ""And don't forget - he is a ...",Sat May 05 15:58:35 +0000 2012
RT @LFC: Going in. Good luck Reds. Bring it home! http://t.co/x7oD0Ptg,Sat May 05 15:58:36 +0000 2012
RT @ninanaka: RT @akadej: Come On Liverpool!!! ... Please RETWEET if you support LIVERPOOL!!! ... #LFC #FACupFinal,Sat May 05 15:58:36 +0000 2012
RT!!! @LFC: Liverpool supporters: best in the world http://t.co/Q6vCuiBu,Sat May 05 15:58:36 +0000 2012
My prediction is 1-0 to Liverpool. Gerrard with the goal in the 4th minute of extra time #DetailedPrediction #FACupFinal,Sat May 05 15:58:36 +0000 2012
RT @InfostradaLive: Chelsea are in the #FACup Final for the fourth out of the sixth possible time in the new Wembley. They won all previ ...,Sat May 05 15:58:36 +0000 2012
@alex_auron head to the showers aftr 10 mins n stay in der for next 2 hours #lfc,Sat May 05 15:58:36 +0000 2012
RT @empireofthekop: I am suppose to be silent ok I will be silent COME ON REDS #FACupFinal,Sat May 05 15:58:36 +0000 2012
"Wembley.. Adidas Match, Blues vs Kop.. #FACupFinal",Sat May 05 15:58:36 +0000 2012
"RT @FootballLaw: Best banner at Wembley so far: ""Martin Skrtel is so hard he asked for a Big Mac at Burger King and got one"". #FAcup",Sat May 05 15:58:36 +0000 2012
RT @IndoLiverpoolfc: #LFC XI FA Cup Final: Reina; Johnson Skrtel Agger Enrique; Spearing Henderson; Downing Gerrard Bellamy; Suarez. #YNWA,Sat May 05 15:58:37 +0000 2012
Come on Chelsea!!! #facupfinal #hatethemboth,Sat May 05 15:58:37 +0000 2012
Comon Liverpool u can win the day!! :D #FACup,Sat May 05 15:58:37 +0000 2012
#FACupFinal rooting for the underdogs,Sat May 05 15:58:37 +0000 2012
"I remember when the #FACupFinal used to be special, when it was the last game of the season and kicked off at 3pm!",Sat May 05 15:58:37 +0000 2012
I think chelsea might nick it on current form #facupfinal #formdoesntcount,Sat May 05 15:58:37 +0000 2012
"En unos momentos, desde #WembleyStadium #Londres, comenzara la Gran Final #FACupInglesa: @chelseafc vs @LFC http://t.co/KDl4LsQP",Sat May 05 15:58:37 +0000 2012
CMON #CFC #LiverpoolComeAtUsBro,Sat May 05 15:58:37 +0000 2012
Eeek it's about to start come on the boys in blue #CFCWembley #CFC #FACupFinal http://t.co/XrTnWiu6,Sat May 05 15:58:37 +0000 2012
You'll never walk alone. Never buy the Sun. Come on you mighty Reds #LFC #livingthedream,Sat May 05 15:58:37 +0000 2012
No interested the slightest bit in the #facup.  I love my football but its just been spoiled #corporategreed #premiershite @thefa,Sat May 05 15:58:37 +0000 2012
"RT @FootballLaw: Best banner at Wembley so far: ""Martin Skrtel is so hard he asked for a Big Mac at Burger King and got one"". #FAcup",Sat May 05 15:58:38 +0000 2012
#ITV #FACup coverage is very poor #keano legend yes - broadcaster no. then southgate + childs #dullduo,Sat May 05 15:58:38 +0000 2012
Come on #CFC warm up for the game against bayern!,Sat May 05 15:58:38 +0000 2012
Gametime! Let's go @chelseafc #FACupFinal #TrueBlue,Sat May 05 15:58:38 +0000 2012
"@Naziho_Torres9 -pls can to kindly shout me out to your many chelsea fans,i want my TL to turn blue,i need  hundreds of #CFC faithful fans.",Sat May 05 15:58:38 +0000 2012
RT @Richard_Buxton_: 'You'll Never Walk Alone' blasting out at Wembley now #LFC #CFC #FACupFinal http://t.co/CAdhROYd,Sat May 05 15:58:38 +0000 2012
RT @empireofthekop: I am suppose to be silent ok I will be silent COME ON REDS #FACupFinal,Sat May 05 15:58:38 +0000 2012
RT @Nok77: RT @LFC: Liverpool supporters: best in the world http://t.co/lDKdW6Z9,Sat May 05 15:58:38 +0000 2012
RT @WAATG: Is it possible for both Chelsea and Liverpool to lose? (Cos that's what I'd quite like to happen.) #facup,Sat May 05 15:58:38 +0000 2012
@OptaElliot #COYB #BlueIsTheColour #TheBitterTheBetter #CFC #CmonChelsea lmaooo look on me favourites found 2 before when I was on toilet,Sat May 05 15:58:38 +0000 2012
RT @Mick_Mann: Best fans in the world!!! #LFC http://t.co/FaKHUIBQ,Sat May 05 15:58:38 +0000 2012
Nonton #cfc mengalahkan liperpool (@ CLIO Cafe &amp; Resto w/ 16 others) http://t.co/XEC0MRCB,Sat May 05 15:58:38 +0000 2012
RT @FootieMad4evr: I want this to start now!! Couldn't sleep last night. Bring it on NOW!!! #LFC #YNWA #FACup,Sat May 05 15:58:39 +0000 2012
The sun is shining on @LFC fans http://t.co/OaRLcIK5,Sat May 05 15:58:39 +0000 2012
RT @LFC: Liverpool supporters: best in the world http://t.co/63Gbt9Rh,Sat May 05 15:58:39 +0000 2012
Come on @LFC let's win the fa cup and complete a domestic double! #YNWA,Sat May 05 15:58:39 +0000 2012
#lfc #facup #lfc #facup #lfc #facup #lfc #facup #lfc #facup #lfc #facup,Sat May 05 15:58:39 +0000 2012
Come on #lfc stick it up Chelsea today. Just desserts needed after a few fans marred the minute's silence in the semi against Spurs,Sat May 05 15:58:40 +0000 2012
"A por la FA, vamos @LFC !! http://t.co/66vfW9xi",Sat May 05 15:58:40 +0000 2012
With all this rain my lawn is so pristine I could host the #FACUpFinal #Chelsea #Liverpool,Sat May 05 15:58:40 +0000 2012
"RT @empireofthekop: RT @jacksconlon: ""MARTIN SKRTEL IS SO HARD HE ASKED FOR A BIG MAC IN BURGER KING AN GOT ONE"" top #LFC banner at wembley",Sat May 05 15:58:39 +0000 2012
C'mon you mighty reds and baby Hutton  please hang in there till after the match! #LFC #FACUP #5daysoverdue,Sat May 05 15:58:40 +0000 2012
"One result down, another to go! @crawleytown @chelseafc",Sat May 05 15:58:40 +0000 2012
"RT @iamslickp: ""@Ifeagbeja: RT if u know #TeamChelsea is goin 2 win d FA. #TeamChelsea #FACup""",Sat May 05 15:58:40 +0000 2012
Carn Chelsea #FACupFinal #Chelsea,Sat May 05 15:58:40 +0000 2012
g ada yg ngaruh RT @ejaaa: Red day! RT @tikatikiw: it's gonna be a blue day! (wish) #FACupFinal,Sat May 05 15:58:40 +0000 2012
RT @omgitsmanny: Omg the liverpool supporters at wembley are amazing! Cant hear anything from chelsea #LFC,Sat May 05 15:58:40 +0000 2012
RT @FIFAcom: What do you think the score will be today between @Chelseafc and @lfc in the FA Cup Final and who will get the goals? #CFC  ...,Sat May 05 15:58:40 +0000 2012
"Work done, now time to watch the #FACUPFINAL Chelsea Vs Liverpool!",Sat May 05 15:58:40 +0000 2012
"Don't worry everyone, think I'm thru the worst of the #manflu, now watching #facupfinal supporting the team in black, especially Stuart Burt",Sat May 05 15:58:40 +0000 2012
COME ON REDMEN #YNWA #notbuyinghistory #LFC #chelsearentboys,Sat May 05 15:58:41 +0000 2012
Letz go @chelseafc we r takn diz cup...,Sat May 05 15:58:41 +0000 2012
#LFC #YNWA #ComeOnReds #CupFinalSpecial,Sat May 05 15:58:41 +0000 2012
RT @Richard_Buxton_: 'You'll Never Walk Alone' blasting out at Wembley now #LFC #CFC #FACupFinal http://t.co/CAdhROYd,Sat May 05 15:58:41 +0000 2012
Almost kick of time! Butterflies in my stomach! whatever happens #YNWA #LFC,Sat May 05 15:58:41 +0000 2012
Malam ini dukung Chelsea aja ahh.. Gimana dengan @vanymaryani5 @yustinusjonicnb @Wilikiliw ?? #FACup,Sat May 05 15:58:41 +0000 2012
Nervous as fuck.. #facupfinal #YNWA,Sat May 05 15:58:41 +0000 2012
#LFC You'll Never Walk Alone #YNWA,Sat May 05 15:58:41 +0000 2012
@Miikehh doen we vnv wa met wa mensen? #lfc #ynwa,Sat May 05 15:58:42 +0000 2012
"Come on you RED! RT @gordsreid: 753 teams down to 2, #FACup amazing Come on #Liverpool #ftw",Sat May 05 15:58:42 +0000 2012
Di Matteo first goal scorer. 43 seconds.  #CFC,Sat May 05 15:58:42 +0000 2012
RT @ChelseaChadder: Ashley Cole is making his 250th start as a #Chelsea player. #CFC,Sat May 05 15:58:42 +0000 2012
"RT @FootballLaw: Best banner at Wembley so far: ""Martin Skrtel is so hard he asked for a Big Mac at Burger King and got one"". #FAcup",Sat May 05 15:58:42 +0000 2012
5 deep at the bar... Great Atmospehere #LFC #FACupFinal,Sat May 05 15:58:42 +0000 2012
RT @domb_LFC: Wonderfully obscure RT @sachinnakrani: Apparently if #lfc win today they will become first club to win fa cup in 6 consecu ...,Sat May 05 15:58:42 +0000 2012
"RT @DTguardian: Torres doesn't start #CFC: Cech, Bosingwa, Ivanovic, Terry, Cole, Lampard, Mikel, Ramires, Mata, ... http://t.co/gbVjR2Se",Sat May 05 15:58:42 +0000 2012
RT @LiverpooIFCNews: RT @LFC: Liverpool supporters: best in the world http://t.co/cUsJK9GO,Sat May 05 15:58:42 +0000 2012
"RT @Mzzm_x: @NadMjd07 WILD GUESS :p yeah, AC's on.. Chillin and watchin #IPL till the #FACUP finals :)",Sat May 05 15:58:42 +0000 2012
"#footytips Lampard 9-1, Terry 25-1 or Ivanovic 33-1 to score first #FACupFinal #cfc #rememberryan",Sat May 05 15:58:42 +0000 2012
All the Aussie #LFC fans watching on @sbs - how good is Craig Johnstons interview - motivational #YNWA,Sat May 05 15:58:43 +0000 2012
"RT @MirrorFootball: RT @paulharlock: RT @jacksconlon: ""MARTIN SKRTEL IS SO HARD HE ASKED FOR A BIG MAC IN BURGER KING AN GOT ONE"" top #L ...",Sat May 05 15:58:43 +0000 2012
You'll Never Walk Alone belting out from #TheKop #Amazing #LFC #FaCupFinal #Anfield http://t.co/X0YzYFCU,Sat May 05 15:58:43 +0000 2012
"""@EllisLucyWhite: come on Liverpool today, big games boys!! #LFC #YNWA"" #LeaveeeeeeeItttttt",Sat May 05 15:58:43 +0000 2012
RT @soccerdotcom: Retweet if you think Chelsea will win the 2012 #FACup! #CFC,Sat May 05 15:58:43 +0000 2012
RT @mr_showkz99: Chelele chelele!!!!! *takes Chelsea football jersey and puts it on and says a little prayer* come on chelsea #FACupFinal,Sat May 05 15:58:43 +0000 2012
So nervous. I feel sick. #FACupFinal,Sat May 05 15:58:43 +0000 2012
"come 
on
you 
reds !!!!!!!!! 
#lfc
#facupfinal",Sat May 05 15:58:43 +0000 2012
"RT @MirrorFootball: RT @paulharlock: RT @jacksconlon: ""MARTIN SKRTEL IS SO HARD HE ASKED FOR A BIG MAC IN BURGER KING AN GOT ONE"" top #L ...",Sat May 05 15:58:43 +0000 2012
"RT @MirrorFootball: RT @paulharlock: RT @jacksconlon: ""MARTIN SKRTEL IS SO HARD HE ASKED FOR A BIG MAC IN BURGER KING AN GOT ONE"" top #L ...",Sat May 05 15:58:43 +0000 2012
So many #lfc fans in magnificent wembley.fuck them all!,Sat May 05 15:58:44 +0000 2012
RT @ToksDuttie: RT @chelseafc: The teams have just come out to warm-up #CFCWembley #FACUpFinal (SL),Sat May 05 15:58:44 +0000 2012
"""#lfc XI v #cfc: Reina, Johnson, Skrtel, Agger, Jose Enrique, 
Spearing, Henderson, Downing, Gerrard, Bellamy, Suarez. Carroll on bench.""",Sat May 05 15:58:44 +0000 2012
YSB YSB YSB YSB YSB YSB #LFC #YSB #RACISTBASTARDS,Sat May 05 15:58:44 +0000 2012
Pride of London..#CFC,Sat May 05 15:58:44 +0000 2012
Nervous with a capital N #YNWA #LFC,Sat May 05 15:58:44 +0000 2012
Hope both teams get pumped in the #FACupFinal,Sat May 05 15:58:44 +0000 2012
RT @InfostradaLive: Chelsea are in the #FACup Final for the fourth out of the sixth possible time in the new Wembley. They won all previ ...,Sat May 05 15:58:44 +0000 2012
YOU'LL NEVER WALK ALONE!!! #LFC #BEATTHESHITOUTOFCHELSHIT #PISTOLERO,Sat May 05 15:58:44 +0000 2012
@CiaranONeill11 football is rarely the winner in the #FACupFinal,Sat May 05 15:58:44 +0000 2012
YNWA RT @LFC: Liverpool supporters: best in the world http://t.co/KDQobutN,Sat May 05 15:58:44 +0000 2012
RT @chelseafc: You can follow all the action by clicking on the live coverage tab right here http://t.co/UyqvckuQ #CFCWembley #FACupFina ...,Sat May 05 15:58:45 +0000 2012
WEMBLEY!!!!!!! w/ @doolandaniel #FACupFinal http://t.co/RjR4Q3fx,Sat May 05 15:58:45 +0000 2012
RT @TVNewsroom: Ladbrokes are offering 33/1 for ITV transmission to cut out or cut to another studio during the match http://t.co/1NHYZy ...,Sat May 05 15:58:45 +0000 2012
RT @soccerdotcom: Retweet if you think Liverpool will win the 2012 #FACup! #LFC,Sat May 05 15:58:45 +0000 2012
Liverpool F.C. - Chelsea F.C. Wembley. Soon. We are ready!!! #YNWA #LFC #FACupFinal http://t.co/5ho2YZRP,Sat May 05 15:58:45 +0000 2012
Two / three league games to go for most clubs and a 5.15pm kick off on ITV. You've gotta love the tradition of the #facupfinal,Sat May 05 15:58:45 +0000 2012
ITV are so anti Chelsea! Come on you blues #ktbffh #CFC #FACupFinal,Sat May 05 15:58:45 +0000 2012
RT @cliveoconnell: We are sitting next to two South African tourists with half and half shirts on. My nightmare has crept into my waking ...,Sat May 05 15:58:45 +0000 2012
RT @Carolita_Marin: A las 12:15 por ESPN la Final de la #FACup Liverpool vs Chelsea,Sat May 05 15:58:45 +0000 2012
Come on Reds...you can beat the Blues tonight!! #FACup syndrome,Sat May 05 15:58:46 +0000 2012
It's time. Lets get it @LFC #YNWA #FACup,Sat May 05 15:58:46 +0000 2012
@Livii_Lundy Ah now..who doesnt have ITV!! At least you'll get 2nd half !! :) #YNWA #LFC,Sat May 05 15:58:46 +0000 2012
The FA cup is about to start! Lets go Chelsea!! #CFC #FACupFinal,Sat May 05 15:58:46 +0000 2012
"RT @TEAMtalk: #lfc XI v #cfc: Reina, Johnson, Skrtel, Agger, Jose Enrique, 
Spearing, Henderson, Downing, Gerrard, Bellamy, Suarez. Carr ...",Sat May 05 15:58:46 +0000 2012
"Would love to be in wembley watching the game, atmosphere looks immense! #FACupfinal",Sat May 05 15:58:46 +0000 2012
@keagsface Enjoy the game buddy! #FACupFinal,Sat May 05 15:58:46 +0000 2012
"Come on liverpool, lets have a win :) #LFC",Sat May 05 15:58:46 +0000 2012
"RT @55wooow: Liverpool XI v Chelsea: Reina, Johnson, Skrtel, Agger, Enrique, Spearing, Henderson, Downing, Gerrard, Bellamy, Suarez #lfc ...",Sat May 05 15:58:46 +0000 2012
"RT @FootballLaw: Best banner at Wembley so far: ""Martin Skrtel is so hard he asked for a Big Mac at Burger King and got one"". #FAcup",Sat May 05 15:58:46 +0000 2012
RT @primayudantra: The Reds or The Blues who will be the champion? #FAcup,Sat May 05 15:58:46 +0000 2012
En quince minutos se miden Chelsea y Liverpool en el estadio londinense de #Wembley en la 131 final de la Copa de Inglaterra (#FA Cup),Sat May 05 15:58:47 +0000 2012
Let's do dis boys!!! @chelseafc,Sat May 05 15:58:47 +0000 2012
At last we're finally ready to go come on the redmen #lfc #YNWA,Sat May 05 15:58:47 +0000 2012
Klar for kamp #LFC #FACUP,Sat May 05 15:58:47 +0000 2012
"RT @Bolanet: #FACupFinal LIVERPOOL: Reina, Johnson, Agger, Skrtel, Enrique, Gerrard, Spearing, Henderson, Downing, Bellamy, Suarez",Sat May 05 15:58:47 +0000 2012
"RT @FootballLaw: Best banner at Wembley so far: ""Martin Skrtel is so hard he asked for a Big Mac at Burger King and got one"". #FAcup",Sat May 05 15:58:47 +0000 2012
RT @LivEchoLFC: Great banner - Skrtel probably flame grills himself to warm up before games http://t.co/OfD729N0 #lfc #facup,Sat May 05 15:58:47 +0000 2012
RT @LFC: Liverpool supporters: best in the world http://t.co/1c12zcKp,Sat May 05 15:58:47 +0000 2012
@iamkylia @Nicky_G_Reg @mistystiletto @Tezary Thanks chick! Nerves have kicked in.  Eeek! #FAcupFinal,Sat May 05 15:58:47 +0000 2012
15 minutes to go. Not sure how the game will turn out. Both teams have good sides out today. #nervous #LFC,Sat May 05 15:58:48 +0000 2012
RT @chelseafc: You can follow all the action by clicking on the live coverage tab right here http://t.co/UyqvckuQ #CFCWembley #FACupFina ...,Sat May 05 15:58:48 +0000 2012
RT @Goal_India: STAT: #Chelsea have seen under 2.5 goals in 5 of their last 6 matches against #Liverpool in all competitions. #Wembley,Sat May 05 15:58:47 +0000 2012
Liverpool supporters: best in the world http://t.co/4venN8sk -- Liverpool FC  (@LFC),Sat May 05 15:58:48 +0000 2012
Why are the seats painted red that's not fair!!! @Shou_MIK #cfc,Sat May 05 15:58:48 +0000 2012
watching #Chelsea - #Liverpool #FACupFinal come on chelsea 2-0 to the blue torres and drogba to score,Sat May 05 15:58:48 +0000 2012
Can't wait for all the directioners trends to be vaporised by the FA cup final discussion. #LFC #CFC,Sat May 05 15:58:48 +0000 2012
#cfc,Sat May 05 15:58:48 +0000 2012
"#Facup All I see is empty seats, Chelsea win 2 - 1, I used to like Liverpool as my second prem team, now no more.",Sat May 05 15:58:48 +0000 2012
PRE MATCH SYNDROME @LFC !! #YNWA,Sat May 05 15:58:48 +0000 2012
Yes we are! RT @LFC Liverpool supporters: best in the world http://t.co/Wz3j1zjQ #ComeOnLiverpool #YWNWA,Sat May 05 15:58:48 +0000 2012
"RT @mohamadhafifiFR: It's now or never!! Come on guys,let's go!! #KTBFFH #CFC",Sat May 05 15:58:48 +0000 2012
Ali Carter through to the final. Fair play to him! #FACupFinal time! I see a Chelsea winning it #GameOn,Sat May 05 15:58:49 +0000 2012
15 minutes to FA Cup kick-off. One half of the Platinum Pebble in Red and one half in Blue. Things could get interesting... #LFC #YNWA,Sat May 05 15:58:48 +0000 2012
RT @Richard_Buxton_: 'You'll Never Walk Alone' blasting out at Wembley now #LFC #CFC #FACupFinal http://t.co/CAdhROYd,Sat May 05 15:58:49 +0000 2012
"@LFC: #LFC subs: Carroll, Maxi, Kuyt, Carragher, Doni, Shelvey, Kelly...!! -YNWA-",Sat May 05 15:58:49 +0000 2012
#LFC #YNWA,Sat May 05 15:58:49 +0000 2012
Liverpool vs Chelsea #facup,Sat May 05 15:58:49 +0000 2012
Come On Chelsea! We're gonna make this a blue day! #CFC @patalinac,Sat May 05 15:58:49 +0000 2012
Waiting for Liverpool to kick off and lift their 2nd trophy at #wembley this year #LFC #FACUP,Sat May 05 15:58:49 +0000 2012
Come on you reds!!! #LFC #YNWA #FACup,Sat May 05 15:58:50 +0000 2012
@mamatha_m All set to watch? Is the popcorn ready? :) #FACup,Sat May 05 15:58:49 +0000 2012
"Come on you reds, we can do this today, biggest game in years #lfc",Sat May 05 15:58:50 +0000 2012
"Interesting day of football, shame it didn't go our way. Looking forward to #FACup final now, lets regroup for next season #OUFC",Sat May 05 15:58:50 +0000 2012
RT @LFC: Liverpool supporters: best in the world http://t.co/VIMjVh6k,Sat May 05 15:58:50 +0000 2012
RT @soccerdotcom: Retweet if you think Chelsea will win the 2012 #FACup! #CFC,Sat May 05 15:58:50 +0000 2012
Gone for Chelsea to win 3-1 at 22/1 #facupfinal,Sat May 05 15:58:50 +0000 2012
Just looking at Wembley you can see #LFC want this more! #YNWA,Sat May 05 15:58:50 +0000 2012
"If Chelsea win, it will be a wonderful achievement for Di Matteo, and surely will mean he is offered the job on a permanent basis? #facup",Sat May 05 15:58:50 +0000 2012
#FACup !!! #Chelsea win,Sat May 05 15:58:50 +0000 2012
RT @LFC: Liverpool supporters: best in the world http://t.co/csccHu7B,Sat May 05 15:58:51 +0000 2012
"Walk on,with hope,In your heart...and YOU'LL NEVER WALK ALONE..... #YNWA #LFC",Sat May 05 15:58:51 +0000 2012
RT @LFC: Liverpool supporters: best in the world http://t.co/RkyoHKIS,Sat May 05 15:58:51 +0000 2012
Let's do it Chelsea ! Let's show the scousers what the power of the blues is and let's get the FA cup once again #CFC #FACupFinals,Sat May 05 15:58:51 +0000 2012
"ya queda poco para que de comienzo la final de la FA CUP , a ver si conseguimos el primer titulo de la temporada #CFC",Sat May 05 15:58:51 +0000 2012
"RT @Timothyoc: Well said ray houghton re Dalglish, ""great men always put their legacy on the line"" #LFC #FACUPFINAL",Sat May 05 15:58:51 +0000 2012
#KellyDalglish caught singing at #FACupFinal - we'll forgive for being a hotty though! #ooft,Sat May 05 15:58:51 +0000 2012
What a picture. RT @Linda_Pizzuti: The sun is shining on @LFC fans http://t.co/Fyu2hvlU,Sat May 05 15:58:51 +0000 2012
I think Spearing and Henderson will be just too much for Chelsea today.... LOL. Come on #CFC !!,Sat May 05 15:58:52 +0000 2012
RT @chelseafc: A picture of the team warming up... We'll kick-off in just under half an hour...#CFCWembley #FACupFinal (SL) http://t.co/ ...,Sat May 05 15:58:51 +0000 2012
"RT @FIFAcom: In our earlier poll, 50.8% of those who RTd wanted @Chelseafc to win while 49.2% are rooting for @LFC. So close! #CFC #LFC  ...",Sat May 05 15:58:51 +0000 2012
Kick off time approaching - bricking it! #lfc,Sat May 05 15:58:52 +0000 2012
Smack arse in the snow!!!! #YNWA #LFC,Sat May 05 15:58:52 +0000 2012
"Tension rising, blood boiling..... #FACup",Sat May 05 15:58:52 +0000 2012
Want this so much.. COME ON CHELSEA #CFC #FACUP,Sat May 05 15:58:52 +0000 2012
"In 13 matches, we never lose to Chelsea. 10 wins, 3 draws. #YNWA #FACupFinal",Sat May 05 15:58:52 +0000 2012
"RT @ChelseaIndo: Chelsea XI:  Cech, Bosingwa, Ivanovic, Terry, Cole, Lampard, Mikel, Ramires, Mata, Kalou, Drogba. #cfc",Sat May 05 15:58:53 +0000 2012
Come on the chels! #CFC,Sat May 05 15:58:53 +0000 2012
Go liverpool RT @_Nkateko: Go #cfc I love u boys!!!!!!!,Sat May 05 15:58:53 +0000 2012
@LFC today Bellamy has to repay the coach's faith in him. #KuytLooming,Sat May 05 15:58:53 +0000 2012
RT @chelseafc: Here's a picture of fans arriving to watch the #FACupFinal at Stamford Bridge... (SL) http://t.co/ms0d7uez,Sat May 05 15:58:53 +0000 2012
Well done travelling Kop #LFC,Sat May 05 15:58:53 +0000 2012
RT @LivEchonews: On Wembley Way  http://t.co/j9ei7YMl More images and uploads on our live blog http://t.co/tag5XeLI  #lfc,Sat May 05 15:58:53 +0000 2012
RT @chelseafc: You can follow all the action by clicking on the live coverage tab right here http://t.co/UyqvckuQ #CFCWembley #FACupFina ...,Sat May 05 15:58:53 +0000 2012
#LFC #LFC #LFC,Sat May 05 15:58:53 +0000 2012
No mention from anyone that @LFC have beaten Chelsea something like 5 times in a row. I didn't look the # up. #FACUPonFOX @FOXSoccer,Sat May 05 15:58:53 +0000 2012
"After this #CFC #LFC match no matter who wins, i go get pple laugh moro #Fact",Sat May 05 15:58:54 +0000 2012
"RT @rickedwards1: enjoyed that film about John Terry. The only way it could've been better is if the VO said ""And don't forget - he is a ...",Sat May 05 15:58:54 +0000 2012
come on #Chelsea #facupfinal,Sat May 05 15:58:54 +0000 2012
"RT @MirrorFootball: RT @paulharlock: RT @jacksconlon: ""MARTIN SKRTEL IS SO HARD HE ASKED FOR A BIG MAC IN BURGER KING AN GOT ONE"" top #L ...",Sat May 05 15:58:54 +0000 2012
Something magical about #facup final day....,Sat May 05 15:58:54 +0000 2012
RT @LFC: Liverpool supporters: best in the world http://t.co/d8z4OTyM,Sat May 05 15:58:54 +0000 2012
Come on you REDMEN @LFC,Sat May 05 15:58:54 +0000 2012
@StokeLoudProud I'm supporting the club with the racist captain #cfc over the racist club with victim mentality fans #LFC,Sat May 05 15:58:54 +0000 2012
RT @chelseafc: A quick peep around the #CFCWembley dressing room before the #FACupFinal... (SL) http://t.co/TdKThVv0,Sat May 05 15:58:54 +0000 2012
RT @DanDewi_LFC: Anyone waving a plastic flag is a bad wool and should probably have given up their ticket. #FAcup #LFC,Sat May 05 15:58:54 +0000 2012
"RT @srivarthan: Heard that, Kenny hasn't lost to Chelsea as a player and also a manager ! #LFC #CFC",Sat May 05 15:58:54 +0000 2012
"#cfc to win 3-0 and to send the scousers, racist and deluded manger back to their council estates! #lfc",Sat May 05 15:58:54 +0000 2012
I'd love to see Torres lifting a trophy  but going for Liverpool today! #KingKenny #FAcupfinal,Sat May 05 15:58:54 +0000 2012
RT @fieldproducer: Don't want to miss anything... RT @RobHarris FA opting to use ESPN feed rather than ITV around Wembley. #FACupFinal,Sat May 05 15:58:54 +0000 2012
FA cup final time! C'mon Liverpool! #lfc #facupfinal,Sat May 05 15:58:55 +0000 2012
@chelseafc go chelsea goOO!,Sat May 05 15:58:55 +0000 2012
A ver la final de la FA Cup entre @chelseafc y @LFC #England I love futbol!!!.,Sat May 05 15:58:55 +0000 2012
Who else is watching the big game? #facup #lfc #cfc #liverpool #chelsea #ynwa,Sat May 05 15:58:55 +0000 2012
"RT @JamesPearceEcho: Great scenes as You'll Never Walk Alone echoes around Wembley. #LFC got 25,000 tickets but thousands more Kopites here",Sat May 05 15:58:55 +0000 2012
@ChelseaFansCol Yo estoy listo aqui en Tumaco listo para ver al Chelsea Campeon de la #CFCWembley.,Sat May 05 15:58:55 +0000 2012
Liverpool bk at Der hme pitch #wintheFAcup #wembley,Sat May 05 15:58:55 +0000 2012
@LFC. Make Us Proud ! #teamYNWA,Sat May 05 15:58:55 +0000 2012
"Deep breath, bracing myself, please please please do not go to penalties #lfc",Sat May 05 15:58:55 +0000 2012
No Torres --- it won't matter ITV #FACup,Sat May 05 15:58:56 +0000 2012
"I'm going one-nil Chelsea with a bullet header in the last minute from Roy Hodgson, on the end of a Patrice Evra cross #cfc #lfc #facup",Sat May 05 15:58:56 +0000 2012
COME ON THE RED MEN. #YNWA #LFC,Sat May 05 15:58:57 +0000 2012
"RT @ESPNdeportesMX: #FACup #Chelsea Cech, Cole, Terry, Bosignwa, Ivanovic, Lampard, Mikel Obi, Ramires, Drogba, Kalou y Mata http://t.co ...",Sat May 05 15:58:57 +0000 2012
Gonna watch the #FACupFinal on ITV1 HD :D C'mon Chelsea!! #CFC,Sat May 05 15:58:57 +0000 2012
@LFC c'mon liverpool :) get some goals past chelsea and get the cup in the trophy cabinet :D,Sat May 05 15:58:57 +0000 2012
You'll never walk alone sounding fantastic in the Wembly sunshine how good it feels seein Liverpool at Wembly our 2nd home#LFC @LiverpoolFC,Sat May 05 15:58:57 +0000 2012
"RT @JakeNewell_LFC: Every LFC fan needs to see this, its so true. #LFC #MUFC #FA http://t.co/iz77BCCv",Sat May 05 15:58:57 +0000 2012
Now bring on the #FACupFinal.,Sat May 05 15:58:57 +0000 2012
#FACupFinal #CountDownToKickOff 18 minutes to go http://t.co/KY30hK1u,Sat May 05 15:58:57 +0000 2012
RT @Yakubu_24: Luis Suarez vs Didier Drogba. 2 Girls 1Cup. John Terry's wet dream. #FACup,Sat May 05 15:58:57 +0000 2012
Liverpool fans put Chelsea fans to shame. Such different contrasts between opposite sides of Wembley. #YNWA #LFC #FACup #FACupFinal,Sat May 05 15:58:57 +0000 2012
"Love the FA Cup final, have since Trevor brooking popped up with the winner, hope Chelsea and Liverpool put on a cracker. #lfc #cfc",Sat May 05 15:58:58 +0000 2012
@GR33NIE beer in the first and second half? why not its the #FACupFinal,Sat May 05 15:58:58 +0000 2012
Settling in for the #FACupFinal. Come on Liverpool! #YNWA,Sat May 05 15:58:58 +0000 2012
RT @LFC: Liverpool supporters: best in the world http://t.co/qizW9Uhd,Sat May 05 15:58:58 +0000 2012
RT @Linda_Pizzuti: The sun is shining on @LFC fans http://t.co/OaRLcIK5,Sat May 05 15:58:58 +0000 2012
Oh how times have changed.........Just sitting down for the #FACupFinal with a cup of tea!,Sat May 05 15:58:58 +0000 2012
Come on Liverpool! #FACup #LFC,Sat May 05 15:58:58 +0000 2012
RT @chelseafc: A picture of the team warming up... We'll kick-off in just under half an hour...#CFCWembley #FACupFinal (SL) http://t.co/ ...,Sat May 05 15:58:58 +0000 2012
RT @tessderry1: Putting flags all round the house! Haaa #CFCWembley @chelseafc http://t.co/y25p5udL,Sat May 05 15:58:58 +0000 2012
Chelsea vs Liverpool - FA Cup Final Promo: http://t.co/eTpDo5YB via #FACupFinal,Sat May 05 15:58:58 +0000 2012
"RT @empireofthekop: RT @jacksconlon: ""MARTIN SKRTEL IS SO HARD HE ASKED FOR A BIG MAC IN BURGER KING AN GOT ONE"" top #LFC banner at wembley",Sat May 05 15:58:58 +0000 2012
"New Wembley, same old story: Kenny's Reds march to glory! #lfc #ynwa #jft96",Sat May 05 15:58:58 +0000 2012
@LfcAnfieldNews #LFC win it 2-1 #YNWA,Sat May 05 15:58:58 +0000 2012
RT @Football_Tweet_: Liverpool fans with the #banter banner... #LFC #FACup http://t.co/ltJeEiII,Sat May 05 15:58:58 +0000 2012
@sportmaniaMNCTV Chelsea 3-2 Liverpool #FACupFinal,Sat May 05 15:58:59 +0000 2012
@MarcRyanJordan come on you blues!! #FACupFinal,Sat May 05 15:58:59 +0000 2012
RT @Lil_Luka_Modric: Settling down to watch the racist cup final. Should've brought back Uriah Rennie to ref this one. #facup #lfc #cfc,Sat May 05 15:58:59 +0000 2012
RT @Linda_Pizzuti: The sun is shining on @LFC fans http://t.co/OaRLcIK5,Sat May 05 15:58:59 +0000 2012
#COYR #FACupFinal,Sat May 05 15:58:59 +0000 2012
Come on you Reds!!!  #lfc,Sat May 05 15:58:59 +0000 2012
"Very lazy Saturday had #FAcup will hopefully wake me up. Let the game commence, the sooner #AdrianChiles is off our screens the better!",Sat May 05 15:58:59 +0000 2012
Come on @Chelseafc. My blood runs blue,Sat May 05 15:58:59 +0000 2012
"RT @dailypostngr: #Chelsea: Cech; Bosingwa, Ivanovic, Terry, Cole; Mikel, Lampard; Ramires, Mata, Kalou; Drogba. #FACup",Sat May 05 15:58:59 +0000 2012
RT @hippychickpea: JAMES BULGER WUD HAVE BEEN THERE TODAY WATCHIN #LIVERPOOL PLS FOLLOW HIS CHARITY @jbmt1 RT WHEN U TWEET 4 LIVERPOOL # ...,Sat May 05 15:58:59 +0000 2012
"RT @FootballLaw: Best banner at Wembley so far: ""Martin Skrtel is so hard he asked for a Big Mac at Burger King and got one"". #FAcup",Sat May 05 15:58:59 +0000 2012
#YNWA gets me every time #LFC #Emotional,Sat May 05 15:58:59 +0000 2012
http://t.co/60ilmnXs here is the live stream link enjoy geezers @ushaneupane #CFC,Sat May 05 15:58:59 +0000 2012
"RT @eredivisielive: Opstelling #Chelsea: Cech; Bosingwa, Ivanovic, Terry, Cole; Ramires, Mikel, Mata, Lampard; Drogba, Kalou #FAcupfinal",Sat May 05 15:58:59 +0000 2012
"RT @leesiemaszko: RT this pic plse reds fans, #FACupFinal #ChelseaScum #Disrespect #JFT96 #LFC #YNWA http://t.co/xQFWh8Kk",Sat May 05 15:58:59 +0000 2012
@Jea_Heisye @sgavb @TeeFaAmin @ayesha_mogalia @1978_Samurai YEAAAAA GOOOO #REDS GOOOO #LFC,Sat May 05 15:58:59 +0000 2012
"RT @JamesPearceEcho: Great scenes as You'll Never Walk Alone echoes around Wembley. #LFC got 25,000 tickets but thousands more Kopites here",Sat May 05 15:58:59 +0000 2012
