first_name,last_name
Me nervous well oiled #lfc,Sat May 05 16:05:00 +0000 2012
Were now gettin ready for the national anthem #chelseavliverpool #facup. Fabrice muamba is in the building,Sat May 05 16:05:00 +0000 2012
Fabrice Muamba in the crowd getting a big round of applause from both sets of supporters. #cfc #lfc,Sat May 05 16:05:00 +0000 2012
Adrian chiles is a fuckin wanker #FACT #LFCWEMBLEY,Sat May 05 16:05:00 +0000 2012
"Come on Liverpool! I don't like you, but you've got passion. Chelsea have plastic flags, plastic fans, and are generally a shit club! #FACup",Sat May 05 16:05:00 +0000 2012
"RT @empireofthekop: RT @jacksconlon: ""MARTIN SKRTEL IS SO HARD HE ASKED FOR A BIG MAC IN BURGER KING AN GOT ONE"" top #LFC banner at wembley",Sat May 05 16:05:00 +0000 2012
RT @chelseafc: Petr Cech has just come onto the pitch for a  warm-up #CFCWembley #FACupFinal (SL),Sat May 05 16:05:00 +0000 2012
RT @Linda_Pizzuti: The sun is shining on @LFC fans http://t.co/OaRLcIK5,Sat May 05 16:05:00 +0000 2012
You'll neeeeeeeeever walk alone!!! #Liverpool  @LFC @estoesanfield #FAcup,Sat May 05 16:05:00 +0000 2012
Yg Biruuu deh pokoknya..hehee. @anandafida: @KikiBecks dukung Chelsea nii ceritanya bang :D #FACupFinal,Sat May 05 16:05:00 +0000 2012
Pride of London #chelseafc #cfc Wembley http://t.co/gktOx8pZ,Sat May 05 16:05:00 +0000 2012
#WEMBLEY BABY!!!!,Sat May 05 16:05:01 +0000 2012
"Come on @chelseafc just do it boys, win the cup. #CFCWembley #FACupFinal #fb",Sat May 05 16:05:01 +0000 2012
@neiljonesecho @jamespearceecho I bet you two are sat in the press box together and tweeting each other. Come on you red men. #Lfc,Sat May 05 16:05:01 +0000 2012
"RT @Liverpool_PLS: #YNWA #YNWA #YNWA #YNWA 
#LFC #LFC #LFC #LFC #LFC #LFC 
Liverpool Forever Come On reds !",Sat May 05 16:05:01 +0000 2012
"Cmon Reds!!! 
Fuck off Chelsea FC 
You ain't got no history 
5 European Cups and 18 leagues
Thats what we call history
#LFC",Sat May 05 16:05:01 +0000 2012
RT @oliverproudlock: Not to sure about these dance routines. #facup,Sat May 05 16:05:01 +0000 2012
"Huge game boys, come on you reds! #LFC #YNWA",Sat May 05 16:05:01 +0000 2012
What a game this should be #FACupFinal,Sat May 05 16:05:01 +0000 2012
"Come in Liverpool bring the cup home,do the Cup Double #FACupFinal #YNWA",Sat May 05 16:05:01 +0000 2012
COME ON RED MEN!!! #LFC #YNWA,Sat May 05 16:05:01 +0000 2012
stupid kick off time   #facup,Sat May 05 16:05:01 +0000 2012
"RT @LFC: RT @TitiCamara22: I hope LFC win the final, you fans are the greatest you deserve this #YNWA",Sat May 05 16:05:01 +0000 2012
Come on!!!!!! #YNWA#LFC,Sat May 05 16:05:01 +0000 2012
Come On Chelsea #facupfinal,Sat May 05 16:05:01 +0000 2012
chelsea vs liverpool....come on @chelseafc,Sat May 05 16:05:01 +0000 2012
"RT @FIFAcom: In our earlier poll, 50.8% of those who RTd wanted @Chelseafc to win while 49.2% are rooting for @LFC. So close! #CFC #LFC  ...",Sat May 05 16:05:01 +0000 2012
GAME ON!!! #LFC #Shhh,Sat May 05 16:05:02 +0000 2012
will wembley run red or blue ? #lfc vs #cfc,Sat May 05 16:05:02 +0000 2012
Come on Liverpool!!!!!!!!!!! @Lfc #YNWA,Sat May 05 16:05:01 +0000 2012
"Fa Cup Final Prediction - #CFC 2-1 #LFC.    Drogba, Lampard | Suarez",Sat May 05 16:05:02 +0000 2012
#CFC should have this all day long. Henderson &amp; Spearing far from good enough vs the likes of Lampard &amp; Ramires. #FACupFinal #bbcfootball,Sat May 05 16:05:02 +0000 2012
Ragazzi link per vedere la #finale di #FAcup???,Sat May 05 16:05:02 +0000 2012
"I wonder if @KingJames will be watching his Liverpool club take on Chelsea today!?
#FACupFinal",Sat May 05 16:05:02 +0000 2012
"RT @jojosuherman: RT @BeritaLFC: Walk on , walk on with hope in your heart &amp; YOU'LL NEVER WALK ALONE ! #LFC #Wem8ley #8elieve.",Sat May 05 16:05:02 +0000 2012
Y esta belleza quien es? #FACup,Sat May 05 16:05:02 +0000 2012
Que hermosura de Mosaico CHELSEA FC #CFCwembley,Sat May 05 16:05:02 +0000 2012
"RT @GOAL_ID: Liverpool Starting XI: Reina; Johnson, Skrtel, Agger, Jose Enrique; Spearing, Henderson; Downing, Gerrard, Bellamy; Suarez. ...",Sat May 05 16:05:02 +0000 2012
Come On CHEEELSEEEEEEAAAAAAAAAAAA #CFC #FACupFinal,Sat May 05 16:05:02 +0000 2012
#GoReds #LFC #YNWA liverpool have to win this one,Sat May 05 16:05:02 +0000 2012
Come on the Redmen! #lfc #facupfinal,Sat May 05 16:05:03 +0000 2012
"Chelsea must win this final. Losing will be a huge blow to the team's confidence, especially since a UCL final is coming up. #CFC",Sat May 05 16:05:03 +0000 2012
FA CUP just about to kick off....Red/Blue? #FAcup #grassmarket,Sat May 05 16:05:03 +0000 2012
Chelsea vs Liverpool #FAcupFinal,Sat May 05 16:05:03 +0000 2012
@chelseafc WHY is Torres on bench??give the man a chance!!! He is hungry to thump liverpool..BAd decision,Sat May 05 16:05:03 +0000 2012
Nu chelsea liverpool kijken! Go @luis16suarez!! #cheliv #FAcupfinal,Sat May 05 16:05:03 +0000 2012
"Starting to feel the atmosphere now, wish i was there. #LFC #Letsdoit",Sat May 05 16:05:03 +0000 2012
"1 - Only once in their last 29 FA Cup games have Chelsea conceded more than once in a game, keeping 12 clean sheets in this period #CFC #LFC",Sat May 05 16:05:03 +0000 2012
Hard fi. Really???  #toss #facupfinal,Sat May 05 16:05:03 +0000 2012
@RaversRTW #facupfinal I thought it was just finishing when I saw 3.15 in tv guide! Its not even started!!!!!,Sat May 05 16:05:03 +0000 2012
RT @LFC: Liverpool supporters: best in the world http://t.co/cQc8cNnj,Sat May 05 16:05:03 +0000 2012
"RT @Lyandra: Fuck off Chelsea FC, you aint got no history. Five European Cups and 18 Leagues, that's what we call history. #lfc",Sat May 05 16:05:03 +0000 2012
Nice to see #Muamba in the standa. #LFC,Sat May 05 16:05:03 +0000 2012
Nice to see Fabrice Muamba as a guest of honour at the Wembley #facupfinal,Sat May 05 16:05:03 +0000 2012
GO GO @chelseafc idi Final FA cup  #ktbffh,Sat May 05 16:05:03 +0000 2012
RT @Mr_PartyJunkie: A season defining 90minutes...@LFC we will leave Wembley champions @Sherrie_LeeTim @Bianca_Tim #YNWA,Sat May 05 16:05:03 +0000 2012
@liverpool the next FA Cup champion #lfc #YNWA,Sat May 05 16:05:03 +0000 2012
My Mum just text me from my uncle's asking me who I'm going for? I'm disappointed in her....she should know I hate Liverpool way more #FaCup,Sat May 05 16:05:04 +0000 2012
#FACup Liverpool - Chelsea. C'mon Reds!,Sat May 05 16:05:04 +0000 2012
Prestice is thropy #cfc #FAcup,Sat May 05 16:05:04 +0000 2012
"I'll just narrow it down and say that I don't want that classless, racist mob to win. #FACup",Sat May 05 16:05:04 +0000 2012
For the next 2 hours I am a red #FAcup,Sat May 05 16:05:04 +0000 2012
Muamba the guest of honor #FACupFinal,Sat May 05 16:05:04 +0000 2012
Come on you Reds!!! #facupfinal,Sat May 05 16:05:04 +0000 2012
#FACupFinal Come on you Blues! Chelsea all the way!,Sat May 05 16:05:04 +0000 2012
Sooooo excited coommeee ooonn uuu redmen #facup #facupfinal #LFC lets do this,Sat May 05 16:05:04 +0000 2012
Liverpool busca ser el 4to equipo en ganar la #CarlingCup y #FACup en una misma temporada,Sat May 05 16:05:04 +0000 2012
It is here....red vs blue..its the big moment..time for the red army to step up! Come on #LFC bring that cup home! #YNWA,Sat May 05 16:05:04 +0000 2012
@chelseafc @ChelseaFansCol. @ChelseaFCAzul http://t.co/eITfPr2X,Sat May 05 16:05:04 +0000 2012
"RT @pricey2489: Hope Chelsea do it today, can't stand Dalgleish! #FACupFinal",Sat May 05 16:05:04 +0000 2012
RT @shane_salt: Come on your Chels! #FACupFinal #KTBFFH #CFCWEMBLEY http://t.co/lIRP8Ajr,Sat May 05 16:05:05 +0000 2012
Ovacion a Muamba #FACup,Sat May 05 16:05:05 +0000 2012
Come on the pool #facup,Sat May 05 16:05:05 +0000 2012
Min siaran di acak y ? RT @ChelseaNewsID FA CUP FINAL TEAM NEWS: CHELSEA V LIVERPOOL http://t.co/uLJK5HyJ (Official) #CFC,Sat May 05 16:05:05 +0000 2012
"Okay, Muamba's milking it now! #facupfinal",Sat May 05 16:05:05 +0000 2012
Come on the pool! YNWA #facupfinal,Sat May 05 16:05:05 +0000 2012
Who the fuck are the tin foil bandits doing the pre fa cup final show? #facup #fucktinfoil,Sat May 05 16:05:05 +0000 2012
COME ON CHELSEA!!! #CFC #UpTheBlues #FACupFinal,Sat May 05 16:05:06 +0000 2012
COME ON LIVERPOOL! You'll Never Walk Alone! Let's win this #facupfinal again http://t.co/I1Cij6Ym,Sat May 05 16:05:06 +0000 2012
It's almost time #FACupFinal http://t.co/gpT0uMjy,Sat May 05 16:05:06 +0000 2012
Good luck Chelsea! Come on you blues! #FACupFinal,Sat May 05 16:05:06 +0000 2012
"RT @andyyeoh: C'mon #LFC, you can do this! Paint Wembley Red &amp; Win the #FACUP! Love &amp; Hope from Malaysia! #YNWA @LFC",Sat May 05 16:05:06 +0000 2012
RT @oliverproudlock: Not to sure about these dance routines. #facup,Sat May 05 16:05:06 +0000 2012
Nerves kicking in #LFC,Sat May 05 16:05:06 +0000 2012
Come on the #scousers #lfc,Sat May 05 16:05:06 +0000 2012
@philmcnulty they were great... about 6 years ago... #HardFi #FACup,Sat May 05 16:05:06 +0000 2012
@kahlen1290 @TapiNyoni  Bellamy Bellamy! Loving the ESPN build up especially my BFF John Barnes #FACup #LFC #espnuk,Sat May 05 16:05:06 +0000 2012
Ok dah siap pakai jersey. Let the game begins!! #CFC #KTBFFH #FAcupfinal,Sat May 05 16:05:06 +0000 2012
harapan terakhir. Masih berharap @bepe20 ke @LFC :'),Sat May 05 16:05:06 +0000 2012
"Fuck, missing out on @LFC vs Chelsea!",Sat May 05 16:05:06 +0000 2012
RT @empireofthekop: RT @LFC: Liverpool supporters: best in the world http://t.co/csccHu7B,Sat May 05 16:05:06 +0000 2012
Come on liverpool #FACup #CFC #LFC,Sat May 05 16:05:06 +0000 2012
You'll Never Walk Alone @LFC,Sat May 05 16:05:06 +0000 2012
RT @shane_salt: Come on your Chels! #FACupFinal #KTBFFH #CFCWEMBLEY http://t.co/lIRP8Ajr,Sat May 05 16:05:06 +0000 2012
Guest of honor Fabrice Muamba #FAcupFinal,Sat May 05 16:05:06 +0000 2012
Go Chelsea! KTBFFH! :D #FACupFinal,Sat May 05 16:05:07 +0000 2012
Cmon @chelseafc !;) gamma watch the cup final! #FACupFinal #WOO!,Sat May 05 16:05:07 +0000 2012
RT @Linda_Pizzuti: The sun is shining on @LFC fans http://t.co/OaRLcIK5,Sat May 05 16:05:07 +0000 2012
10 mins til kik off come on you REdZ #LFC,Sat May 05 16:05:07 +0000 2012
Solstice with Dad watching our boys #CFC,Sat May 05 16:05:07 +0000 2012
"An exciting Legends final, a few nudges &amp; spins...now for the final classic race which hope starts early so don't miss too much #FACupFinal",Sat May 05 16:05:07 +0000 2012
Just can't bring myself to revise until after the #FACupFinal #CFCWembley,Sat May 05 16:05:07 +0000 2012
RT @Yakubu_24: Luis Suarez vs Didier Drogba. 2 Girls 1Cup. John Terry's wet dream. #FACup,Sat May 05 16:05:07 +0000 2012
RT @shane_salt: Come on your Chels! #FACupFinal #KTBFFH #CFCWEMBLEY http://t.co/lIRP8Ajr,Sat May 05 16:05:07 +0000 2012
RT @shane_salt: Come on your Chels! #FACupFinal #KTBFFH #CFCWEMBLEY http://t.co/lIRP8Ajr,Sat May 05 16:05:07 +0000 2012
Hoy ganan los red's goo Liverpool @LFC,Sat May 05 16:05:07 +0000 2012
Chelsea Chelsea! #cfc #trueblue,Sat May 05 16:05:07 +0000 2012
Watching the Liverpool v Chelsea game surrounded by Scousewifes. Come on Liverpool #LFC #TheBigOne,Sat May 05 16:05:07 +0000 2012
Waiting for #facupfinal to begun! It's @chelseafc against @liverpoolfc.,Sat May 05 16:05:07 +0000 2012
Anyone at Wembley Stadium ? #CFCWembley #KTBFFH,Sat May 05 16:05:07 +0000 2012
Wish they'd fuck all this pre-match nonsense off and just get down to the main event @thefadotcom #FACupFinal,Sat May 05 16:05:07 +0000 2012
Part time chelsea fan today #cfc,Sat May 05 16:05:08 +0000 2012
@EASPORTSFIFA 2-0 Chelse #KTBFFH #CFC,Sat May 05 16:05:08 +0000 2012
FA Cup final coming up....i love weekends #cfc vs #lfc,Sat May 05 16:05:08 +0000 2012
Preface #facupfinal  @ Piper's Pub http://t.co/B4YnH1nK,Sat May 05 16:05:08 +0000 2012
@AmadeusMozart love it amo #LFC,Sat May 05 16:05:08 +0000 2012
Seriously how did Roy Keane get a pundit job? #facupfinal #itv,Sat May 05 16:05:08 +0000 2012
Mary Jess #bangtidy #FACupFinal,Sat May 05 16:05:09 +0000 2012
10 Minutes for the #LFC game #YNWA,Sat May 05 16:05:08 +0000 2012
Most people would go to the pub to watch the #FACupFinal I go to bed,Sat May 05 16:05:09 +0000 2012
"FA CUP final let's go. As much as I like watchin sexy Stevie G, cmon the bluuuues #CFC",Sat May 05 16:05:09 +0000 2012
Nice touch for Richard Archer to wear a Beasties t-shirt but this #FACup pre-game show is the daftest thing I've seen in football.,Sat May 05 16:05:09 +0000 2012
RT: @LFC: Liverpool supporters: best in the world http://t.co/E1wKQepJ #ynwa,Sat May 05 16:05:09 +0000 2012
Go on #ChelseaF.C #CFC,Sat May 05 16:05:09 +0000 2012
2-1 @lfc lets do this all over again #FACupFinal,Sat May 05 16:05:09 +0000 2012
"Mums house on the right #lfc, with #cfc neighbours, lol http://t.co/NDMAe537",Sat May 05 16:05:09 +0000 2012
@_TheLips @FergalHegarty hon the chelski#cfc#facup.,Sat May 05 16:05:09 +0000 2012
#FACupFinal may the best team win,Sat May 05 16:05:25 +0000 2012
#tense Come on #LFC #YNWA,Sat May 05 16:05:25 +0000 2012
What is all this dancing rubbish going on on the pitch before the FA Cup final...just get on with the game! #LFC,Sat May 05 16:05:25 +0000 2012
Prediction : Liverpool 2 - 0 chelsea #facup #lfc #cfc,Sat May 05 16:05:25 +0000 2012
Come on #lfc from moe the dog #ynwa #facupfinal #toomuchtime http://t.co/nIBZo08b,Sat May 05 16:05:25 +0000 2012
Right phone is off until the end of the game! COME ON YOU RED MEN!!!!!!!!!! #LFC,Sat May 05 16:05:25 +0000 2012
Come on you Blues!!! #BlueIsTheColour #KTBFFH @JBeast1 @chelseafc @ScottDisick,Sat May 05 16:05:25 +0000 2012
"RT @RichieMcCormack: If it's Hard Fi &amp; The Enemy this year, I look forward to seeing The Ordinary Boys &amp; The Bravery at next yea ...",Sat May 05 16:05:25 +0000 2012
RT @ChelseaAnalyst: Come on Chelsea!!! Come on Chelsea!!! Come on Chelsea!!! Come on Chelsea!!! Come on Chelsea!!! Come on Chelsea!!! Co ...,Sat May 05 16:05:26 +0000 2012
Come on #ChelseaFC let's win this!! #FACupFinal,Sat May 05 16:05:26 +0000 2012
"I'll tell you this for free, HD tv wasn't made for Gareth Southgate #facupfinal",Sat May 05 16:05:26 +0000 2012
Come on liverpool #LFC #YNWA,Sat May 05 16:05:26 +0000 2012
#CFC #OneLove,Sat May 05 16:05:26 +0000 2012
"RT @alfombro: Just watched the great Craig Johnston on SBS Australia, he scored in 1986 Final #FACupFinal #LiverpoolFC @Liverpool_Col @L ...",Sat May 05 16:05:26 +0000 2012
Come on chelsea let's paint wembely blue #CFC #KTBFFH #WeAreChelsea !!!!!,Sat May 05 16:05:26 +0000 2012
#FACup shes a fine lady! #NationalAnthemSinger,Sat May 05 16:05:26 +0000 2012
"La la la la la la la la la la la Chelsea,
La la la la la la la la la la la Chelsea,
La la la la la la la la la la la Chelsea,

@chelseafc",Sat May 05 16:05:26 +0000 2012
"Lord SG realised he was wearing a blue &amp; white shirt after his shower ""I'd better change this hadn't I"" - oh yes, so he did #LFC #YNWA",Sat May 05 16:05:26 +0000 2012
RT @AnkitCFC: Lampard will play key role in today's Chelsea Plan... #ComeonChelsea #CFC #Ktbffh #Lampard #Drogba #Mata #terry,Sat May 05 16:05:26 +0000 2012
Nation Anthem time. #facupfinal,Sat May 05 16:05:27 +0000 2012
Respect FA! Fabrice Muamba is the guest of honor today! #FACup,Sat May 05 16:05:27 +0000 2012
terbaik bro macam Kelantan RT @LFC Liverpool supporters: best in the world,Sat May 05 16:05:27 +0000 2012
RT @Jonnypickering: Common Chelsea #CFC,Sat May 05 16:05:27 +0000 2012
I'm thinking about FA Cup (33 others checked-in) http://t.co/1d3flogY @GetGlue #FACup,Sat May 05 16:05:27 +0000 2012
FA Cup Final...woooooo! #FACup #SBS #Liverpool #Chelsea,Sat May 05 16:05:27 +0000 2012
Come @LFC @IndoLiverpoolfc will support you..!! #YNWA,Sat May 05 16:05:27 +0000 2012
RT @Dini_Mars: Really cnt separate d 2 sides... Liverpool seems 2 always get it right against Chelsea .. #faCup,Sat May 05 16:05:27 +0000 2012
"Koude voetjes, dus met lekker warm voetenbadje voor de tv haha #facup",Sat May 05 16:05:27 +0000 2012
"RT @MaajidNawaz: Kenny you legend! Whatever the outcome today ""You'll Never Walk Alone!"" #facupfinal #YNWA @LFC",Sat May 05 16:05:27 +0000 2012
"RT @eredivisielive: Opstelling #Chelsea: Cech; Bosingwa, Ivanovic, Terry, Cole; Ramires, Mikel, Mata, Lampard; Drogba, Kalou #FAcupfinal",Sat May 05 16:05:27 +0000 2012
Droning male singer even naffer #facupfinal #footie,Sat May 05 16:05:28 +0000 2012
"Sorry @jhutch1992, we can't be friends today. COME ON, LIVERPOOL! #FACupFinal",Sat May 05 16:05:28 +0000 2012
"What's with this bollocks before k.o? I don't care for twats prancing around in silver suits.
We want to see Cheerleaders &amp; titties #FACup",Sat May 05 16:05:28 +0000 2012
What's with the bacofoil dancers #FACupFinal,Sat May 05 16:05:28 +0000 2012
Currently waiting at Sweens with my good friend mr carling #FACup #ComeOnYouReds http://t.co/NlpvG6hP,Sat May 05 16:05:28 +0000 2012
RT @coramc1: Come on the Pool @LFC @YNWA @TheAnfieldWrap @empireofthekop,Sat May 05 16:05:27 +0000 2012
RT @GazzaSL: C'mon Liverpool let's get stuck into these mugs! #LFC,Sat May 05 16:05:28 +0000 2012
Loca fucking giving it right now so packed #facupfinal,Sat May 05 16:05:28 +0000 2012
#LFC #FACupFinal #YNWA http://t.co/PXeGWeU9,Sat May 05 16:05:28 +0000 2012
@LFC good luck hope you beat dirty dirty chelsea toaday !!!!,Sat May 05 16:05:28 +0000 2012
RT @Joe__Gould: come on you better win @LFC,Sat May 05 16:05:27 +0000 2012
"Round of applause for the champ Fabrice Muamba.
#CFCWembley",Sat May 05 16:05:28 +0000 2012
Abide With Me &gt; God Save The Queen #FACupFinal,Sat May 05 16:05:28 +0000 2012
Chelsea = Plastic flags #facupfinal,Sat May 05 16:05:28 +0000 2012
Wow how's the dress on lass preparing to sing the Nation Anthem for the #FACupFinal,Sat May 05 16:05:29 +0000 2012
"RT @FootballLaw: Best banner at Wembley so far: ""Martin Skrtel is so hard he asked for a Big Mac at Burger King and got one"". #FAcup",Sat May 05 16:05:28 +0000 2012
RT @Richard_Buxton_: Fabrice Muamba is the FA's guest of honour at the #FACupFinal. Warm ovation for the recovering #BWFC defender from  ...,Sat May 05 16:05:28 +0000 2012
So now we have singers and dancers on Wembley? Why? What is this for? The fans are in the stadium to watch a football game. #FACupFinal,Sat May 05 16:05:29 +0000 2012
"RT @GOAL_ID: Chelsea Subs: Turnbull, Essien, Torres, Malouda, Meireles, Ferreira, Sturridge. #FACup",Sat May 05 16:05:28 +0000 2012
@MattyMaunder haha I was so angry mate! It's on now mate watch ! #FACupFinal,Sat May 05 16:05:29 +0000 2012
When will #FACupFinal return to #BBC? This #ITV1 coverage is getting more &amp; more irritating,Sat May 05 16:05:29 +0000 2012
"RT @GOAL_ID: Liverpool Starting XI: Reina; Johnson, Skrtel, Agger, Jose Enrique; Spearing, Henderson; Downing, Gerrard, Bellamy; Suarez. ...",Sat May 05 16:05:29 +0000 2012
You'll Never Walk Alone @LFC #LiverpoolFC #FACupFinal,Sat May 05 16:05:29 +0000 2012
Let's get this second cup of the season! YNWA #facup,Sat May 05 16:05:29 +0000 2012
Chelsea is about to beat Liverpool's sorry butt! #CFC #FACupFinal,Sat May 05 16:05:29 +0000 2012
Nadie sabe cuanto sufro por perdermela #FACupFinal :'( just win okay!?,Sat May 05 16:05:29 +0000 2012
Fa cup final time. Thinking 2-0 Chelsea #FACup #Chelsea,Sat May 05 16:05:29 +0000 2012
1-2 Liverpool RT @sportmaniaMNCTV #FACupFinal Chelsea vs Liverpool. Prediksi?,Sat May 05 16:05:29 +0000 2012
Sing along with us...... #FACupFinal,Sat May 05 16:05:29 +0000 2012
"I'm going 1-0 to #Chelsea, Drogba to score #FACUP",Sat May 05 16:05:29 +0000 2012
Singer from Hard Fi wearing a Beastie Boys t-shirt. MCA wouldnt be happy #FACup,Sat May 05 16:05:29 +0000 2012
"@hokeeffe99 really is, can't believe itv coverage. Feel I'll watching. Hope #Lfc stuff them.",Sat May 05 16:05:29 +0000 2012
RT @MariaBarrett: Beastie Boys klaxon! #facupfinal,Sat May 05 16:05:29 +0000 2012
"RT @GOAL_ID: Liverpool Starting XI: Reina; Johnson, Skrtel, Agger, Jose Enrique; Spearing, Henderson; Downing, Gerrard, Bellamy; Suarez. ...",Sat May 05 16:05:30 +0000 2012
#comeonyoublues #CFC,Sat May 05 16:05:29 +0000 2012
Firstly. Wtf is this synchronised dance Hard Fi shit and who thought it was a good idea!? #FACupFinal,Sat May 05 16:05:30 +0000 2012
"Aww, its so good to see fabrice muamba there. He's lookin good all suited n booted :) #facup #wembley",Sat May 05 16:05:30 +0000 2012
#Muamba Happy he's there! Shame that knob Adrian Childs is though #facup,Sat May 05 16:05:30 +0000 2012
Fabrice Muamba gets standing ovation at Wembley...#FAcup opening ceremony,Sat May 05 16:05:30 +0000 2012
"Ooh, this is the best bit. #abidewithme #FACupFinal",Sat May 05 16:05:30 +0000 2012
come on you chels!!! #FAcupfinal #CFCwembley #KTBFH,Sat May 05 16:05:30 +0000 2012
RT @RicoSmith_: @ChelseaFC_SA #Pta fans Herr Gunthers will be showing the game. Please RT. #CFC,Sat May 05 16:05:30 +0000 2012
Come on CHELSEA! #cfc,Sat May 05 16:05:30 +0000 2012
Surprised Chelsea ain't booing Muamba! #FACupFinal,Sat May 05 16:05:30 +0000 2012
RT @chelseafc: RT @shane_salt: Come on your Chels! #FACupFinal #KTBFFH #CFCWEMBLEY http://t.co/nHXzw9xm,Sat May 05 16:05:30 +0000 2012
Come in #Chelsea! Fuck the scousers! #CFC #LFC #FACup,Sat May 05 16:05:30 +0000 2012
"Go Liverpool... ""You'll Never Walk Alone"" #YNWA #FACup",Sat May 05 16:05:31 +0000 2012
Me my dad and sally all sat here in liverpool tops!! Come onnn #LFC!! :),Sat May 05 16:05:31 +0000 2012
Abide with me #facupfinal,Sat May 05 16:05:31 +0000 2012
Come on you Chelsea blues!!! #CFC #FACupFinal #FACUPonFOX,Sat May 05 16:05:31 +0000 2012
You'll Never Walk Alone! Come on #LFC,Sat May 05 16:05:31 +0000 2012
RT @ficklefootball: Let the racist meet the racist. JT meets Suarez #TheFACup #CFC #lfc,Sat May 05 16:05:31 +0000 2012
Come on Liverpool &amp;lfc #FACup,Sat May 05 16:05:31 +0000 2012
RT @chelseafc: You can follow all the action by clicking on the live coverage tab right here http://t.co/UyqvckuQ #CFCWembley #FACupFina ...,Sat May 05 16:05:31 +0000 2012
am now seated for the game. #COYR #YNWA #LFC,Sat May 05 16:05:31 +0000 2012
Go Blues!!!! #FACupFinal,Sat May 05 16:05:31 +0000 2012
"RT @GOAL_ID: Liverpool Starting XI: Reina; Johnson, Skrtel, Agger, Jose Enrique; Spearing, Henderson; Downing, Gerrard, Bellamy; Suarez. ...",Sat May 05 16:05:31 +0000 2012
BLUE IS THE COLOUR! #CFC,Sat May 05 16:05:31 +0000 2012
Anthem singer is an absolute babe #facupfinal,Sat May 05 16:05:31 +0000 2012
"Hello, who's this? #FAcupfinal",Sat May 05 16:05:32 +0000 2012
#FACupFinal moments away! There's still time! #WhoYaGot?,Sat May 05 16:05:32 +0000 2012
@chelseafc Can't wait 2 see the match nd good luck,Sat May 05 16:05:32 +0000 2012
"Going to watch the #FACupFinal without tweeting :) Good Luck Chelsea #CFC and Liverpool #LFC 

#Gooner4life",Sat May 05 16:05:32 +0000 2012
Great to see Fabrice Muamba in good health. #facup http://t.co/eRnX3hbK,Sat May 05 16:05:32 +0000 2012
Vamos Liverpool!!! #YNWA #FACupFinal,Sat May 05 16:05:32 +0000 2012
Listo para ver la final del torneo de copa original #FACup go @chelseafc,Sat May 05 16:05:32 +0000 2012
RT @Linda_Pizzuti: The sun is shining on @LFC fans http://t.co/OaRLcIK5,Sat May 05 16:05:32 +0000 2012
Let's hope #CFC smash #LFC because I HATE #LFC and there scruffy rat of a manager!,Sat May 05 16:05:33 +0000 2012
Written in the star . #CFC #CFC #CFC #CFC #CFC #CFC #CEC,Sat May 05 16:05:33 +0000 2012
RT @akadej: Come On Liverpool!!! ... Please RETWEET if you support LIVERPOOL!!! ... #LFC #FACupFinal,Sat May 05 16:05:33 +0000 2012
@vickywoolsey @lfc ye i hate chelsea so i am happy if liverpool win today,Sat May 05 16:05:33 +0000 2012
My bro @bragsboogie picking up his  F.A.Cup player of the Round award from Trevor Brooking #facupfinal  http://t.co/0mG7gjhX,Sat May 05 16:05:33 +0000 2012
LET'S GO CHELSEA #CFC,Sat May 05 16:05:33 +0000 2012
BLUE IS THE COLOR!! #CFC #KTBFFH,Sat May 05 16:05:33 +0000 2012
RT @Waggy1457: @TweetChelseaFC Prediction: Chelsea 2-0 Liverpool. Drogba and super sub Torres to score! #CFC,Sat May 05 16:05:33 +0000 2012
Stupid bloody 'tradition' #LFC #FACupFinal,Sat May 05 16:05:33 +0000 2012
Watching the #Liverpool game at penny lane pub with @adambrewski and a ton of lfc fans #FACup,Sat May 05 16:05:33 +0000 2012
'Abide With Me' - this is what's it all about. #facupfinal,Sat May 05 16:05:33 +0000 2012
RT @shane_salt: Come on your Chels! #FACupFinal #KTBFFH #CFCWEMBLEY http://t.co/lIRP8Ajr,Sat May 05 16:05:33 +0000 2012
I want #CFC to win. But if we all supported the same team football would be really dull.,Sat May 05 16:05:33 +0000 2012
@shawnlevy @chiltonr #FACup Just ordered mine @ the Marathon.  See you tonight.,Sat May 05 16:05:33 +0000 2012
RT @ESPNTVUK: Time for the national anthem of #FACupFinal: Abide With Me. #lfc #cfc,Sat May 05 16:05:33 +0000 2012
"massive game for liverpool this, suarez needs to have a good game #LFC",Sat May 05 16:05:34 +0000 2012
Nice to see the crowd showing love to Muamba! #Trooper #LFC #CFC #FACUP,Sat May 05 16:05:34 +0000 2012
Come On Chelsea #stepup #biggame #FAcupfinal,Sat May 05 16:05:34 +0000 2012
Good to see Muamba in his feet...#FACupFinal,Sat May 05 16:05:34 +0000 2012
Lovely to see @fmuamba at the #FACupFinal,Sat May 05 16:05:34 +0000 2012
Hope #Harvey 's ad brings #lfc some good luck seeing as how so many of us in #Thinkbox and #itv are supporters.,Sat May 05 16:05:34 +0000 2012
"Aww, Fabrice Muamba :) :)  #facup",Sat May 05 16:05:34 +0000 2012
Come on the reds bring home one more piece of silverware! The season ends here #facupfinal,Sat May 05 16:05:34 +0000 2012
"Come on you Reds! @LFC let's get the 3rd win at Wembley, and 3rd over Chelsea this season. #LiverpoolfortheFACup",Sat May 05 16:05:35 +0000 2012
Go @LFC!  you'll never walk alone,Sat May 05 16:05:35 +0000 2012
end of a storm... Golden skies etc.. Lets go boys #LFC #FACup,Sat May 05 16:05:35 +0000 2012
Viendo la final de la #FACupFinal que gane @chelseafc. Go blues!!,Sat May 05 16:05:35 +0000 2012
What was with that shocking 'dance'/flag waving/shouting-singer combination!? Leave all that out in future! #facupfinal #comeoneliverpool,Sat May 05 16:05:35 +0000 2012
#ComoOnLiverpool #FACup #GoReds,Sat May 05 16:05:35 +0000 2012
Come on #CFC #bluesforlife,Sat May 05 16:05:35 +0000 2012
Come On Liverpool &lt;3 #YNWA #LFC #JFT96 #FaCup,Sat May 05 16:05:35 +0000 2012
Love that the cup hymn is also a funeral hymn... #FACUPFINAL,Sat May 05 16:05:35 +0000 2012
@TaraTWalsh Good Luck ! :) #facup,Sat May 05 16:05:35 +0000 2012
@sportswithjohn @LFC @kennethdalglish @glen_johnson @pauldalglish o o oooooooo saaaaaay Liverpool come on.,Sat May 05 16:05:35 +0000 2012
Liverpool-Chelsea. Come on the Reds! #FACupFinal,Sat May 05 16:05:35 +0000 2012
RT @AdamWoodyatt: I wasn't this nervous before the #EastEnders live episode!! Guess that's the magic of #FACupFinal Come on redmen #YNWA,Sat May 05 16:05:35 +0000 2012
COME ON LIVERPOOL WE CAN DO THIS #LFC,Sat May 05 16:05:35 +0000 2012
@LFC come on reds do the double. good luck from Turkey #LFC,Sat May 05 16:05:35 +0000 2012
Shitting it. #LFC,Sat May 05 16:05:36 +0000 2012
#facup,Sat May 05 16:05:36 +0000 2012
Drogba que #PutoCrack que sos!! Por favor quedate para siempre en el @chelseafc,Sat May 05 16:05:36 +0000 2012
RT @oliverproudlock: Not to sure about these dance routines. #facup,Sat May 05 16:05:36 +0000 2012
#CFCWEMBLEY 10 min till kick off,Sat May 05 16:05:36 +0000 2012
I could hear @Andile_Khumalo belting out YNWA all the way from here in Jozi#FACupFinal,Sat May 05 16:05:36 +0000 2012
@chelseafc or @LFC in the next 90 mins after this. You'll know who is the real for #FACupFinal,Sat May 05 16:05:36 +0000 2012
RT @Rka101: Come on!!!!!! #YNWA#LFC,Sat May 05 16:05:36 +0000 2012
On another note that singer is leeeennng #lengsingerhype #facup,Sat May 05 16:05:36 +0000 2012
No doubtRT @iamjabulation: @docbovi I'm on the road chief plz keep me posted #FACupFinal,Sat May 05 16:05:36 +0000 2012
Come on reds #facup. @Prior_Dave be ready to pay up,Sat May 05 16:05:37 +0000 2012
Let's hear it for the best team on the pitch at #Wembley as @RHGDBand play at the #FACup Final - Blues (&amp; Royals) Is The Colour,Sat May 05 16:05:37 +0000 2012
@laurenlaverne where have you been? That's why we have an #FACupFinal,Sat May 05 16:05:37 +0000 2012
"Fernando remplacent, je suis sur il va entrer en jeu ! #CFCWEMBLEY",Sat May 05 16:05:37 +0000 2012
LET'S HAVE THESE BLUE SHITE #LFC #FACupFinal,Sat May 05 16:05:37 +0000 2012
@Danny_Herrera10 vs. @brendanclinton #facup,Sat May 05 16:05:37 +0000 2012
"RT @andyyeoh: C'mon #LFC, you can do this! Paint Wembley Red &amp; Win the #FACUP! Love &amp; Hope from Malaysia! #YNWA @LFC",Sat May 05 16:05:37 +0000 2012
Cmon liverpool!!! #FaCupFinal #YNWA,Sat May 05 16:05:37 +0000 2012
Chelsea - Liverpool #facupfinal,Sat May 05 16:05:37 +0000 2012
Deep breaths #FACupFinal #LFC #CFC Red v Blue in this house,Sat May 05 16:05:37 +0000 2012
@AbbyWambach #CFC!!! Let's go Blues!,Sat May 05 16:05:37 +0000 2012
@emmajobbo well see #LFC,Sat May 05 16:05:37 +0000 2012
Accrington Stanley? Who are They? #FACupFinal http://t.co/IpUwV8g4,Sat May 05 16:05:37 +0000 2012
"We dont need your plastic flags!! #LFC we got our hearts, and shall sing our lungs out!! #YNWA",Sat May 05 16:05:38 +0000 2012
Let's go Reds!! #YNWA #FACUPFINAL,Sat May 05 16:05:38 +0000 2012
nerves setting in now #LFC,Sat May 05 16:05:38 +0000 2012
been a crazy week...allright #LFC time to win and you'll make everything better! #LEHGOOOOOO #YNWA #FACup,Sat May 05 16:05:38 +0000 2012
Fancy Liverpool to win this. #FACupFinal,Sat May 05 16:05:38 +0000 2012
She is fucking fit! #FACup,Sat May 05 16:05:38 +0000 2012
"Awww Fabrice Muamba, the speed of his recovery is astonishing! :O #facup",Sat May 05 16:05:38 +0000 2012
#soitbegins #LFC #qnervios #lpqlp,Sat May 05 16:05:38 +0000 2012
Blue is the colour #chelsea #facup,Sat May 05 16:05:38 +0000 2012
"""@D_uribe7: Hoping the reds win this #FACupFinal"" Jesus. Once again. Go blues. #KTBFFH",Sat May 05 16:05:38 +0000 2012
RT @Linda_Pizzuti: The sun is shining on @LFC fans http://t.co/OaRLcIK5,Sat May 05 16:05:38 +0000 2012
RT @syaph: #FACupFinal,Sat May 05 16:05:38 +0000 2012
Muamba es un heroe. 78min muerto y esta presente en Wembley como si nada #FACup,Sat May 05 16:05:38 +0000 2012
Aldrig bra att boka in fest samma dag som en viktig match. Idag vill jag se kampvilja tills lungorna hostas upp! #lfc,Sat May 05 16:05:38 +0000 2012
"RT @chelseafc: Team v Liverpool: Cech; Bos, Iva, JT (c), Cole; Mik, Lamps; Ram, Mata, Kal; Drog.  #CFCWembley #FACupFinal. (SL)",Sat May 05 16:05:38 +0000 2012
Tiempo de #FACup :D!! Come ON REDS #LFC,Sat May 05 16:05:39 +0000 2012
"Fabrice Muamba, guest of honor at Wembley. #CFC",Sat May 05 16:05:39 +0000 2012
@chelseafc We have to win this today!! Come on Chelsea! Beat Liverpool!,Sat May 05 16:05:39 +0000 2012
"RT @ESPNStatsInfo: Chelsea vs Liverpool, 12:15 ET in 131st #facupfinal (oldest soccer tournament in world). @LFC seeking 1st FA Cup titl ...",Sat May 05 16:05:39 +0000 2012
I have to watch this game alone at a place where I can smoke my ganja !! #FACUP #liverpoolfc4life #YNWA,Sat May 05 16:05:39 +0000 2012
Final de la #FACup. Con agua de fruta por aquello de la cruda...,Sat May 05 16:05:39 +0000 2012
RT @chelseafc: RT @shane_salt: Come on your Chels! #FACupFinal #KTBFFH #CFCWEMBLEY http://t.co/XovLqyTE,Sat May 05 16:05:39 +0000 2012
Cmonn the pool! #domesticdouble #LFC,Sat May 05 16:05:39 +0000 2012
On the blue half of wembley today! #cfc,Sat May 05 16:05:39 +0000 2012
"#YNWA You Never Win Again,eeh You Never Walk Alone :) RT @wildanzharfan: Goodluck @LFC",Sat May 05 16:05:39 +0000 2012
fingers crossed for @LFC  come on boys u can do it,Sat May 05 16:05:39 +0000 2012
RT @chelsea4girls: Two very passionate sets of fans at Wembley today! #CFCWembley,Sat May 05 16:05:39 +0000 2012
"RT @ESPNStatsInfo: Chelsea vs Liverpool, 12:15 ET in 131st #facupfinal (oldest soccer tournament in world). @LFC seeking 1st FA Cup titl ...",Sat May 05 16:05:39 +0000 2012
@timpayton as ive told you before chelsea have an owner who wants to win c.l. Arsenal have an owner who attends 2 games a season! Workitout!,Sat May 05 16:05:39 +0000 2012
Why has Muamba got a ticket for the #facupfinal,Sat May 05 16:05:40 +0000 2012
#FACupFinal I got Chelsea,Sat May 05 16:05:40 +0000 2012
A round of applause for Muamba from fans. #Wembley.,Sat May 05 16:05:40 +0000 2012
Guest of honour Fabrice Muamba #wembleycfc #facup,Sat May 05 16:05:40 +0000 2012
Com'on Liverpool! #FACupFinal,Sat May 05 16:05:40 +0000 2012
Nice to see the prawn sandwich brigade are in their seats...... #FAcupfinal,Sat May 05 16:05:40 +0000 2012
"harus menang ya min, RT @Twibi_Worlds: Chelsea #CFC",Sat May 05 16:05:40 +0000 2012
RT @FOXSoccer: Dalglish and @LFC are aiming to capture their eighth FA Cup title today. #FACUPonFOX,Sat May 05 16:05:39 +0000 2012
RT @soccerdotcom: Retweet if you think Chelsea will win the 2012 #FACup! #CFC,Sat May 05 16:05:40 +0000 2012
Come on you mighty reds #LFC #FA,Sat May 05 16:05:40 +0000 2012
"On the verge of being sick now. Why do I do it. 2-2, and we pinch it on pens. If that does happen, I will need a week to recover. #lfc",Sat May 05 16:05:40 +0000 2012
"RT @antifracker: When u walk through a storm, u get wet ! #hmhb   #facupfinal",Sat May 05 16:05:40 +0000 2012
RT @shane_salt: Come on your Chels! #FACupFinal #KTBFFH #CFCWEMBLEY http://t.co/lIRP8Ajr,Sat May 05 16:05:40 +0000 2012
Wow Chelsea fans clapping something rather then booing #shocked #FACup,Sat May 05 16:05:40 +0000 2012
"RT @GOAL_ID: Liverpool Starting XI: Reina; Johnson, Skrtel, Agger, Jose Enrique; Spearing, Henderson; Downing, Gerrard, Bellamy; Suarez. ...",Sat May 05 16:05:40 +0000 2012
"RT @GOAL_ID: Chelsea Subs: Turnbull, Essien, Torres, Malouda, Meireles, Ferreira, Sturridge. #FACup",Sat May 05 16:05:41 +0000 2012
RT @shane_salt: Come on your Chels! #FACupFinal #KTBFFH #CFCWEMBLEY http://t.co/lIRP8Ajr,Sat May 05 16:05:41 +0000 2012
Come on Liverpool :) #FACupFinal #YNWA,Sat May 05 16:05:41 +0000 2012
Let's go boys! Time to add another piece of silverware to the trophy case! #LiverpoolFC #FACupFinal #YNWA,Sat May 05 16:05:41 +0000 2012
Kick off just minutes away.. GO BLUES @chelseafc  @Chelseafancite @JulianDayrit1 @MonicaCamahort,Sat May 05 16:05:41 +0000 2012
Come on #lfc the mighty reds will win again #dothedouble,Sat May 05 16:05:41 +0000 2012
The saddest part of this #facupfinal is it had less than a build up than the Manchester Derby.,Sat May 05 16:05:41 +0000 2012
CAREFREEEEEE #ChelseaWembley #FACupFinal http://t.co/DBejjkqF,Sat May 05 16:05:41 +0000 2012
Chelsea ftw #facupfinal,Sat May 05 16:05:41 +0000 2012
Chelsea v Liverpool live via starsports. #FACupFinal. Blues!,Sat May 05 16:05:42 +0000 2012
@ajpatel1976 #lfc @lfc let's get those red ribbons back on te #FACup,Sat May 05 16:05:41 +0000 2012
Come on @liverpoolfc good look boys&lt;3,Sat May 05 16:05:42 +0000 2012
this is final @chelseafc go BLUES!,Sat May 05 16:05:42 +0000 2012
Nerver... #LFC,Sat May 05 16:05:42 +0000 2012
Come on Chelsea! #CFC,Sat May 05 16:05:42 +0000 2012
woohooo wembley is REDS!! RT @LFC :Liverpool supporters: best in the world http://t.co/bWDumGxC,Sat May 05 16:05:42 +0000 2012
#Henry scoring at the Emirates in his comeback game has been the highlight of this years #facup . .,Sat May 05 16:05:42 +0000 2012
@GazGShore Ide smash you on FIFA! :p what do you think the score will be? #predictions #LFC,Sat May 05 16:05:42 +0000 2012
"Go Chelsea go, #CFC #KTBFFH !!!!",Sat May 05 16:05:42 +0000 2012
"Hmm, really don't want Liverpool to win, but I want Chelsea to lose. Dilemma. #FACupFinal",Sat May 05 16:05:42 +0000 2012
Nervous!! Come On Liverpool #LFC,Sat May 05 16:05:42 +0000 2012
RT @Derriiique: RT @fem_peps: LOOOL @ dese bacon foil dancers! Signs of things to come for olympic opening ceremony perhaps #FAcupfinal! ...,Sat May 05 16:05:42 +0000 2012
@EASPORTSFIFA #FACupFinal 3-1 Chelsea lampard 1st goal!!!,Sat May 05 16:05:42 +0000 2012
Nu bij @Victorr_98 #FAcupfinal #livche #ComeOnLiverpool,Sat May 05 16:05:42 +0000 2012
"RT @empireofthekop: RT @jacksconlon: ""MARTIN SKRTEL IS SO HARD HE ASKED FOR A BIG MAC IN BURGER KING AN GOT ONE"" top #LFC banner at wembley",Sat May 05 16:05:42 +0000 2012
"Can't wait for the Cup Final to kick off. Chelsea, you're going down. #LFC",Sat May 05 16:05:43 +0000 2012
Accidentally fell asleep! Couldn't have timed waking up any better! #ComeOnReds #lfc #FAcupfinal #ynwa,Sat May 05 16:05:43 +0000 2012
#facup what a voice,Sat May 05 16:05:43 +0000 2012
RT @LivUp_Records: #Chelsea vs liverpool #facup,Sat May 05 16:05:43 +0000 2012
Stupid fa cup song destroyed by ynwa? #please #facupfinal,Sat May 05 16:05:43 +0000 2012
"All this takes me back 12 months, was pretty damn emotional all day I don't mind admitting! #facup",Sat May 05 16:05:43 +0000 2012
Feeling a touch nervous and a little nauseous! Come on @LFC #LFCFOREVER,Sat May 05 16:05:43 +0000 2012
Massive stress causing a bit of a headache... Come on #lfc,Sat May 05 16:05:43 +0000 2012
come on #lfc - bring it home,Sat May 05 16:05:43 +0000 2012
Mary Jess leeb er something #fit #FaCUP,Sat May 05 16:05:44 +0000 2012
Sitting with my old man watching the #facupfinal - YAWN - might go shopping instead,Sat May 05 16:05:44 +0000 2012
Oh joy. Someone's going to kill Abide With Me!!! Just let the fans sing it FFS!!! #FACup #FACupFinal,Sat May 05 16:05:44 +0000 2012
@fem_peps: LOOOL @ dese bacon foil dancers! Signs of things to come for olympic opening ceremony perhaps #FAcupfinal! #pants! &lt;&lt;Haha stop it,Sat May 05 16:05:44 +0000 2012
"""RT @LFC: Liverpool supporters: best in the world http://t.co/48trtB7R""",Sat May 05 16:05:44 +0000 2012
COME ON THE POOL!!!!! #FACupFinal #LFC,Sat May 05 16:05:44 +0000 2012
RT @chelseafc: Petr Cech has just come onto the pitch for a  warm-up #CFCWembley #FACupFinal (SL),Sat May 05 16:05:44 +0000 2012
#facupfinal so far looks like a Superbowl half time show,Sat May 05 16:05:44 +0000 2012
Weird Wembley antics as usual with a Gordon Strachan overtone. Come on Kenny's reds! #facup,Sat May 05 16:05:45 +0000 2012
Ten mins to kick off!! Excitement &amp; atmosphere building! #lfc #facupfinal #ynwa,Sat May 05 16:05:44 +0000 2012
@DodieP1966 Great match to listen to though! I was at the 2006 cup final and very much have a thing for #lfc - COYR,Sat May 05 16:05:45 +0000 2012
"the reds vs the blues
#FAcup",Sat May 05 16:05:45 +0000 2012
RT @TheRealist_Jay: RT @fem_peps: LOOOL @ dese bacon foil dancers! Signs of things 2 come for olympic opening ceremony perhaps #FAcupfin ...,Sat May 05 16:05:45 +0000 2012
10 mins to kick off!! #LFC #facupfinal #GoReds,Sat May 05 16:05:45 +0000 2012
"@Linda_Pizzuti great to read your tweets at the games, excellent pics as well #LFC",Sat May 05 16:05:45 +0000 2012
Wish I was at #Wembley now watching the #FACupFinal,Sat May 05 16:05:45 +0000 2012
What are they doing? Just get on with it. #facupfinal,Sat May 05 16:05:45 +0000 2012
Never before have I been more disinterested in watching a football game. #FACupFinal,Sat May 05 16:05:45 +0000 2012
RT @FIFAcom: RT if you would like @lfc to win the FA Cup final today #CFC #LFC #FACupFinal,Sat May 05 16:05:46 +0000 2012
RT @AdamWoodyatt: I wasn't this nervous before the #EastEnders live episode!! Guess that's the magic of #FACupFinal Come on redmen #YNWA,Sat May 05 16:05:46 +0000 2012
Abide with me....... #FACupFinal,Sat May 05 16:05:46 +0000 2012
Half the #CFC  fans not clapping for muamba plastic club,Sat May 05 16:05:46 +0000 2012
#facup who's going to win? #cfc #lfc tbh #idontcare,Sat May 05 16:05:46 +0000 2012
hard fi must be making a living by that one song. #FAcup,Sat May 05 16:05:46 +0000 2012
RT @El8Rumi: Chelsea vs Liverpool #FACupFinal http://t.co/7s3DdedH,Sat May 05 16:05:46 +0000 2012
Comon Pool!! #YNWA #LFC,Sat May 05 16:05:46 +0000 2012
RT @Richard_Buxton_: Fabrice Muamba is the FA's guest of honour at the #FACupFinal. Warm ovation for the recovering #BWFC defender from  ...,Sat May 05 16:05:46 +0000 2012
@AliaCFC #blue for life. C'mon #KTBFFH #KeepCalmdestroyliverpool #CFC,Sat May 05 16:05:46 +0000 2012
Pride of London #ktbffh #cfcwembley  http://t.co/KQXM3TXJ,Sat May 05 16:05:46 +0000 2012
Abide with me - best bit of the pre match action! #goosebumps #CFCWembley,Sat May 05 16:05:47 +0000 2012
Legs. #facupfinal,Sat May 05 16:05:47 +0000 2012
RT @Richard_Buxton_: Plenty of plastic looking flags being waved by #CFC fans as 'Blue is the Colour' blasts out. Little singing but syc ...,Sat May 05 16:05:46 +0000 2012
Chelsea end not looking to full.... #awkward #FACupFinal,Sat May 05 16:05:47 +0000 2012
Berapa prediksi skor pertandingan Final FA CUP Chelsea vs Liverpool ? #FACUP #Final,Sat May 05 16:05:47 +0000 2012
"RT @ESPNStatsInfo: Chelsea vs Liverpool, 12:15 ET in 131st #facupfinal (oldest soccer tournament in world). @LFC seeking 1st FA Cup titl ...",Sat May 05 16:05:47 +0000 2012
"RT @GOAL_ID: Chelsea Subs: Turnbull, Essien, Torres, Malouda, Meireles, Ferreira, Sturridge. #FACup",Sat May 05 16:05:47 +0000 2012
come on reds #lfc,Sat May 05 16:05:47 +0000 2012
@Lucinda_2010 @SaintRokko #FACUPFinal Chelsea v Liverpool who's you money on?,Sat May 05 16:05:47 +0000 2012
I'm all supporters are very glad the kick-off time was moved to accommodate such magnificent pre-match fare. #cfc #lfc,Sat May 05 16:05:47 +0000 2012
"@GoalUK the last time #cfc got to both FA &amp; UCL final,they lost both! History to repeat itself #lfc 2-1 #cfc",Sat May 05 16:05:47 +0000 2012
RT @Linda_Pizzuti: The sun is shining on @LFC fans http://t.co/p75DOg3W,Sat May 05 16:05:47 +0000 2012
If they don't kick off soon there's a danger that the game will over-run into ITV's warm up for the 2013 FA cup final   #FAcup #fb,Sat May 05 16:05:47 +0000 2012
10 mins to K.O. Been up since 8 this morning! COME ON LFC! #FACupFinal,Sat May 05 16:05:48 +0000 2012
"RT @chelseafc: Team v Liverpool: Cech; Bos, Iva, JT (c), Cole; Mik, Lamps; Ram, Mata, Kal; Drog.  #CFCWembley #FACupFinal. (SL)",Sat May 05 16:05:48 +0000 2012
RT @mimtiyazudd: Come on #Chelsea! Come on #Chelsea! Come on #Chelsea! Come on #Chelsea! Come on #Chelsea! #CFC,Sat May 05 16:05:48 +0000 2012
RT @TheFooTypster: I am not going to lie....All i want to see right now is the Chelsea Female Physio!!! #FACupFinal,Sat May 05 16:05:48 +0000 2012
"Walk on .. Walk on , with
HOPE in your heart , and
You'll Never Walk Alone
#YNWA #LFC",Sat May 05 16:05:48 +0000 2012
"My 9 year old's prediction - HT draw, Chelsea 2-1 in the Football Association Cup. Drogba, Ramirez and Dirk Kuyt to score.  #CFC #LFC",Sat May 05 16:05:48 +0000 2012
"RT @Bolanet: #FACupFinal CHELSEA: Chelsea: Cech, Bosingwa, Ivanovic, Terry, Cole, Lampard, Mikel, Ramires, Mata, Kalou, Drogba",Sat May 05 16:05:48 +0000 2012
Warning to everyone now. Just going to be talking about the footy :) #YNWA #facupfinal,Sat May 05 16:05:48 +0000 2012
RT @lukehirst: The #FAcup final should kick off at 3.00pm. It should be on the BBC. The build up should start at 9.00am. And it should b ...,Sat May 05 16:05:48 +0000 2012
Chelsea vs Liverpool #FACup,Sat May 05 16:05:48 +0000 2012
"#LFC ""@djjazzydlive: Which team put Man utd out of the 2012 FA Cup?""",Sat May 05 16:05:48 +0000 2012
So nervous. C'mon @LFC,Sat May 05 16:05:48 +0000 2012
"Stop going on about cup final tradition Chiles.. the tradition died when this cup final doesnt END the season, at 3pm on a Saturday #facup",Sat May 05 16:05:49 +0000 2012
i'm so nervous.. ko in 10 mins. COME ON LIVERPOOL!! #YNWA #LFC,Sat May 05 16:05:49 +0000 2012
Come On Chelsea! @chelsea4girls @chelseafc @ChelseaAnalysis @ChelseaRumours @CHELSEAtwe @BluesChronicle #KTBFFH #CFC #ComeOnChelsea,Sat May 05 16:05:48 +0000 2012
"RT @GOAL_ID: Chelsea Subs: Turnbull, Essien, Torres, Malouda, Meireles, Ferreira, Sturridge. #FACup",Sat May 05 16:05:49 +0000 2012
"Owk. Wack sake ov barca....???""@oh_charley: them not start yet! RT @dunelo18: Scores??""@oh_charley: diz team is wack &gt; @chelseafc""""",Sat May 05 16:05:49 +0000 2012
RT @shane_salt: Come on your Chels! #FACupFinal #KTBFFH #CFCWEMBLEY http://t.co/lIRP8Ajr,Sat May 05 16:05:49 +0000 2012
"ESPN or ITV, who will have the least annoying commentator #facup",Sat May 05 16:05:49 +0000 2012
come on @LFC this is it! Got a cold beer and the FA Cup final #dontgetbetterthenthis #LFC vs #CFC #YNWA,Sat May 05 16:05:49 +0000 2012
Come on you reds! #LFC #YNWA #JFT96,Sat May 05 16:05:49 +0000 2012
This is the second bridge #cfc #facupfinal http://t.co/tcfitymI,Sat May 05 16:05:49 +0000 2012
"@Heard_Andrew and I was just about to say, COME ON CHELSEA #facupfinal",Sat May 05 16:05:49 +0000 2012
"You'll never get a job, Get on, get on, Get on up that road, shit hot. #Shanton #Scousers #FaCup",Sat May 05 16:05:49 +0000 2012
@EASPORTSFIFA my pants get soiled. #lfc,Sat May 05 16:05:49 +0000 2012
"""@LFC: Liverpool supporters: best in the world http://t.co/u9aNdvCz""",Sat May 05 16:05:49 +0000 2012
"Oh hello babe, nice dress #FAcupFinal",Sat May 05 16:05:49 +0000 2012
Dale Liverpool. #facup,Sat May 05 16:05:49 +0000 2012
Sittin on a billiard table and going to watch Chelsea vs. Liverpool! #FACUP,Sat May 05 16:05:49 +0000 2012
"@juicyblurred @djpizaro @freddiePBS I hv d same doubt!Hendo n Spearing never repaid the trust bestowed on them by #LFC !Almost,a season now!",Sat May 05 16:05:49 +0000 2012
"RT @GOAL_ID: Hasil polling prediksi pembaca GOAL_ID: Chelsea menang 57.8%, Liverpool menang 37.7%. Preview http://t.co/YF5SUhUz #FACup",Sat May 05 16:05:49 +0000 2012
What the fuck are those tin foil dancers about? Get that away from football! It was like a camp Total Recall! #FACupFinal,Sat May 05 16:05:49 +0000 2012
#facupfinal Bugger that. I'm going to @LdnFldsBrewery . #hackney,Sat May 05 16:05:49 +0000 2012
@shalfc Chelsea. Chelsea #CFC #BlueDay,Sat May 05 16:05:50 +0000 2012
Me nails are in shreds. #FACupFinal #lfc,Sat May 05 16:05:50 +0000 2012
Whatever happens. I always hoped to see the day that Kenny led the Reds out in the FA Cup at Wembley again #lfc,Sat May 05 16:05:50 +0000 2012
fakta bos :D RT @rdwnalfrs Ngarep anjirr RT @nddupandu: pasti chelsea yg bakal nangis di final #FAcup,Sat May 05 16:05:50 +0000 2012
I'm awake :) c'mon #lfc,Sat May 05 16:05:50 +0000 2012
@JordanGrinyer @blackey11 yeah i know :) good luck @chelseafc !! @Torres ! and liverpool ! :),Sat May 05 16:05:50 +0000 2012
Come on #CFC #FACupFinal,Sat May 05 16:05:50 +0000 2012
@iFredy29 Liverpool win 2-1 after Extra Time ;) #FACupFinal,Sat May 05 16:05:50 +0000 2012
That's much better. #FACupFinal,Sat May 05 16:05:50 +0000 2012
RT @shane_salt: Come on your Chels! #FACupFinal #KTBFFH #CFCWEMBLEY http://t.co/lIRP8Ajr,Sat May 05 16:05:50 +0000 2012
She looks cold #facup,Sat May 05 16:05:50 +0000 2012
Now or never comon @chelseafc I'm here man watching!!,Sat May 05 16:05:50 +0000 2012
"Here we gooooo, come on you REDS positive vibes all around, go go go!!! Woohoo excited much! #lfc",Sat May 05 16:05:51 +0000 2012
RT @chelseafc: A picture of the team warming up... We'll kick-off in just under half an hour...#CFCWembley #FACupFinal (SL) http://t.co/ ...,Sat May 05 16:05:50 +0000 2012
"RT @FootballLaw: Best banner at Wembley so far: ""Martin Skrtel is so hard he asked for a Big Mac at Burger King and got one"". #FAcup",Sat May 05 16:05:51 +0000 2012
Absolutely cacking it #LFC,Sat May 05 16:05:51 +0000 2012
"RT @Mightymj1: #LFC &amp; #CFC are horrible clubs,have thugs &amp; racists in their teams &amp; management. They both also struggled to  ...",Sat May 05 16:05:51 +0000 2012
We are Liverpool Football Club. Come on you mighty reds! #LFC,Sat May 05 16:05:51 +0000 2012
"RT @mwiingam: chelsea vs liverpool games are never boring, looking forward to this. #FACupFinal #cmonCHELSEAA",Sat May 05 16:05:51 +0000 2012
Let's go Liverpool #LFC #YNWA,Sat May 05 16:05:52 +0000 2012
Mary Jess Bieberland? Lieberman? #FAcupfinal,Sat May 05 16:05:52 +0000 2012
Never knew it started with a hymn #FACup,Sat May 05 16:05:52 +0000 2012
RT @oliverproudlock: Not to sure about these dance routines. #facup,Sat May 05 16:05:52 +0000 2012
when it will happen again? @LFC http://t.co/sZSTveY2,Sat May 05 16:05:52 +0000 2012
Come on you mighty Redmen! #LFC #YNWA #FACupFinal,Sat May 05 16:05:52 +0000 2012
RT @LFC: Liverpool supporters: best in the world http://t.co/6MIw4Cwm,Sat May 05 16:05:52 +0000 2012
"RT @Lyandra: Fuck off Chelsea FC, you aint got no history. Five European Cups and 18 Leagues, that's what we call history. #lfc",Sat May 05 16:05:52 +0000 2012
RT @stoolpresidente: It's raining in Boston and we suck @linda_pizzuti: The sun is shining on @LFC fans http://t.co/yxFKxkw5,Sat May 05 16:05:52 +0000 2012
Hymn singer on #FAcupfinal #SMASH,Sat May 05 16:05:52 +0000 2012
"Right, game on. Come on Liverpool!! #lfc #FACup",Sat May 05 16:05:52 +0000 2012
ABELTER WITH ME #facup,Sat May 05 16:05:52 +0000 2012
Drogba #ThekingofWembley!!! #CFC,Sat May 05 16:05:52 +0000 2012
"RT @SunSportNow: Chelsea XI v Liverpool: Cech, Bosingwa, Ivanovic, Terry, Cole, Mikel, Lampard, Ramires, Mata, Kalou, Drogba #lfc #cfc # ...",Sat May 05 16:05:52 +0000 2012
@thespyglass ...And then Adrian Chiles started talking! Time for the @bbc5live commentary... #FAcup,Sat May 05 16:05:52 +0000 2012
5.15 kick off for the #FACupFinal and ridiculous pre-match entertainment. English football has well and truly sold its soul!,Sat May 05 16:05:53 +0000 2012
Come on #LFC i have faith lets bring that trophy home #YNWA,Sat May 05 16:05:53 +0000 2012
RT @Jaywilds: Who's this sexy chick #FAcupfinal,Sat May 05 16:05:52 +0000 2012
#facupfinal CMON YOU BLUES!,Sat May 05 16:05:53 +0000 2012
Chelsea to win. Purely cos hate Loserfool and Chelsea to lose to Bayern next weekend so let em have somethin. 3-1 hopefully.. #facupfinal,Sat May 05 16:05:53 +0000 2012
RT @chelseafc: You can follow all the action by clicking on the live coverage tab right here http://t.co/UyqvckuQ #CFCWembley #FACupFina ...,Sat May 05 16:05:53 +0000 2012
"kurang lebih 10 menit kick off final FA CUP. Konsen dulu eh, , #YNWA #LFC #WEM8LEY #MakeIt8",Sat May 05 16:05:53 +0000 2012
"Think I can categorically say, no football fan @ wembley was interested in that tin foiled dancing crap.

#facup #FACupFinal",Sat May 05 16:05:53 +0000 2012
RT @Linda_Pizzuti: The sun is shining on @LFC fans http://t.co/OaRLcIK5,Sat May 05 16:05:53 +0000 2012
"People wrote us off all season, ""u won't beat Napoli"", ""u won't beat Barca""...we did n thru to CL finals n here we are at FA Cup final! #CFC",Sat May 05 16:05:53 +0000 2012
RT @Arsenals_Gooner: Fabrice Muamba at Wembley #FAcup,Sat May 05 16:05:53 +0000 2012
@slike1980 shocking player #FACup #LFC,Sat May 05 16:05:53 +0000 2012
Here we go then #lfc,Sat May 05 16:05:54 +0000 2012
RT @LFC: Liverpool supporters: best in the world http://t.co/VbUboNIx,Sat May 05 16:05:54 +0000 2012
RT @InfostradaLive: Chelsea are in the #FACup Final for the fourth out of the sixth possible time in the new Wembley. They won all previ ...,Sat May 05 16:05:53 +0000 2012
"Walk on, walk on, With hope in your heart. And you'll never walk alone. #YNWA #LFC",Sat May 05 16:05:54 +0000 2012
RT @mrmac89: The rise of the racists. #facupfinal,Sat May 05 16:05:54 +0000 2012
"RT @saintredsfc: To akk the traveling #LFC fans, make us proud. Be the 12th man and bring help bring the trophy home. #FAcupfinal #Wembl ...",Sat May 05 16:05:54 +0000 2012
CFC Nma Tim Futsal KuRT @Twibi_Worlds : Chelsea #CFC,Sat May 05 16:05:54 +0000 2012
"RT @SunSportNow: Chelsea subs: Turnbull, Ferreira, Essien, Meireles, Malouda, Sturridge, Torres #lfc #cfc #facupfinal",Sat May 05 16:05:54 +0000 2012
"#Liverpool Starting XI: Reina; Johnson, Skrtel,Agger, Jose Enrique; Spearing, Henderson; Downing, Gerrard, Bellamy; Suarez. #FACup",Sat May 05 16:05:54 +0000 2012
Come on LIVERPOOL F.C!!!!!! #FACupFinal,Sat May 05 16:05:54 +0000 2012
@PepeReinaGMF eres un crack!! Aunque hoy deseo que gane #Fer!! Vamos #CFC,Sat May 05 16:05:54 +0000 2012
"WOW She's so beautiful 

#FaCupFinal",Sat May 05 16:05:54 +0000 2012
"RT @Liddellpool: Come on all #LFC fans   Walk on, walk on
With hope in your heart
And you'll never walk alone
You'll never walk alone",Sat May 05 16:05:54 +0000 2012
@Cbr6neem Just for a happy @Old_Nick_69 &amp; pleasant evening - please. #LFC #LFCWEMBLEY,Sat May 05 16:05:54 +0000 2012
Its sad how Ill have to follow FA cup final on twitter :( #cfc,Sat May 05 16:05:54 +0000 2012
"Tough game to call, but Daglish wrecks my head so Chelsea all the way! #FACupFinal xoxo",Sat May 05 16:05:54 +0000 2012
feel pretty proud when a song like that is sung #FACup,Sat May 05 16:05:55 +0000 2012
"RT @leesiemaszko: RT this pic plse reds fans, #FACupFinal #ChelseaScum #Disrespect #JFT96 #LFC #YNWA http://t.co/xQFWh8Kk",Sat May 05 16:05:54 +0000 2012
FA CUP - bam! #facup #liverpool #chelsea #football  @ Washington street http://t.co/I7C4PXRp,Sat May 05 16:05:55 +0000 2012
"10 minutes to the kick off. Prepare for the snacks, breath and water. It's going to be a roller coaster FINAL. #YNWA #FACupFinal",Sat May 05 16:05:55 +0000 2012
Come on @chelseafc! #CFC #COYB,Sat May 05 16:05:55 +0000 2012
Watching #FAcupfinal with mother.. Liverpool all the way bitches!! But Torres is yummy!! (: xx,Sat May 05 16:05:55 +0000 2012
@ARussell59 better view than you? :-P @ChowanCC @dazmuir_88 @spoon2023 @Lee_R_11 #FACup http://t.co/zaUzjaai,Sat May 05 16:05:54 +0000 2012
hoping the Reds take #FACup...cannot stand Chelski! #LFC,Sat May 05 16:05:55 +0000 2012
Nu eten #comeonchelsea #FACupFinal,Sat May 05 16:05:55 +0000 2012
I'm going for #CFC 1v3 #LFC,Sat May 05 16:05:55 +0000 2012
#LFC fan flag unfurls. Almost kick off. Still so surreal. #FACupFinal Game On! #YNWA!!!,Sat May 05 16:05:55 +0000 2012
Chelsea - Liverpool #FAcup,Sat May 05 16:05:55 +0000 2012
"@philmcnulty Not that I can think of. #hardfi
The 5.15 ko is bizarre too. It's turning into the Super Bowl #FACup",Sat May 05 16:05:55 +0000 2012
RT @soccerdotcom: Retweet if you think Chelsea will win the 2012 #FACup! #CFC,Sat May 05 16:05:55 +0000 2012
This girl is hot. #FACupFinal,Sat May 05 16:05:55 +0000 2012
Fa cup time! #cfc #lfc,Sat May 05 16:05:56 +0000 2012
Singer is FIT! #FACupFinal,Sat May 05 16:05:56 +0000 2012
Thank God we can't hear #Hard-Fi at the pre match... .shit band! #FACupFinal #ChelseaFC,Sat May 05 16:05:56 +0000 2012
RT @ESPNTVUK: 1: Ryan Giggs' goal against Arsenal #mufc #afc #facup,Sat May 05 16:05:56 +0000 2012
She's hot!! #FACupFinal,Sat May 05 16:05:56 +0000 2012
"RT @ESPNStatsInfo: Chelsea vs Liverpool, 12:15 ET in 131st #facupfinal (oldest soccer tournament in world). @LFC seeking 1st FA Cup titl ...",Sat May 05 16:05:56 +0000 2012
Great legs #facup,Sat May 05 16:05:56 +0000 2012
@markhoppus What's your prediction for the match? 2-1 Chelsea I reckon! #FACup,Sat May 05 16:05:56 +0000 2012
RT @futbolcentral: Final FA Cup :Chelsea vs Liverpool http://t.co/Os0DRWz9 @FutbolenlaMesa @LFC @chelseafc @NoticiasRCN @adncali @Chelse ...,Sat May 05 16:05:56 +0000 2012
"#FAcup on the radio, here at the coffeeshop.",Sat May 05 16:05:56 +0000 2012
Bring the cup home redmen!!! #YNWA #LFC,Sat May 05 16:05:57 +0000 2012
Still havent forgiven Steven Gerrard or Liverpool for 2006. Therefore I shall be supporting Chelsea for a day. #facup,Sat May 05 16:05:57 +0000 2012
This singer would get it #facup,Sat May 05 16:05:57 +0000 2012
"Red is the colour not blue, Come on you reds @LFC #FaCupFinal",Sat May 05 16:05:57 +0000 2012
Only just turned the #FACup on and 1 minute of listening to Adrian Chiles and I want to throw the remote through the tv! #itvareshit,Sat May 05 16:05:57 +0000 2012
At the pub watching the #facup. Go #Liverpool!,Sat May 05 16:05:57 +0000 2012
"#aseeekkk :D RT @hakimchircus @liverpool @LFC @LiverpoolWays Lihat perhatikan dengan baik, saya belum bisa berkomentar",Sat May 05 16:05:57 +0000 2012
C'mon u reds! #Lfc#JFT96,Sat May 05 16:05:57 +0000 2012
Wembley is red !! Come on boys #LFC #YNWA,Sat May 05 16:05:57 +0000 2012
match prediction : @chelseafc to completely destroy Liverpool ;),Sat May 05 16:05:57 +0000 2012
"Ok, ik ga dadelijk #facup finale missen omdat ik ga voetballen....",Sat May 05 16:05:57 +0000 2012
Who's that hottie? #FAcup,Sat May 05 16:05:57 +0000 2012
@lorlor1977 super Frankie Lanpard #cfc,Sat May 05 16:05:57 +0000 2012
You Will Never Walk Alone #LFC #SKRTEL http://t.co/FWBHVNiM,Sat May 05 16:05:57 +0000 2012
"#FACUP on #ESPN3D fanx @SkySportsin3D :) (watching FA Cup, The Final - Chelsea FC... S2012E14) http://t.co/F3oMHl5f",Sat May 05 16:05:57 +0000 2012
Fabrice Muamba Attending The Game At Wembley #LFC #FACup,Sat May 05 16:05:57 +0000 2012
Yer one singing the anthem us unreal!!#FACup,Sat May 05 16:05:57 +0000 2012
10 mins! #CFC,Sat May 05 16:05:57 +0000 2012
Muamba at Wembley.. #CFC #LFC #FACupFinal,Sat May 05 16:05:58 +0000 2012
Best stand up for this basket #FACupFinal,Sat May 05 16:05:58 +0000 2012
Come on @LFC we should win this #LFC #underdogs #FACupFinal,Sat May 05 16:05:58 +0000 2012
Who's the beaut singing? #FACupFinal,Sat May 05 16:05:58 +0000 2012
Come on your Chels! #FACupFinal,Sat May 05 16:05:58 +0000 2012
"What a lovely voice she has, I'd love to fuck it. #facup",Sat May 05 16:05:58 +0000 2012
She's fit!! #facupfinal #LFC,Sat May 05 16:05:58 +0000 2012
#CFCWEMBLEY,Sat May 05 16:05:58 +0000 2012
Good of the Chelsea fans not to boo Fabrice. #FACupFinal,Sat May 05 16:05:58 +0000 2012
Abide With Me. #FAcup time!,Sat May 05 16:05:58 +0000 2012
Nu klaar om de #FAcupfinal te kijken. Come on Reds!!!!,Sat May 05 16:05:58 +0000 2012
This singer woman isn't to bad #facup #iwould,Sat May 05 16:05:58 +0000 2012
Showing abit of leg that girl singing isn't she ! #facupfinal,Sat May 05 16:05:58 +0000 2012
Come on Chelsea! #FAcupfinal,Sat May 05 16:05:58 +0000 2012
What the fuck has the singing got to do with the #facup,Sat May 05 16:05:58 +0000 2012
That's a NewLook belt! #FACup,Sat May 05 16:05:58 +0000 2012
@shane_salt @chelseafc #FACupFinal #KTBFFH #CFCWEMBLEY #morefollowers. #chelseafc #FACupwinners http://t.co/Xj398V79,Sat May 05 16:05:58 +0000 2012
Come on liverpool #FAcup,Sat May 05 16:05:59 +0000 2012
Kutuk la. #CFC,Sat May 05 16:05:59 +0000 2012
RT @Linda_Pizzuti: The sun is shining on @LFC fans http://t.co/OaRLcIK5,Sat May 05 16:05:58 +0000 2012
come on blues!!keep the blue flag flying high @chelseafc,Sat May 05 16:05:59 +0000 2012
Hate both teams but come on Chelsea #FACupFinal,Sat May 05 16:05:59 +0000 2012
Abide with me... reduces me to tears every time... #cfc #facupfinal X,Sat May 05 16:05:59 +0000 2012
De piel chinita el You'll Never Walk Alone en Wembley... Go Reds!!! #LFC #YNWA. \o/,Sat May 05 16:05:59 +0000 2012
Come on Reds lets do these #FACup #LFC,Sat May 05 16:05:59 +0000 2012
Abide with me!!! #FACupFinal,Sat May 05 16:05:59 +0000 2012
Bloody hell she must be freezing #FACup,Sat May 05 16:05:59 +0000 2012
RT @Kastowoo: Liverpool #YNWA RT @Twibi_Worlds: Chelsea #CFC,Sat May 05 16:05:59 +0000 2012
"Why don't you give me a C
C!
H!
H!
E!
E!
L!
L!
S!
S!
E!
E!
A!
A!
Whose gonna win the FA Cup?
Chelsea,
@chelseafc",Sat May 05 16:05:59 +0000 2012
Fabrice Muamba gets a huge round of a applause as he appears on the big screens. #facup,Sat May 05 16:05:59 +0000 2012
RT @chelseafc: A picture of the team warming up... We'll kick-off in just under half an hour...#CFCWembley #FACupFinal (SL) http://t.co/ ...,Sat May 05 16:05:59 +0000 2012
