first_name,last_name
Juan to pull the strings.. 2-0 Chelsea Ramires and Droggers #MATA #DROGBA #RAMIRES #CFC,Sat May 05 16:03:00 +0000 2012
Racist rabbit starts for Liverpool. This is gonna be awesome (not really) #FaCupFinal,Sat May 05 16:03:00 +0000 2012
Keep the blue flag flying high @chelseafc... Will be watching from South Africa,Sat May 05 16:03:00 +0000 2012
This pre-match entertainment is cringe-worthy #facup,Sat May 05 16:03:00 +0000 2012
Kenny and the boy! @LFC @LFCTV http://t.co/US1EfCdm,Sat May 05 16:03:00 +0000 2012
i'll be supporting #LFC after #LuisSuarez redeemed himself with that chip against us last week. plus #CFC have the world's most odious fan,Sat May 05 16:03:00 +0000 2012
Come on #LFC  #FACupFinal #YNWA,Sat May 05 16:03:00 +0000 2012
Chelsea! #FACupFinal,Sat May 05 16:03:00 +0000 2012
RT @AmirahSyifa09 Chelseaa! Chelsea! Chelsea! #CFC,Sat May 05 16:03:00 +0000 2012
What's with the camp dancing! #facupfinal,Sat May 05 16:03:00 +0000 2012
what the fuck is with the dancers?? #facupfinal,Sat May 05 16:03:00 +0000 2012
Some of the worst pre match entertainment I've ever seen #facup,Sat May 05 16:03:00 +0000 2012
Hard-Fi are a shower of turds. #CFC #FACup,Sat May 05 16:03:00 +0000 2012
Anyone else see that girl outta place then in the dance thing looool #embarrasing #FaCupFinal,Sat May 05 16:03:00 +0000 2012
Cracking up at theses clowns dancing on the pitch in space suits #Facupfinal #comeonchelsea,Sat May 05 16:03:00 +0000 2012
Hard-Fi am shit! #fact #facupfinal,Sat May 05 16:03:00 +0000 2012
&lt;3 LFC #winloseordraw just put in 100%!  #LFC,Sat May 05 16:03:01 +0000 2012
What the hell is this stupid dance?!? #FACupFinal,Sat May 05 16:03:01 +0000 2012
what the FUCK is this stupid dance thing all about? #facupfinal,Sat May 05 16:03:01 +0000 2012
klo bukan @LFC / @liverpool yg bertanding ga gue bela2in ni nonton bareng lagi sakit gibmni ..,Sat May 05 16:03:01 +0000 2012
RT @solothang: Duuuuh #wembley ishapendezaaa cammon #blues,Sat May 05 16:03:01 +0000 2012
#FACUPFINAL just 15 mins away. #ComeOnCHELSEA #KTBFFH,Sat May 05 16:03:01 +0000 2012
What on earth is going on with this dancing? Bizarre! #LFC #CFC #FACup,Sat May 05 16:03:01 +0000 2012
#CFC,Sat May 05 16:03:02 +0000 2012
"""@jaimyvs: Nog een half uur tot ; Chelsea FC - Liverpool FC ! #facup"" welke zender?",Sat May 05 16:03:02 +0000 2012
#lfc v #cfc #facup could be a classic,Sat May 05 16:03:02 +0000 2012
Let's go! #CFC,Sat May 05 16:03:02 +0000 2012
LOOOL @ dese bacon foil dancers! Signs of things to come for olympic opening ceremony perhaps #FAcupfinal! #pants!,Sat May 05 16:03:02 +0000 2012
hilarious pre-match performance hope the match is at least as good #facupfinal,Sat May 05 16:03:02 +0000 2012
RT @empireofthekop: RT @duncanjenkinsFC: the #lfc team  reina johnson skrtl agger enrique spearing henderson gerrard downing bellamy suarez,Sat May 05 16:03:02 +0000 2012
Come on liverpool #FAcup,Sat May 05 16:03:02 +0000 2012
@Kropotkin_alias 3-1 here! #lfc,Sat May 05 16:03:02 +0000 2012
Listo para ver la final de la #FACup entre #Chelsea vs #Liverpool !!!,Sat May 05 16:03:02 +0000 2012
Is this dancing serious?! #facup,Sat May 05 16:03:03 +0000 2012
Wtf is with the retarded alien people?!?? #lfc #cfc #FACup,Sat May 05 16:03:03 +0000 2012
Bacofoil Festival dance troop at Wembley.. they must be roasting lol.. #FACupFinal,Sat May 05 16:03:03 +0000 2012
"Nearly kick off time, everyone got their milk yea? #FACupFinal",Sat May 05 16:03:03 +0000 2012
KORS I HERRENS NAMN KOM IGEN LIVERPOOL OCH KOM IGEN RANGERS! #FACUP #becauseitsthecup,Sat May 05 16:03:03 +0000 2012
Has Wembley Stadium been hit with a huge biohazard?! #FAcup,Sat May 05 16:03:03 +0000 2012
"RT @Eva_TWx: Steven Gerrard, Legend! #lfc",Sat May 05 16:03:03 +0000 2012
Blues all tha way... make me proud... #CFC http://t.co/f79Gv7PM,Sat May 05 16:03:03 +0000 2012
Blue is the color. #FACupFinal #CFC,Sat May 05 16:03:03 +0000 2012
Nervous for the match now #YNWA @LFC,Sat May 05 16:03:04 +0000 2012
#FACupFinal,Sat May 05 16:03:04 +0000 2012
"Cummon #lfc don't care about the pot, but care intensely that Chavski don't win anything this season!! #JustDoIt",Sat May 05 16:03:04 +0000 2012
#FACupFinal is that hard fi??!,Sat May 05 16:03:04 +0000 2012
RT @LFC: Liverpool supporters: best in the world http://t.co/T8KU5zSl,Sat May 05 16:03:04 +0000 2012
How stupid putting a stage on the pitch #FACupFinal,Sat May 05 16:03:04 +0000 2012
"How many Valium can I take before I overdose!! Nerves going to explode, killed dog and cat, kids are hiding!! #LFC #facupwinners2012",Sat May 05 16:03:04 +0000 2012
"RT @BeritaLFC: Walk on , walk on with hope in your heart &amp; YOU'LL NEVER WALK ALONE ! #LFC #Wem8ley #8elieve.",Sat May 05 16:03:04 +0000 2012
Final FA Cup : Chelsea vs Liverpool. May the best team win. #CFC #LFC,Sat May 05 16:03:04 +0000 2012
RT @LFC: Liverpool supporters: best in the world http://t.co/PEccyWgy,Sat May 05 16:03:05 +0000 2012
Come on #CFC if we match em for work rate we'll have this! #facupfinal,Sat May 05 16:03:05 +0000 2012
What on earth has happened to English football when pre-match entertainment is people dressed in tinfoil dancing. #FaCupFinal,Sat May 05 16:03:05 +0000 2012
"RT @GOAL_ID: Chelsea Subs: Turnbull, Essien, Torres, Malouda, Meireles, Ferreira, Sturridge. #FACup",Sat May 05 16:03:05 +0000 2012
"RT @LFC: RT @TitiCamara22: I hope LFC win the final, you fans are the greatest you deserve this #YNWA",Sat May 05 16:03:05 +0000 2012
come on you better win @LFC,Sat May 05 16:03:05 +0000 2012
RT @sportmaniaMNCTV: #FACupFinal Chelsea vs Liverpool. Prediksi?,Sat May 05 16:03:05 +0000 2012
Reds Army are ready!! Come on Liverpool!! YNWA #facup http://t.co/WcLFq1ZU,Sat May 05 16:03:05 +0000 2012
"#CFCWembley #FACupFinal 
gooo Bluesss.... http://t.co/dgKFEAVp",Sat May 05 16:03:05 +0000 2012
Come on boys @chelseafc,Sat May 05 16:03:05 +0000 2012
"This #FACup game.
I'm drinking tea instead of alcohol because I just don't care",Sat May 05 16:03:05 +0000 2012
Vamos #Gerrard #8....!!! A levantar esta #FAcup....!!!! CAPI...!!!,Sat May 05 16:03:05 +0000 2012
"Liverpool Subs (vs Chelsea): Doni, Maxi, Carroll, Carragher, Kelly, Shelvey, Kuyt. #FACup #Final",Sat May 05 16:03:05 +0000 2012
come on Liverpool #FACup,Sat May 05 16:03:05 +0000 2012
Come on #LFC let this be our golden sky at the end of a stormy season !!!,Sat May 05 16:03:05 +0000 2012
@dannymaconline LET'S BEAT THEM SCOUSERS! #CFC #FACupFinal,Sat May 05 16:03:05 +0000 2012
"Final de la FA cup, lets go #Liverpool #YNWA #LFC",Sat May 05 16:03:05 +0000 2012
"RT @GOAL_ID: Chelsea Subs: Turnbull, Essien, Torres, Malouda, Meireles, Ferreira, Sturridge. #FACup",Sat May 05 16:03:05 +0000 2012
COME ON CHELSEA!!!!!! #FACup,Sat May 05 16:03:05 +0000 2012
Come on liverpool #facupfinal,Sat May 05 16:03:06 +0000 2012
Come on Chelsea !!! #CFC #CupFinal,Sat May 05 16:03:06 +0000 2012
Try to stay awake for #FACupFinal .,Sat May 05 16:03:06 +0000 2012
RT @shane_salt:Asi esta Wmbley para la final. Come on your Chels! #FACupFinal #KTBFFH #CFCWEMBLEY http://t.co/QNtFHAsB,Sat May 05 16:03:06 +0000 2012
Some abject cunt has broken the tv in our mess room. I will kill for less #facup,Sat May 05 16:03:06 +0000 2012
cant wait for the #facup #final chelsea to win,Sat May 05 16:03:06 +0000 2012
Why the fuck is there some stupid Run DMC dance off happening? This is the #facupfinal not rhythmic gymnastics.,Sat May 05 16:03:06 +0000 2012
The reds are in the winning end! #facupfinal,Sat May 05 16:03:06 +0000 2012
RT @brynwilliams1: #lfc http://t.co/SVPXaj1p,Sat May 05 16:03:06 +0000 2012
actually starting to feel sick with nerves! #LFC,Sat May 05 16:03:06 +0000 2012
RT @shane_salt: Come on your Chels! #FACupFinal #KTBFFH #CFCWEMBLEY http://t.co/lIRP8Ajr,Sat May 05 16:03:06 +0000 2012
@OfficialTekkers 44:55 #CupFinalTekkers #CupFinal #LFC #CFC,Sat May 05 16:03:06 +0000 2012
Come on chelsea#CFC,Sat May 05 16:03:07 +0000 2012
RT @BareWhite: RT @som1twisted: RT @BareWhite: #LFC #LFC #LFC #LFC #LFC #LFC #LFC #LFC #LFC. THE REDS.!!! I BLEED RED.!!!,Sat May 05 16:03:06 +0000 2012
@chelseafc give us a shout out for all the blues at The Bridge!!!!!!! CAAARRREEEEEFREEEEEE,Sat May 05 16:03:07 +0000 2012
"today u guyz are, ""@Mr_Benzene: You'll Never Walk Alone. #LFC""",Sat May 05 16:03:07 +0000 2012
Butttterrrfffflllliiiesss! Come on LIVERPOOL!!! #qyesihavemyscarfoninthepub #YNWA #LFC #FACUPFINAL,Sat May 05 16:03:07 +0000 2012
"When you walk through a storm, hold your head up high &amp; don't be afraid of the dark #FACupFinal",Sat May 05 16:03:07 +0000 2012
RT @adidasUK Will it be  #RightUpDOWNINGSStreet or #WhoLetTheDROGout YOU Decide @chelseafc fans vs @LFC fans #FaCUPfinal #takethestage RT RT,Sat May 05 16:03:07 +0000 2012
"@peterknaggs Gettting so fucking excited right now.
#YNWA
#FACupFinal",Sat May 05 16:03:06 +0000 2012
#YNWA RT @LFC: Liverpool supporters: best in the world http://t.co/BHJefwiO,Sat May 05 16:03:07 +0000 2012
#FACupFinal #lfc #ynwa  http://t.co/q9Ppoacy,Sat May 05 16:03:07 +0000 2012
"Not confident about this game, but will always stand by Liverpool #LFC",Sat May 05 16:03:07 +0000 2012
Who the hell sorts the pre match entertainment. Dancers on the pitch? Its not SCD???? #FACup #FACupFinal,Sat May 05 16:03:07 +0000 2012
What the hell?! #FACupFinal,Sat May 05 16:03:07 +0000 2012
.RT @Linda_Pizzuti The sun is shining on @LFC fans http://t.co/JHjjnBYs,Sat May 05 16:03:07 +0000 2012
COME ON YOU RED MEN!!! #LFC #LFCWEMBLEY #YNWA,Sat May 05 16:03:07 +0000 2012
Come on the @ChelseaFC time to smash them home! #FAcup,Sat May 05 16:03:07 +0000 2012
"RT @StringerSport: Will watch the #facupfinal with envy today. Really thought #lcfc would get there. Shame, great sandwiches at Wembley too",Sat May 05 16:03:07 +0000 2012
RT @chelseafc: A picture of the team warming up... We'll kick-off in just under half an hour...#CFCWembley #FACupFinal (SL) http://t.co/ ...,Sat May 05 16:03:07 +0000 2012
Minutes from FA Cup kick-off. Come on you Redmen #FACup,Sat May 05 16:03:07 +0000 2012
Pre-game entertainment. Let us watch it you Twats! #FACupFinal,Sat May 05 16:03:08 +0000 2012
"blue is the colour, football is the game. we're all together and winning is our aim! go @chelseafc! #CFC #FACup",Sat May 05 16:03:08 +0000 2012
Go fight @chelseafc :-),Sat May 05 16:03:08 +0000 2012
RT @shane_salt: Come on your Chels! #FACupFinal #KTBFFH #CFCWEMBLEY http://t.co/lIRP8Ajr,Sat May 05 16:03:08 +0000 2012
Bellamy first goal scorer and liverpool to win 3-2 .... 285/1     #youhearditherefirst #LFC,Sat May 05 16:03:08 +0000 2012
If Chelsea win today I'm going to egg Di Matteo's house when I get home!! #LFC #CFC #YNWA,Sat May 05 16:03:08 +0000 2012
is this opening show rubbish or is it me! #facup,Sat May 05 16:03:08 +0000 2012
Come on the Redmen send them shit fans home crying like they deserve! #LFC #FACup,Sat May 05 16:03:08 +0000 2012
"Common Liverpool, YNWA!! #FACupFinal #LFC",Sat May 05 16:03:08 +0000 2012
Cuuuuuuum on u reds lts do ths xxx #lfc #ynwa #jft96 xxx,Sat May 05 16:03:08 +0000 2012
it's all about #didier at wembley! let's go #cfc &lt;3,Sat May 05 16:03:08 +0000 2012
Hard Fi at the #FaCupFinal? Fuck off.,Sat May 05 16:03:08 +0000 2012
Daria lo que fuera por estar en #Wembley,Sat May 05 16:03:08 +0000 2012
The blue vs The Reds... #ComeOnReds #FACupFinal #YNWA,Sat May 05 16:03:08 +0000 2012
@pornstarKiki same here! Are you an #LFC fan? That's so sexy!,Sat May 05 16:03:08 +0000 2012
"RT @JacksealMUFC: This rt ""@scfcjordanwwe: Don't care who wins, hate both teams #FACup""",Sat May 05 16:03:09 +0000 2012
#FACupFinal. Let's do this. Predictions?,Sat May 05 16:03:09 +0000 2012
Bandingkan @chelseafc deng KANGEN BAND ALAY itu... #ooeeekkkk,Sat May 05 16:03:09 +0000 2012
What the HELL is this dance routine thing on the #facup final!??!,Sat May 05 16:03:09 +0000 2012
#facupfinal,Sat May 05 16:03:09 +0000 2012
Is that the Can't Get You Out Of My Head video? #facup,Sat May 05 16:03:09 +0000 2012
more nervous about the #FACupFinal than I was for my exam! Come on Liverpool!!,Sat May 05 16:03:09 +0000 2012
C'mon #LFC #FACup gunna be interesting to see #Torres cry at final whistle!,Sat May 05 16:03:09 +0000 2012
"RT @dailypostngr: #Chelsea: Cech; Bosingwa, Ivanovic, Terry, Cole; Mikel, Lampard; Ramires, Mata, Kalou; Drogba. #FACup",Sat May 05 16:03:09 +0000 2012
"Blimy, is this match ever going to start? #FACup",Sat May 05 16:03:09 +0000 2012
#CFC can't think of a better stage to destroy the scouse scum,Sat May 05 16:03:09 +0000 2012
#lfc my first fa cup final come on u reds!!! http://t.co/R8EV3YLv,Sat May 05 16:03:09 +0000 2012
Come On Chelsea ... #CFC ...,Sat May 05 16:03:09 +0000 2012
"RT @GOAL_ID: Chelsea Subs: Turnbull, Essien, Torres, Malouda, Meireles, Ferreira, Sturridge. #FACup",Sat May 05 16:03:09 +0000 2012
RT @shane_salt: Come on your Chels! #FACupFinal #KTBFFH #CFCWEMBLEY http://t.co/ZqWb3O9j,Sat May 05 16:03:10 +0000 2012
"Don't actually know what channel will be worse to watch this game on, ITV or ESPN?? #FACupFinal",Sat May 05 16:03:10 +0000 2012
COME ON THE CHELS!!! #CFC #UTC #FACupFinal #FuckYourHistoryWereToMunich,Sat May 05 16:03:10 +0000 2012
#facup what is this performance wtf,Sat May 05 16:03:10 +0000 2012
Looking for #LFC to take home another cup today! #beatchelsea! #neverwalkalone,Sat May 05 16:03:10 +0000 2012
Because of some my Female followers that are so loving and @LFC i'm considering doing a surprise visit to the Uk before the end of the Year,Sat May 05 16:03:10 +0000 2012
"How crap is the pre match theatrics "".. This ain't the super bowl #FACupFinal",Sat May 05 16:03:10 +0000 2012
"@Fitzyfella 

Hairs on the back of yer neck.... WoW!

#Liverpool #LFC #YNWA #JFT96",Sat May 05 16:03:10 +0000 2012
CMON CHELSEA! Make it blues night tonight! #CFC,Sat May 05 16:03:10 +0000 2012
I really really really really hope we win this. It's been a pretty dire season with a whole lot of lows. Be great to finish on a high! #LFC,Sat May 05 16:03:10 +0000 2012
RT @kanpongsiri: Keep The Blue Flag Flying High !! #cfc #cfcthai,Sat May 05 16:03:10 +0000 2012
Few more minutes to kick-off. Stay tuned! #facup #lfc #cfc,Sat May 05 16:03:10 +0000 2012
@LFC time for fa cup #moresilverware,Sat May 05 16:03:10 +0000 2012
This Is Blue @chelseafc,Sat May 05 16:03:10 +0000 2012
Chelsea vs liverpool   #FACUP  #gochelsea,Sat May 05 16:03:10 +0000 2012
Go Chelsea ! #CFC,Sat May 05 16:03:11 +0000 2012
FA Cup Final. Who will prevail? #LFC or #CFC,Sat May 05 16:03:11 +0000 2012
"""@maxsnowdon: C'mon Chelsea #facup #magic"" #dick",Sat May 05 16:03:11 +0000 2012
Oooh that #FACup final ball is nice :D,Sat May 05 16:03:11 +0000 2012
Jesus Christ this pre-kick off dancing shit is embarrassing and Hard Fi look and sound like a ball sack #FACup,Sat May 05 16:03:11 +0000 2012
Adrian Chiles stop chatting over Hard-Fi please! #FACupFinal,Sat May 05 16:03:11 +0000 2012
Go Reds! Go Liverpool! @LFC,Sat May 05 16:03:11 +0000 2012
Fuck these COCKNEY PLASTIC TWATS...you ain't got no history 5 European Cups n 18 Leagues THAT'S WHAT WE CALL HISTORY #LFC #YNWA,Sat May 05 16:03:11 +0000 2012
All rushing to Big Screen for #FACup final. Expect @JayTigerHalim to score a hat-trick! #fantasybadminton watching #fantasyfootball,Sat May 05 16:03:11 +0000 2012
'bacofoil festival dance troop' oh god :')  #facup,Sat May 05 16:03:11 +0000 2012
You'll Never Walk Alone!! #LFC,Sat May 05 16:03:11 +0000 2012
"Right, let's have it now, COME ON RED MEN!!!!! #LFC #FACUP",Sat May 05 16:03:11 +0000 2012
@Ellie_Nufc I think watching kenny getting interviewed just makes me realise it even more. #LFC are an awful football club.,Sat May 05 16:03:12 +0000 2012
@littlegoldi we're they on tv haha #LFC #LFC #FACupFinal,Sat May 05 16:03:12 +0000 2012
"Fuck off Chelsea FC, you ain't got no history, 5 European Cups n 18 Leagues now that's what we call history!! #lfc",Sat May 05 16:03:12 +0000 2012
#facup which will be better to watch - ITV or ESPN? Gordon Strachan is Ok on ITV but hate their commentators.,Sat May 05 16:03:12 +0000 2012
Aw you'll never walk alone is trending :) #facup,Sat May 05 16:03:12 +0000 2012
Come on redmen!!! #lfc,Sat May 05 16:03:12 +0000 2012
Now all I need is a Chelsea win #FACupFinal,Sat May 05 16:03:12 +0000 2012
#YNWA #LFC,Sat May 05 16:03:12 +0000 2012
RT @soccerdotcom: Retweet if you think Chelsea will win the 2012 #FACup! #CFC,Sat May 05 16:03:12 +0000 2012
BIGREDS!! @LFC @BIGREDS_IOLSC #YNWA #Jakarta http://t.co/3m3zmD3V,Sat May 05 16:03:12 +0000 2012
RT @CarloFan: Terry asked FA Cup/CL with Chelsea or Euro Championship. He chose CHELSEA! (ITV) #CFC,Sat May 05 16:03:12 +0000 2012
Sat in a house full of scousers. Come on LIVERPOOL #LIVERPOOL #LFC,Sat May 05 16:03:12 +0000 2012
If I had to chose a winner for tonights #facup final I would hope football is the winner #willneversupportthesesides,Sat May 05 16:03:12 +0000 2012
"Sitting in the pub with a fellow liverpool fan, three chelsea fans and two spurs. It could be a long night! Come on Red Men!! #LFC",Sat May 05 16:03:12 +0000 2012
@Elynaz *waves plastic flag at you!!!* :D #YNWA #LFC,Sat May 05 16:03:13 +0000 2012
"FA CUP FINALS, CHELSEA VS LIVERPOOL! #CFC",Sat May 05 16:03:13 +0000 2012
@GlenStefanHands #lfc #YNWA,Sat May 05 16:03:13 +0000 2012
@LFC let bring another trophy home YNWA,Sat May 05 16:03:13 +0000 2012
RT @soccerdotcom: Retweet if you think Chelsea will win the 2012 #FACup! #CFC,Sat May 05 16:03:13 +0000 2012
RT @reemshahwa: Moment of truth in 15 mins! Nervous #FACup,Sat May 05 16:03:13 +0000 2012
@sjball1951 @foxter6576 that is so true!! Down to the park and I remember wanting to be jeff Astle!! Good old days!! #FAcup,Sat May 05 16:03:13 +0000 2012
RT @akadej: Come On Liverpool!!! ... Please RETWEET if you support LIVERPOOL!!! ... #LFC #FACupFinal,Sat May 05 16:03:13 +0000 2012
@LFC You'll never walk alone.........,Sat May 05 16:03:13 +0000 2012
Hard Fi laying the tunes down thick and heavy. #facup #sarcasm,Sat May 05 16:03:13 +0000 2012
Come on Chelsea! #facup,Sat May 05 16:03:13 +0000 2012
Time to watch @chelseafc bring home the cup! #FACup #IBleedBlue,Sat May 05 16:03:13 +0000 2012
#YNWA RT @LFC: Liverpool supporters: best in the world http://t.co/9t6vaiRn,Sat May 05 16:03:13 +0000 2012
RT @LFC: Liverpool supporters: best in the world http://t.co/NRxcaEkv,Sat May 05 16:03:13 +0000 2012
RT @TheRedmenTV: Who wants to see Martin Skrtel preparing to smash Fernando Torres? Watch and enjoy... http://t.co/2KBbLpMG #LFC #cfc,Sat May 05 16:03:13 +0000 2012
@CISCbekasi Jhon Terry hati-hati dengan Daifing seorang Suarez #Opinigue #KTBFFH #CFC,Sat May 05 16:03:14 +0000 2012
ESPN for me as well. Can't stick ITV. #FACupFinal,Sat May 05 16:03:14 +0000 2012
"En Wembley cantando You'll never walk alone, llegador, cancion de Elvis adoptada como himno para @LFC.",Sat May 05 16:03:14 +0000 2012
Silver shell suits in honour of the scousers at #FACUPFINAL,Sat May 05 16:03:14 +0000 2012
"RT @BeritaLFC: Walk on , walk on with hope in your heart &amp; YOU'LL NEVER WALK ALONE ! #LFC #Wem8ley #8elieve.",Sat May 05 16:03:14 +0000 2012
"Welp, here he go. #LFC",Sat May 05 16:03:14 +0000 2012
"Oh and ITV, but not STV. Brilliant. #FACupFinal",Sat May 05 16:03:14 +0000 2012
Watching Now Cheslsea Vs. Liverpool !! #FINAL #FACUP,Sat May 05 16:03:14 +0000 2012
Appalling pre match show #FACup,Sat May 05 16:03:14 +0000 2012
#FAcup,Sat May 05 16:03:14 +0000 2012
"""Is it (Cup Final) more nerve-wracking as a manager?"" ... Di Matteo smiles. ""Absolutely"". #cfc #gent",Sat May 05 16:03:15 +0000 2012
"Nerves and excitement, kick off so soon, c'mon you Reds!!! YNWA #FACupFinal #LFC",Sat May 05 16:03:15 +0000 2012
Chelsea make us proud plz #cfc,Sat May 05 16:03:15 +0000 2012
Come on red men #lfc #ynwa #jft96,Sat May 05 16:03:15 +0000 2012
"Excited- check, Prayer-check, Nerves-check ....I am ready for the red revolution! Get it done @LFC #Wembleybaby #YNWA",Sat May 05 16:03:15 +0000 2012
So it is #FACupFinal time and I'm not sure who to back (hate both teams). I'll play it safe and go for Drogba to score and Chelsea to win,Sat May 05 16:03:15 +0000 2012
Bloody hell - hope the olympic dancers are better than this lot #facup,Sat May 05 16:03:16 +0000 2012
"Se viene la final de la #FACup entre #Liverpool - #Chelsea. Por ESPN desde Wembley, Londres.",Sat May 05 16:03:16 +0000 2012
RT @liamunion: Blue is the colour football is the game were all together and winning is our aim come on chelseaaaaaa #cfc,Sat May 05 16:03:15 +0000 2012
What is this silver dancer shit? Why can't the #facup be on BBC,Sat May 05 16:03:16 +0000 2012
come on you blues! #cfc,Sat May 05 16:03:16 +0000 2012
RT @shane_salt: Come on your Chels! #FACupFinal #KTBFFH #CFCWEMBLEY http://t.co/lIRP8Ajr,Sat May 05 16:03:16 +0000 2012
#CFC For The Win!!!,Sat May 05 16:03:16 +0000 2012
Feeling Confident With A Large Pint! #YNWA #ComeYouReds #LFC  http://t.co/xP7Gu0Op,Sat May 05 16:03:16 +0000 2012
RT @FIFAcom: RT if you would like @ChelseaFC to win the FA Cup Final today #CFC #LFC #CFCWembley #FACupFinal,Sat May 05 16:03:16 +0000 2012
"RT @juicyblurred: I Support The Best Football Club In UK, #LFC #YNWA",Sat May 05 16:03:16 +0000 2012
#CFC #FACupFinal #LetsGetIt,Sat May 05 16:03:16 +0000 2012
"Come on, lads. This is it. #lfc",Sat May 05 16:03:16 +0000 2012
RT @chelseafc: RT @shane_salt: Come on your Chels! #FACupFinal #KTBFFH #CFCWEMBLEY http://t.co/9Ho71Vvv,Sat May 05 16:03:16 +0000 2012
Come on Chelsea!! #FACupFinal,Sat May 05 16:03:16 +0000 2012
Come on you Blues! #CFC #FACupfinal,Sat May 05 16:03:17 +0000 2012
One of the best parts about being home for this wedding is we have Fox Soccer... Which means I get to watch Chelsea live this week! #FACup,Sat May 05 16:03:17 +0000 2012
"RT @manunited4everr: #Chelsea to win 2-1. #Drogba, #Mata to score for #cfc.  #Prediction #FACup",Sat May 05 16:03:17 +0000 2012
Right....  Beer and Snacks time...... I'm facking excited #CFC,Sat May 05 16:03:17 +0000 2012
What the shitting crikey is this robot dancing? #FACupFinal,Sat May 05 16:03:17 +0000 2012
@TheDarrenDunbar yep #Lfc still living in it,Sat May 05 16:03:17 +0000 2012
@max_rogers Liverpool ! :) #YNWA #FACup,Sat May 05 16:03:17 +0000 2012
RT @shane_salt: Come on your Chels! #FACupFinal #KTBFFH #CFCWEMBLEY http://t.co/lIRP8Ajr,Sat May 05 16:03:17 +0000 2012
@LFC @luis16suarez @SebastianCoates YOU'LL NEVER WALK ALONE!! Vamo arriba hoy uruguayos!!,Sat May 05 16:03:17 +0000 2012
menos de 10 minutos para que empiece el partido Liverpool vs Chelsea Final de Copa FA. #FACupFinal,Sat May 05 16:03:17 +0000 2012
Come on RED MEN!!! #LFC #FACupFinal #lfcwembley #DontBuyTheSun,Sat May 05 16:03:17 +0000 2012
These dancers are so shit haha #FACup,Sat May 05 16:03:17 +0000 2012
What is up with these #TinFoilWankers ? #FACUP,Sat May 05 16:03:17 +0000 2012
#Wembley es hermoso.,Sat May 05 16:03:17 +0000 2012
"Hate liverpool, hate Chelsea.. Just sit back an watch the battle of the racists #facup #arsed #scum",Sat May 05 16:03:17 +0000 2012
is rooting for Liverpool tonight. #FAcup,Sat May 05 16:03:17 +0000 2012
I think we should build the Wembley of the North. The home of football. Why should London get all this money. Wembley is a circus. #facup,Sat May 05 16:03:17 +0000 2012
RT @chelseafc: You can follow all the action by clicking on the live coverage tab right here http://t.co/UyqvckuQ #CFCWembley #FACupFina ...,Sat May 05 16:03:17 +0000 2012
RT @Linda_Pizzuti: The sun is shining on @LFC fans http://t.co/OaRLcIK5,Sat May 05 16:03:17 +0000 2012
These dancers are ridiculous. #FAcupfinal,Sat May 05 16:03:17 +0000 2012
@chris_sauro is it a full house? #FAcupfinal,Sat May 05 16:03:17 +0000 2012
"Hard-Fi, I ask you. #facup",Sat May 05 16:03:17 +0000 2012
RT @connorpogson: One tweet for the next 2 hours...just to say COME ON YOU POOL!!! #YNWA #FACupFinal #LFC,Sat May 05 16:03:17 +0000 2012
RT @empireofthekop I am suppose to be silent ok I will be silent COME ON REDS #FACupFinal,Sat May 05 16:03:17 +0000 2012
Hard-Fi? Aahahahahaha still pushing songs from over 4 years ago #facup,Sat May 05 16:03:18 +0000 2012
The picture quality on ESPN HD (via Virgin Media) is incredible #FACup,Sat May 05 16:03:17 +0000 2012
What's all this dancing around bollocks? #facup,Sat May 05 16:03:18 +0000 2012
Wtf is going on lol#FACUP,Sat May 05 16:03:18 +0000 2012
Scenario: #lfc go behind... Question: how long before they mention Istanbul? I'll go for 60 seconds #facupfinal come on #chelsea,Sat May 05 16:03:18 +0000 2012
RT @LFC: Liverpool supporters: best in the world http://t.co/SgakdP6W,Sat May 05 16:03:18 +0000 2012
"Chelsea to win today, I'm a newcastle supporter and do not want carroll or enrique to lift the trophy #facupfinal",Sat May 05 16:03:18 +0000 2012
We'll keep the blue flag high #CFC #CFCWembley,Sat May 05 16:03:18 +0000 2012
What on earth is this camp silver preshow? #facupfinal,Sat May 05 16:03:18 +0000 2012
#FACUPFINAL Chelsea vs Liverpool #eredivisielive #cheliv,Sat May 05 16:03:17 +0000 2012
RT @LFC: Liverpool supporters: best in the world http://t.co/ETxgUqFx,Sat May 05 16:03:18 +0000 2012
@MellyChaps Who do you want to win ? #FACup,Sat May 05 16:03:18 +0000 2012
Come on #CFC! not including John terry,Sat May 05 16:03:18 +0000 2012
Come on the Reds... #lfc #ynwa http://t.co/2zXSa5Ml,Sat May 05 16:03:18 +0000 2012
pizza in oven ready to watch @chelseafc kick liverpools ass,Sat May 05 16:03:19 +0000 2012
"RT @dailypostngr: #Liverpool: Reina; Johnson, Skrtel, Agger, Jose Enrique; Spearing, Henderson; Downing, Gerrard, Bellamy; Suarez. #FACup",Sat May 05 16:03:18 +0000 2012
"RT @umbro: To win signed Andy Carroll Speciali boots, just RT this message before the end of today's  #FACup http://t.co/IkzoqS6m!!",Sat May 05 16:03:19 +0000 2012
NERVOUS. Come on @LFC,Sat May 05 16:03:19 +0000 2012
RT @shane_salt: Come on your Chels! #FACupFinal #KTBFFH #CFCWEMBLEY http://t.co/lIRP8Ajr,Sat May 05 16:03:19 +0000 2012
15 minutes and counting. Come on the Reds. #ynwa #lfc,Sat May 05 16:03:19 +0000 2012
Right I'm logging out for now. Ciao for now &amp; C'mon #LFC,Sat May 05 16:03:19 +0000 2012
what omg #facup,Sat May 05 16:03:19 +0000 2012
"Chat at half time , enjoy the 1st half #LFCFamily ! Go REDS, #LFC the most successful club in the UK!",Sat May 05 16:03:19 +0000 2012
This #facup opening must be an example of how crap the opening to #london2012 is likely to be #yah?,Sat May 05 16:03:19 +0000 2012
so nervous...come on #LFC #YNWA,Sat May 05 16:03:19 +0000 2012
Enlaces para ver el partido por internet: http://t.co/myY90kgp  #CFC #CFCWembley,Sat May 05 16:03:19 +0000 2012
Come on Liverpoolfc #FACupFinal,Sat May 05 16:03:19 +0000 2012
Pinches nervios. #FACupFinal,Sat May 05 16:03:19 +0000 2012
"RT @CharlesYoung23: Scum of the earth, thick as fuck and they hold there scarves upside down. #LFC",Sat May 05 16:03:19 +0000 2012
RT @AlyaNatashaaa: Supporting #CFC tonight!,Sat May 05 16:03:19 +0000 2012
Come on you Reds! #FACup,Sat May 05 16:03:20 +0000 2012
Those dancers look fucking stupid #facup,Sat May 05 16:03:20 +0000 2012
Neither sets of fans deserve this...polite applause all round! If only?!?!? #nufc #lfc #cfc,Sat May 05 16:03:20 +0000 2012
Go Reds! #LFC,Sat May 05 16:03:20 +0000 2012
RT @shane_salt: Come on your Chels! #FACupFinal #KTBFFH #CFCWEMBLEY http://t.co/lIRP8Ajr,Sat May 05 16:03:20 +0000 2012
Liverpool best win today! #facupfinal,Sat May 05 16:03:20 +0000 2012
Menjelang kick off ne tweeps starting XI cech-bosingwa-ivanovic-terry-cole-ramires-mikel-lamps-kalou-mata-drogba #FAcup,Sat May 05 16:03:20 +0000 2012
Come on you RED MEN #Liverpool #facupfinal,Sat May 05 16:03:21 +0000 2012
@StarSportLive #FAcup #YNWA | masih @BaronsCafe-Jaksel,Sat May 05 16:03:21 +0000 2012
Come on you Red Men!!! #lfc #ynwa,Sat May 05 16:03:21 +0000 2012
"Blanket out, fire going. #FACup time at 2 am on a chilly Tassie morning! This is real football.",Sat May 05 16:03:21 +0000 2012
RT @shane_salt: Come on your Chels! #FACupFinal #KTBFFH #CFCWEMBLEY http://t.co/lIRP8Ajr,Sat May 05 16:03:21 +0000 2012
RT @ninanaka: RT @LFC: Liverpool supporters: best in the world http://t.co/VIMjVh6k,Sat May 05 16:03:21 +0000 2012
RT @AdamWoodyatt: I wasn't this nervous before the #EastEnders live episode!! Guess that's the magic of #FACupFinal Come on redmen #YNWA,Sat May 05 16:03:21 +0000 2012
So many scenarios running through my head. If we win if we lose. Dramatic last minute goals. Penalties? Extra time? Fuck. #FACupFinal,Sat May 05 16:03:21 +0000 2012
RT @Simone_91x: @Jordan7Virgo converted fan! #YNWA #LFC #facupfinal @KatieRussell_ http://t.co/a3WX6LoX,Sat May 05 16:03:21 +0000 2012
"Sometimes I hate football for making me feel like this,ummm if I'd discovered ballet first! #FACupfinal",Sat May 05 16:03:21 +0000 2012
wtf are these people doing prancing around in their foil looking onezies!! #FAcupfinal,Sat May 05 16:03:21 +0000 2012
"Excluding the Community Shield, Didier Drogba has scored in all seven of his matches at Wembley #fact #CFC",Sat May 05 16:03:21 +0000 2012
"out to watch my lovely team @chelseafc in FA cup final...blue is the color, football is the game and chelsea gonna win it..yeah!!#FACupFinal",Sat May 05 16:03:22 +0000 2012
"RT @rickedwards1: enjoyed that film about John Terry. The only way it could've been better is if the VO said ""And don't forget - he is a ...",Sat May 05 16:03:22 +0000 2012
What the fuck is this? #FAcupFinal,Sat May 05 16:03:22 +0000 2012
Hurrah for #barnetfc! Yet another survival under the helm of Martin Allen for the bees!! Now let's just hope that #LFC lift the #facup 2nite,Sat May 05 16:03:22 +0000 2012
RT @shane_salt: Come on your Chels! #FACupFinal #KTBFFH #CFCWEMBLEY http://t.co/lIRP8Ajr,Sat May 05 16:03:22 +0000 2012
"Giro turned off (hmph!), #FACup on. Just getting into it and mother in law says ""got no beer!"" Now sent to offy. *sigh* still, free beer!",Sat May 05 16:03:22 +0000 2012
Noone in that crowd gives a shit about HardFi or children dressed in tin foil #FACupFinal,Sat May 05 16:03:22 +0000 2012
@cockersjr76 The bet is on bruv #FACupfinal #LFC :P x,Sat May 05 16:03:22 +0000 2012
"""@shane_salt: Come on your Chels! #FACupFinal #KTBFFH #CFCWEMBLEY http://t.co/zWPHyBR7""",Sat May 05 16:03:22 +0000 2012
Listo para ver la final de la #FACup @chelseafc vs #Liverpool por @FOXDeportes,Sat May 05 16:03:22 +0000 2012
#FAcupfinal #hardfi lol shit band,Sat May 05 16:03:22 +0000 2012
What ever will be will be..come on lads #YNWA #LFC,Sat May 05 16:03:22 +0000 2012
#FACup Final #CFC #LiverpoolFC #Liverpool #ChelseaFC :D,Sat May 05 16:03:22 +0000 2012
Sera ver la Final de la #FAcup..,Sat May 05 16:03:22 +0000 2012
Come on you bluessssssss @chelseafc #needtowinsoicangoouttonight http://t.co/9zjOnGvH,Sat May 05 16:03:23 +0000 2012
Pre-match dancers at Wembley what a load of crap. Get off the pitch #facup,Sat May 05 16:03:23 +0000 2012
Todo listo para el @ChelseaFC vs @LFC!!!!!! Vamos #Liverpool!!!!!!!!!!!!!!,Sat May 05 16:03:23 +0000 2012
#Gerrard and #Suarez was a good decision. Liking this starting XI overall. #LFC,Sat May 05 16:03:23 +0000 2012
Absolutely buzzin for this match! Cmon Liverpool :) #LFC #FACup,Sat May 05 16:03:23 +0000 2012
RT @shane_salt: Come on your Chels! #FACupFinal #KTBFFH #CFCWEMBLEY http://t.co/lIRP8Ajr,Sat May 05 16:03:23 +0000 2012
"What can I say, we're not a one-dimensional team! RT @Tsobela: U left out crying years b4 u die ...  #LFC",Sat May 05 16:03:23 +0000 2012
Hard Fi sound awful. #FACupFinal,Sat May 05 16:03:23 +0000 2012
#YNWA #LFC #ComeOnReds #FACupFinal #Liverpool,Sat May 05 16:03:23 +0000 2012
What is this floundering going on at wembley before #FACupFinal? Kids in shiny karate gi. #lame,Sat May 05 16:03:23 +0000 2012
Walk on with hope in your hearts #YNWA #LFC,Sat May 05 16:03:23 +0000 2012
RT @soccerdotcom: Retweet if you think Liverpool will win the 2012 #FACup! #LFC,Sat May 05 16:03:23 +0000 2012
"@LargosShark Quite literally mate! Moving on now, got an FA Cup final coming up and #LFC to support.",Sat May 05 16:03:23 +0000 2012
This dance is horrendous!!!! #wembley,Sat May 05 16:03:23 +0000 2012
"BINGO McBRIDE! The hendersons, the Spearings.... Can #LFC hold up that middle??"" #FACupFinal",Sat May 05 16:03:23 +0000 2012
"Tonight, my money is on Chelsea. No, wait. Uhmm. Definitely Chelsea. #facup",Sat May 05 16:03:23 +0000 2012
Chelsea shirt is on! Go #CFC !,Sat May 05 16:03:23 +0000 2012
RT @shane_salt: Come on your Chels! #FACupFinal #KTBFFH #CFCWEMBLEY http://t.co/lIRP8Ajr,Sat May 05 16:03:24 +0000 2012
@ollred92 other way round blud! #LFC,Sat May 05 16:03:24 +0000 2012
time to watch the #facupfinal fancy a #lfc win today,Sat May 05 16:03:24 +0000 2012
RT @shane_salt: Come on your Chels! #FACupFinal #KTBFFH #CFCWEMBLEY http://t.co/lIRP8Ajr,Sat May 05 16:03:24 +0000 2012
"@CecyBadu Hey simia!, gran e importante dia, right now @chelseafc  FC VS Liverpool FA CUP FINAL!!!!!!",Sat May 05 16:03:24 +0000 2012
"RT @chelseafc: Team v Liverpool: Cech; Bos, Iva, JT (c), Cole; Mik, Lamps; Ram, Mata, Kal; Drog.  #CFCWembley #FACupFinal. (SL)",Sat May 05 16:03:24 +0000 2012
#facupfinal What's all this poncing around in silver suits on the pitch?,Sat May 05 16:03:24 +0000 2012
Come on chelsea make it a blue day #cfc,Sat May 05 16:03:24 +0000 2012
My #facup prediction is...it's going to be dull! Two teams with decent defences and both play quite narrow #cfc #lfc #queenkenny,Sat May 05 16:03:24 +0000 2012
"C'mon Liverpool! Bring home a double! You'll never walk alone!
#facup #ynwa",Sat May 05 16:03:24 +0000 2012
@LFC I'm the best supporter hahaha! http://t.co/XCzufyDs,Sat May 05 16:03:25 +0000 2012
Hoy a Ganar La #FACup Vamos Chelsea!!!!!!!!! #ChelseaFc a ganar!!!!! @Chelseafc todo mi apoyo desde Venezuela!!!!! y despues la #Champions,Sat May 05 16:03:25 +0000 2012
"@chelseafc Im ready to watch the game, support from Colombia. go blues #FACupFinal",Sat May 05 16:03:25 +0000 2012
"why are they filming a kylie minogue  music video, to HardFi  on the FA cup final pitch  ? #FAcup",Sat May 05 16:03:25 +0000 2012
"RT @JamesAshby180: So Terry would rather win the CL with Chelsea than the Euros with England? Hodgson, fuck him off!!! #england #facupfi ...",Sat May 05 16:03:25 +0000 2012
"RT @ESPNTVUK: Liverpool team: Reina, Johnson, Agger, Skrtel, Enrique, Gerrard, Spearing, Henderson, Downing, Bellamy, Suarez. #lfc #FACu ...",Sat May 05 16:03:25 +0000 2012
Bunch of gimps dancing around on the pitch #facupfinal,Sat May 05 16:03:25 +0000 2012
"""@LFC: Liverpool supporters: best in the world http://t.co/pA2SKniA""indeed! #YNWA",Sat May 05 16:03:25 +0000 2012
RT @soccerdotcom: Retweet if you think Chelsea will win the 2012 #FACup! #CFC,Sat May 05 16:03:25 +0000 2012
Come on Liverpool #LFC #YNWA,Sat May 05 16:03:25 +0000 2012
+1892 #YNWA RT @empireofthekop: I am suppose to be silent ok I will be silent COME ON REDS #FACupFinal,Sat May 05 16:03:25 +0000 2012
"El Liverpool va por su 8vo titulo, el Chelsea por su 7mo... #FACupFinal",Sat May 05 16:03:25 +0000 2012
#LFC,Sat May 05 16:03:25 +0000 2012
#FACupFinal,Sat May 05 16:03:26 +0000 2012
At #Wembley come on The Chels! #FACupFinal,Sat May 05 16:03:26 +0000 2012
ESPN... ITV.... Setanta...??? #facup,Sat May 05 16:03:26 +0000 2012
RT @chelseafc: A picture of the team warming up... We'll kick-off in just under half an hour...#CFCWembley #FACupFinal (SL) http://t.co/ ...,Sat May 05 16:03:26 +0000 2012
Get all this dancing shite off the pitch and get on with the game! #LFC,Sat May 05 16:03:26 +0000 2012
Not long to go now. Come on Reds #lfc,Sat May 05 16:03:26 +0000 2012
"RT @FootballLaw: Best banner at Wembley so far: ""Martin Skrtel is so hard he asked for a Big Mac at Burger King and got one"". #FAcup",Sat May 05 16:03:26 +0000 2012
Here we go again hey RT @MissSexified: YOU'LL NEVER WALK ALONE!!! Nuff said! #LFC #okbye,Sat May 05 16:03:26 +0000 2012
#YoullNeverWalkAlone #YoullNeverWalkAlone #YoullNeverWalkAlone #YoullNeverWalkAlone #YoullNeverWalkAlone #YoullNeverWalkAlone #FACup,Sat May 05 16:03:26 +0000 2012
Chelsea-Liverpool. Moet je ook maar zin in hebben #facup,Sat May 05 16:03:26 +0000 2012
@LFC @LFC_PR @glen_johnson @BringAlonsoHome @StevieGerrard_8 @Dirk_18_Kuyt @LucasLeiva87 @luis16suarez @NewsLiverpool http://t.co/nvnAfVlF,Sat May 05 16:03:26 +0000 2012
"Work done, cars washed, lawns mowed, feet up, GIRO DE ITALIA and FA cup on.  #GIRO#LFC#CFC",Sat May 05 16:03:27 +0000 2012
#CFC FA Cup Final #goblues http://t.co/1lS9aqvU,Sat May 05 16:03:27 +0000 2012
This opening show is terrible hahaha #facupfinal,Sat May 05 16:03:27 +0000 2012
#YNWA #LFC #TROPHYFACup,Sat May 05 16:03:27 +0000 2012
"@SBS Hi, why not show 'you'll never walk alone'? Atmospheric, dramatic, memorable - studio analysis of 4 4 2 vs 4 5 1 can't compete! #facup",Sat May 05 16:03:27 +0000 2012
"Palomitas,cerveza y a disfrutar de la final del torneo mas antiguo del futbol!#FACup",Sat May 05 16:03:27 +0000 2012
The pitch will be fucked before the game kicks off! #facup,Sat May 05 16:03:27 +0000 2012
Are these melts wrapped in tinfoil being serious? #FAcup,Sat May 05 16:03:27 +0000 2012
Chelsea..come on boys! Spank these council house fuckers #FACupFinal,Sat May 05 16:03:27 +0000 2012
Get the double liverpool! #FACup,Sat May 05 16:03:28 +0000 2012
RT @Richard_Buxton_: #FACupFinal 'headline act' Hard Fi giving live PA of 'Live for the Weekend'. Ashamed to admit I have two of their s ...,Sat May 05 16:03:27 +0000 2012
aha. Hard-Fi. Good to see some archive footage of the 2005 pre-match entertainment. OH. #facup,Sat May 05 16:03:28 +0000 2012
@philmcnulty  As our backers #LFC go for their dream today we go for ours PLEASE sign petition for debfibs are Key http://t.co/MgQl6zZZ RT,Sat May 05 16:03:28 +0000 2012
Go #CFC :D,Sat May 05 16:03:28 +0000 2012
RT @BluesChronicle: Blue Is The Colour playing at Wembley. Stadium filling-up with a little under half an hour to go until kick off in t ...,Sat May 05 16:03:28 +0000 2012
What am I watching? #FACUP,Sat May 05 16:03:28 +0000 2012
"I don't have much to say other than regardless of today's outcome, I'm massively proud to be a fan of this club. #YNWA #LFC #FACupFinal",Sat May 05 16:03:28 +0000 2012
RT @AlyaNatashaaa Supporting #CFC tonight!,Sat May 05 16:03:28 +0000 2012
"Let's Go Liverpool, Cup Final Time!!!! You'll Never Walk Alone. &lt;3 #LFC #FACupFinal2012",Sat May 05 16:03:28 +0000 2012
This could be a chance to rescue Loserpool's season Good luck Lp and Che #Facupfinal,Sat May 05 16:03:28 +0000 2012
"RT @BeritaLFC: Walk on , walk on with hope in your heart &amp; YOU'LL NEVER WALK ALONE ! #LFC #Wem8ley #8elieve.",Sat May 05 16:03:28 +0000 2012
"One day kau pun dapat juga :) RT @yawwsarah Untung ada laptop sendiri ~ ""@AdeebAshran: Laptop depan tv #FACupFinal""",Sat May 05 16:03:45 +0000 2012
Can't see Chelsea losing this #FACup #nobodylikesliverpool,Sat May 05 16:03:45 +0000 2012
Stay hungry #Chelscum.. Come on You REDS #LFC #YNWA http://t.co/IZWPgCRv,Sat May 05 16:03:46 +0000 2012
#KTBFFH #CFC #DreamLowStaySilver,Sat May 05 16:03:46 +0000 2012
love fa cup day #lfc #youllneverwalkalone,Sat May 05 16:03:46 +0000 2012
Almost time for the FA Cup Final. C'mon Reds! #soccer #FAcup,Sat May 05 16:03:46 +0000 2012
Eredivisie live #facup #livche,Sat May 05 16:03:45 +0000 2012
Cheer for Liverpool tonight yahoooooo!!! #liverpool #LFC,Sat May 05 16:03:46 +0000 2012
Opening acts... #FACupFinal,Sat May 05 16:03:46 +0000 2012
Un poco d futbol para arrancar el dia .. Chelsea - Liverpool #FACup,Sat May 05 16:03:46 +0000 2012
Fucking hell hard fi sound awful #FAcup,Sat May 05 16:03:46 +0000 2012
"Team v Liverpool: Cech; Bos,
Iva, JT (c), Cole; Mik,
Lamps; Ram, Mata,
Kal; Drog. #CFCWembley",Sat May 05 16:03:46 +0000 2012
"RT @Bolanet: #FACupFinal CHELSEA: Chelsea: Cech, Bosingwa, Ivanovic, Terry, Cole, Lampard, Mikel, Ramires, Mata, Kalou, Drogba",Sat May 05 16:03:46 +0000 2012
3_2 to chelsea I hope. #facup #33-1,Sat May 05 16:03:46 +0000 2012
At the bar a little to early with da boys for the FA Cup Final. Blue is the color! #CFC #FACupFinal http://t.co/wzIiXqm8,Sat May 05 16:03:46 +0000 2012
#FACupFinal kick off in a few minutes. #CFC,Sat May 05 16:03:46 +0000 2012
Let's go @LFC!!! #FACUP #FACupfinal  #YNWA #LFC #LFCWEMBLEY,Sat May 05 16:03:46 +0000 2012
I want Chelsea to win this! C'mon #facupfinal,Sat May 05 16:03:47 +0000 2012
What the hell is going on on the Wembley pitch!? Hard-Fi sound awful #facup,Sat May 05 16:03:47 +0000 2012
Chelsea vs Liverpool damn good luck both teams!!!! #FACupFinal,Sat May 05 16:03:47 +0000 2012
RT @shane_salt: Come on your Chels! #FACupFinal #KTBFFH #CFCWEMBLEY http://t.co/lIRP8Ajr,Sat May 05 16:03:47 +0000 2012
"In RDM, we trust. Go on boys. Pick up the trophy!!
#CFC",Sat May 05 16:03:46 +0000 2012
The Reds lah hehe RT @primayudantra: The Reds or The Blues who will be the champion? #FAcup,Sat May 05 16:03:47 +0000 2012
"RT @chelseafc: Team v Liverpool: Cech; Bos, Iva, JT (c), Cole; Mik, Lamps; Ram, Mata, Kal; Drog. #CFCWembley #FACupFinal. (SL)",Sat May 05 16:03:47 +0000 2012
What a view!! #CFC #FACupFinal http://t.co/MLDIooTO,Sat May 05 16:03:47 +0000 2012
Come on you blues! #CFC #BlueIsTheColour,Sat May 05 16:03:47 +0000 2012
#KTBFFH #cfc #chelseafc,Sat May 05 16:03:47 +0000 2012
WTF is this dance? #FAcup,Sat May 05 16:03:47 +0000 2012
RT @Linda_Pizzuti: The sun is shining on @LFC fans http://t.co/OaRLcIK5,Sat May 05 16:03:47 +0000 2012
What the eff is this whole crap going on on the pitch right now? #FACup #weird,Sat May 05 16:03:47 +0000 2012
RT @samuelj29060: Breaking news: Sagna has broken his leg (again) and will miss Euro 2012. Same leg as first break. (via @johncrossmirro ...,Sat May 05 16:03:47 +0000 2012
RT @shane_salt: Come on your Chels! #FACupFinal #KTBFFH #CFCWEMBLEY http://t.co/lIRP8Ajr,Sat May 05 16:03:47 +0000 2012
@LewisAEA fair enough ... I suppose! #FACupFinal lol enjoy the game.,Sat May 05 16:03:48 +0000 2012
Skor piro ki RT @LFC: Liverpool supporters: best in the world http://t.co/6uE5XDCV,Sat May 05 16:03:48 +0000 2012
Come on chelsea. #facup,Sat May 05 16:03:48 +0000 2012
FA Cup Final : @chelseafc vs Liverpool #ktbffh #cfc (@ Restoran Jamal Mohd Sheriff) http://t.co/wAKsSazN,Sat May 05 16:03:48 +0000 2012
I would like Livershite to lose by six or seven goals. #facup,Sat May 05 16:03:48 +0000 2012
This is a Racist clash. #shitefootballclubs #LFC #CFC,Sat May 05 16:03:48 +0000 2012
RT @shane_salt: Come on your Chels! #FACupFinal #KTBFFH #CFCWEMBLEY http://t.co/bPUIBDs7,Sat May 05 16:03:48 +0000 2012
RT @GIGIpetite1: RT this to wish the boys luck for today's final! #LFC #ynwa #zootwitties #bumblr #gigibum @ZOO_UK @LFC @lfcgossip http: ...,Sat May 05 16:03:48 +0000 2012
"RT @leesiemaszko: RT this pic plse reds fans, #FACupFinal #ChelseaScum #Disrespect #JFT96 #LFC #YNWA http://t.co/xQFWh8Kk",Sat May 05 16:03:48 +0000 2012
Buzzing for this game. So much riding on it. #LFC,Sat May 05 16:03:49 +0000 2012
"This is Wembley waiting for the FA Cup final, @chelseafc GO BLUES  http://t.co/HqpRuChR""",Sat May 05 16:03:48 +0000 2012
So other games take place on FA Cup final day &amp; the kick off is at 5:15pm! Who is it that is trying to ruin my favorite sport? #FACupFinal,Sat May 05 16:03:48 +0000 2012
#facup Just woken up my 5 &amp; 7 year old to watch. 1.45am here. I'm either Dad Of The Year or need to be reported to social services,Sat May 05 16:03:49 +0000 2012
RT @Linda_Pizzuti: The sun is shining on @LFC fans http://t.co/OaRLcIK5,Sat May 05 16:03:49 +0000 2012
"""@SavyChic_V: @cuttings81 was quiet :) I washed my car. How was ur day?"" good hun just relaxing...now for #LFC  you one of #capetownsfinest",Sat May 05 16:03:49 +0000 2012
Minutes away from starting! #YNWA #LFC #FACup,Sat May 05 16:03:49 +0000 2012
Hard Fi murdering Living for the Weekend on the pitch. Nice pyrotechnics though #facupfinal http://t.co/ZIoJwxqm,Sat May 05 16:03:49 +0000 2012
RT @JordFairclough: Big game! Chelsea v. Liverpool #facup #chelseafc,Sat May 05 16:03:49 +0000 2012
RT @francisd17: Big game needed from spearing and hendo. Carroll off the bench to score the winner #lfc,Sat May 05 16:03:49 +0000 2012
#FAcup all the pre match bollocks on the pitch camonnnn let's play,Sat May 05 16:03:49 +0000 2012
"""@MoHussleUK: Chelsea or Liverpool #FAcup"" f*ck liverpool that paygan team I'd rather see chelsea win",Sat May 05 16:03:49 +0000 2012
Que lindo es escuchar el YNWA en Wembly!!!! #FAcupFinal,Sat May 05 16:03:49 +0000 2012
Dominoes and football #facupfinal #fatbitch,Sat May 05 16:03:49 +0000 2012
Come on reds in kenny we trust #lfc,Sat May 05 16:03:49 +0000 2012
RT @Linda_Pizzuti: The sun is shining on @LFC fans http://t.co/OaRLcIK5,Sat May 05 16:03:49 +0000 2012
RT @fem_peps: LOOOL @ dese bacon foil dancers! Signs of things to come for olympic opening ceremony perhaps #FAcupfinal! #pants! &lt;Lmaoooo,Sat May 05 16:03:49 +0000 2012
LETS GO LIVERPOOL!! #LFC #FACupFinal,Sat May 05 16:03:49 +0000 2012
"I'm going for a Chelsea win @ 2-1 either Drogba or Fat frank to score first.
#FaCup #dontreallycarewhowins",Sat May 05 16:03:49 +0000 2012
@KingJames are you watching #Liverpool vs @chelseafc game today #FACUP,Sat May 05 16:03:49 +0000 2012
come on @chelseafc !,Sat May 05 16:03:49 +0000 2012
what the fuck is going on at wembley right now?! #facup,Sat May 05 16:03:49 +0000 2012
Nerves Cannot take it anymore!!! #FACUPFinal #Liverpool,Sat May 05 16:03:49 +0000 2012
"aok dong... go go CHELSEA RT @iqbal150192: Support 100% @chelseafc , go chelsea go chelsea",Sat May 05 16:03:49 +0000 2012
#WTF is that all about #wembley. Silver shellsuits and sun visors ..... Like a scousers shopping trip,Sat May 05 16:03:49 +0000 2012
@FIFAcom @Chelseafc @lfc Drogba will get 2 goals Torres 1 and Gerrard will get a consolation goal for #lfc #cfc #facupfinal,Sat May 05 16:03:49 +0000 2012
What the fuck is going on at Wembley. This isn't American Football. We don't need the stupid dance routines. THIS IS FOOTBALL! #Facupfinal,Sat May 05 16:03:50 +0000 2012
Is the dancing meant to make sense? #facup,Sat May 05 16:03:50 +0000 2012
RT @gullberg: Seier! #ynwa #lfc,Sat May 05 16:03:49 +0000 2012
It's like a shit Superbowl #facup,Sat May 05 16:03:50 +0000 2012
@LFC Also in the holland we support the reds. #YNWA #LivChe #Liverpool,Sat May 05 16:03:50 +0000 2012
"Liverpool win, Kenny keeps job, Liverpool lose kenny is fired, which is best!?! #facupfinal",Sat May 05 16:03:50 +0000 2012
"RT @FootballLaw: Best banner at Wembley so far: ""Martin Skrtel is so hard he asked for a Big Mac at Burger King and got one"". #FAcup",Sat May 05 16:03:50 +0000 2012
"This on pitch entertainment just made me cringe.

#FACupFinal  #hardfi",Sat May 05 16:03:50 +0000 2012
Wish I was at Wembley right now #LFC,Sat May 05 16:03:50 +0000 2012
RT @shane_salt: Come on your Chels! #FACupFinal #KTBFFH #CFCWEMBLEY http://t.co/lIRP8Ajr,Sat May 05 16:03:50 +0000 2012
COME ON YOU REDS!! #LFC #YNWA,Sat May 05 16:03:50 +0000 2012
Hard-Fi sound shite! #FACup,Sat May 05 16:03:50 +0000 2012
"1 Life
1 Club
CHELSEA.FC @chelseafc @indo_CFC",Sat May 05 16:03:50 +0000 2012
@chelseafc COME ON SUPER CHELSEA WE NEED SOME SILVERWARE #chelsea #FACupFinal,Sat May 05 16:03:50 +0000 2012
"Chelsea 2-0 Liverpool RT @sapto02: Chelsea 0-1 Liverpool #ynwa  RT @sportmaniaMNCTV #FACupFinal Chelsea vs Liverpool. Prediksi?""",Sat May 05 16:03:50 +0000 2012
"This is what Torres will be wearing today 
#Cfc #LFC #FACupFinal http://t.co/2l65IeWu",Sat May 05 16:03:51 +0000 2012
FA cup final Chelsea vs Liverpool on 832HD chnl.. go go The Blues!! #CFC..,Sat May 05 16:03:51 +0000 2012
FA Cup Final Soon. I think #Chelsea will win tonight. #FACupFinal,Sat May 05 16:03:51 +0000 2012
RT @TalkingAnfield: Luis Suarez has scored 7 goals and made 2 assists in his last 8 games for Liverpool. #LFC,Sat May 05 16:03:51 +0000 2012
"Come-On #LFC, You'll Neva Walk Alone.....!!!!!",Sat May 05 16:03:51 +0000 2012
@AdamWoodyatt squeaky bum time #lfc,Sat May 05 16:03:51 +0000 2012
Come on liverpooooollllllll #YNWA #lfc,Sat May 05 16:03:51 +0000 2012
"Handerson + Spearing should be 
Lucas + Adam :( #LFC",Sat May 05 16:03:51 +0000 2012
"RT @ESPNTVUK: Liverpool team: Reina, Johnson, Agger, Skrtel, Enrique, Gerrard, Spearing, Henderson, Downing, Bellamy, Suarez. #lfc #FACu ...",Sat May 05 16:03:51 +0000 2012
sososososososo jealous of my mum at #facupfinal!,Sat May 05 16:03:52 +0000 2012
@jayhanson2 Just switched on yooo!! #cfc,Sat May 05 16:03:52 +0000 2012
"RT @GOAL_ID Chelsea Subs: Turnbull, Essien, Torres, Malouda, Meireles, Ferreira, Sturridge. #FACup",Sat May 05 16:03:52 +0000 2012
Come on your Chels! #FACupFinal #KTBFFH #CFCWEMBLEY,Sat May 05 16:03:52 +0000 2012
That's a good idea stick Hard-Fi on scaffold on the pitch 15 minutes before kick-off with 100 dancers pissing about. Top-top surface. #facup,Sat May 05 16:03:52 +0000 2012
Last real coupon of season let down by mk dons standard #rollonaugust. Downing or drogba to score first to compensate #facup,Sat May 05 16:03:52 +0000 2012
Tbh don't like either team in the fa cup final both shit #FACupfinal,Sat May 05 16:03:52 +0000 2012
@GazGShore who you for in the final? #LFC,Sat May 05 16:03:52 +0000 2012
Cheer leaders with ppm poms  would be better. #LFC @GoalUK,Sat May 05 16:03:52 +0000 2012
Living for the weekend! Hard-fi playing in the background #facupfinal,Sat May 05 16:03:52 +0000 2012
"Walk on, walk on, with hope in your heart, and you'll never walk alone, YOU'LL NEVER WALK ALONE !!!! COME ON RED MEN !!!!! #lfc",Sat May 05 16:03:53 +0000 2012
"Although I want #Chelsea to win, I'm going to go for 3-2 to #Liverpool. #FACup",Sat May 05 16:03:53 +0000 2012
"Benchnya knp ga bawa bek 1 lg yah RT @Bolanet: #FACupFinal Chelsea bench : Turnbull, Ferreira, Essien, Raul ... http://t.co/WlLoeYYo",Sat May 05 16:03:53 +0000 2012
Hard fi n them dancers???? Could think of better ways to start the #facupfinal #fail,Sat May 05 16:03:53 +0000 2012
Come on #LFC,Sat May 05 16:03:53 +0000 2012
"my heart is beting so fast
lets go reds
#YNWA #LFC #LfcFamily #Liverpool #LiverpoolFC",Sat May 05 16:03:53 +0000 2012
RT @rickedwards1: aha. Hard-Fi. Good to see some archive footage of the 2005 pre-match entertainment. OH. #facup,Sat May 05 16:03:53 +0000 2012
RT @oliverproudlock: Not to sure about these dance routines. #facup,Sat May 05 16:03:53 +0000 2012
Come on @chelseafc let's take his trophy quick quick quick quick quick n focus on the next one,Sat May 05 16:03:53 +0000 2012
My stomach is in knots #LFC,Sat May 05 16:03:53 +0000 2012
Boycotting the #facupfinal this year. The mighty Foxes deserved to be there #LCFC.,Sat May 05 16:03:53 +0000 2012
"@m0del Potentially 1-1 &amp; pens. Personally want Liverpool to embarrass Chelsea, don't like #LFC but it's Chelsea. Having a gd wkend? #ESPNFTW",Sat May 05 16:03:53 +0000 2012
Come on Chelsea!!!! #CFC,Sat May 05 16:03:53 +0000 2012
"No Brad Jones on the bench. Talk about robbed, he carried them
to the final. #FACupFinal #stiff",Sat May 05 16:03:54 +0000 2012
"Dancers in shiny suits, prancing around.  This isn't american football FFS. http://t.co/cIDiEyT7 #LFC #FACupFinal",Sat May 05 16:03:54 +0000 2012
All the best for #Liverpool supporter @edleenismail &amp; All the best for #Chelsea supporter @Era_eraEra #FACup #PeaceRespect,Sat May 05 16:03:54 +0000 2012
"alright yall, nunca cominaras solo #YNWA #FACupFinal",Sat May 05 16:03:54 +0000 2012
RT @empireofthekop: RT @LFC: Liverpool supporters: best in the world http://t.co/csccHu7B,Sat May 05 16:03:54 +0000 2012
Watch the #FAcupfinal @TheOfficeBars,Sat May 05 16:03:54 +0000 2012
"Tribute to MCA during the #FACupFinal warmup show, nice touch.",Sat May 05 16:03:54 +0000 2012
"What time does this game actually kick off, been watching build-up for about 3 days #facup",Sat May 05 16:03:54 +0000 2012
ESPN are not showing ads during the FA Cup - exactly how it should be on FA Cup Day! ITV take note!! #FACup,Sat May 05 16:03:54 +0000 2012
#facupfinal. I wander what Terry and Suarez will talk about #kickracismout,Sat May 05 16:03:54 +0000 2012
If it was about the teams' support - #LFC would win by a landslide. #FACUPFINAL,Sat May 05 16:03:55 +0000 2012
Liverpool vs chelsea #facupfinal http://t.co/MHcHY00G,Sat May 05 16:03:55 +0000 2012
RT @MariaBarrett: What on earth is this camp silver preshow? #facupfinal,Sat May 05 16:03:55 +0000 2012
Even the chelsea pensioners are wearing red. They know who's boss. #RedIsTheColour #FACupFinal #LFC,Sat May 05 16:03:55 +0000 2012
"Up and ready in Portland, or usa to watch Chelsea bring home a trophy! #cfc",Sat May 05 16:03:55 +0000 2012
lets make the wembley becoming red  !!!!RT @LFC: Liverpool supporters: best in the world http://t.co/qJsRDgen,Sat May 05 16:03:55 +0000 2012
And the pre match entertainment looks dire as well! #facupfinal,Sat May 05 16:03:55 +0000 2012
Hard-Fi going down a treat it seems... #FACupFinal,Sat May 05 16:03:55 +0000 2012
"If it's Hard Fi &amp; The Enemy this year, I look forward to seeing The Ordinary Boys &amp; The Bravery at next year's #FACupfinal",Sat May 05 16:03:55 +0000 2012
RT @TheFootballBar: #FACup team sheet http://t.co/hZSiDOgc,Sat May 05 16:03:55 +0000 2012
"@davegilkerson suddenly realised i was wearing a blue t-shirt,panicked,quickly got changed into #LFC shirt. Now comfortable but nervous!!!",Sat May 05 16:03:55 +0000 2012
RT @akadej: Come On Liverpool!!! ... Please RETWEET if you support LIVERPOOL!!! ... #LFC #FACupFinal,Sat May 05 16:03:55 +0000 2012
RT @empireofthekop: RT @LFC: Liverpool supporters: best in the world http://t.co/R3tWiO8t,Sat May 05 16:03:55 +0000 2012
"""@haikalamsyar: @sevienfreak u kita tengok bola sama-sama okay. forever #CFC"" lerr. You kan di sebelah I sekarang :)",Sat May 05 16:03:55 +0000 2012
Kamooonnn 2nd title of the season! #YNWA #LFC #FACupFinale #Wembley,Sat May 05 16:03:56 +0000 2012
Go Blues!  Beat the reds!! #CFC #FACupFinal,Sat May 05 16:03:56 +0000 2012
Its just a sea of red. #Class #LFC,Sat May 05 16:03:56 +0000 2012
Chelsea or Liverpool? Chelsea! The blues! #CFC #KTBFFH,Sat May 05 16:03:56 +0000 2012
"RT @ChelseaUnite: Selesai. Terima kasih buat yg udah berpartisipasi. Apapun hasilnya nnt kita harus terima, FOREVER CHELSEA! #FAcup #CU",Sat May 05 16:03:56 +0000 2012
RT @m_rozza: will be deeply annoyed if kenny dalglish's shite liverpool team win another cup #LFC,Sat May 05 16:03:55 +0000 2012
Come on #CFCWembley. #FACupFinal,Sat May 05 16:03:56 +0000 2012
Final #FACup now...,Sat May 05 16:03:56 +0000 2012
Come on you lads @LFC fight until the final whistle !!!! #YNWA !,Sat May 05 16:03:56 +0000 2012
"RT @GOAL_ID: Chelsea Subs: Turnbull, Essien, Torres, Malouda, Meireles, Ferreira, Sturridge. #FACup",Sat May 05 16:03:56 +0000 2012
Not being funny but them dancers in bakofoil #FACup are shocking,Sat May 05 16:03:56 +0000 2012
#FACup Final,Sat May 05 16:03:56 +0000 2012
Hard-Fi playing living for the weekend = class #FACupFinal,Sat May 05 16:03:56 +0000 2012
C'mon blues!! #FACupFinal #CFCWEMBLEY #CFC,Sat May 05 16:03:56 +0000 2012
Final de la #FACUP #Chelsea #Liverpool,Sat May 05 16:03:56 +0000 2012
Wembley is rocking! 15 minutes to kickoff! #FACup,Sat May 05 16:03:56 +0000 2012
I want #CFC to win.That mean's #lfc will win. : (,Sat May 05 16:03:56 +0000 2012
#LFC #YNWA @CargillCrew @BucketfulOfHate http://t.co/BxjKCqfA,Sat May 05 16:03:57 +0000 2012
#DROGBA #LAMPARD #DROGBA #LAMPARD #DROGBA #LAMPARD #DROGBA #LAMPARD #DROGBA #LAMPARD #DROGBA #LAMPARD #DROGBA #LAMPARD #CFC @AnkitCFC,Sat May 05 16:03:57 +0000 2012
RT @Linda_Pizzuti: The sun is shining on @LFC fans http://t.co/OaRLcIK5,Sat May 05 16:03:56 +0000 2012
Working in a pub with no telly until midnight #FAcup,Sat May 05 16:03:57 +0000 2012
switched my wallpaper to the @LFC logo in support of them..Goodluck to the team on the night of the #Supermoon! #YNWA,Sat May 05 16:03:57 +0000 2012
make a tea! with the red shirt and scarf! #FACupFinal,Sat May 05 16:03:56 +0000 2012
Can't decide who I want to win in the #FACupFinal Don't like Chelsea or Liverpool much...,Sat May 05 16:03:56 +0000 2012
California fried chicken tuh yeRT @njaanu: Bismillah first trophy. Ayoo!! #CFC,Sat May 05 16:03:57 +0000 2012
Not knowing who to root for 'cause you don't care much for both teams. #FACUP #ChelseaLiverpool,Sat May 05 16:03:57 +0000 2012
"Supporting Chelsea today, hopefully with a #Torres winner #CFC #FAcup",Sat May 05 16:03:57 +0000 2012
Building up to #FAcupfinal and then our Pete's 50th where I will make my live debut performance at the e+c,Sat May 05 16:03:57 +0000 2012
Chelsea vs. Liverpool #FACupFinal,Sat May 05 16:03:57 +0000 2012
#FACup. My Money Is On Chelsea.,Sat May 05 16:03:57 +0000 2012
RT @Aless_G: #FACupFinal come on Chelsea!!,Sat May 05 16:03:57 +0000 2012
Whos this thooola #FACupFinal,Sat May 05 16:03:58 +0000 2012
Manchester United fans is on Chelsea side this evening. #GGMU for #CFC,Sat May 05 16:03:58 +0000 2012
The Liver Bird will fly up high #YNWA #lfc,Sat May 05 16:03:58 +0000 2012
Chelsea or Liverpool. Come On Chelsea! #LFC #CFC #FACupFinal,Sat May 05 16:03:58 +0000 2012
RT @Linda_Pizzuti: The sun is shining on @LFC fans http://t.co/OaRLcIK5,Sat May 05 16:03:58 +0000 2012
Successful hair of the dog just in time for the game #LFC #FACupFinal,Sat May 05 16:03:58 +0000 2012
"RDM jenius ga nurunin ElNino starter RT @TEAMtalk: #cfc XI v #lfc: Cech, Bosingwa, Ivanovic, Terry, (cont) http://t.co/ioxVtGyj",Sat May 05 16:03:58 +0000 2012
Youll never walk alone ! #LFC #DoubleWinners http://t.co/FImIx6sE,Sat May 05 16:03:58 +0000 2012
Chelsea out @wembley in 10mins..gonna b Epic #FACupFinal,Sat May 05 16:03:58 +0000 2012
Come on #lfc #FACupFinal,Sat May 05 16:03:58 +0000 2012
An example of the choreography we will see at the Olympics this year........erm looking good..... #FACup,Sat May 05 16:03:57 +0000 2012
RT @Linda_Pizzuti: The sun is shining on @LFC fans http://t.co/OaRLcIK5,Sat May 05 16:03:58 +0000 2012
"Chelsea let's win our 11tg #FaCup 
@chelseafc 
#BLUESS",Sat May 05 16:03:58 +0000 2012
Could the start of the #facup be any more americanised? What a load of bollocks!!,Sat May 05 16:03:59 +0000 2012
#FAcupfinal a have aliens invaded wembely little silver dudes,Sat May 05 16:03:59 +0000 2012
let's go #chelsea! #liverpool #facup,Sat May 05 16:03:58 +0000 2012
#CFC Chelsea has the advantage in midfield. Look for Lampard and Mata to exploit space.,Sat May 05 16:03:59 +0000 2012
RT @shane_salt: Come on your Chels! #FACupFinal #KTBFFH #CFCWEMBLEY http://t.co/lIRP8Ajr,Sat May 05 16:03:59 +0000 2012
Nothing says #FACup as much as Budweiser,Sat May 05 16:03:59 +0000 2012
Big win today lads #blueisthecolour #CFC,Sat May 05 16:03:59 +0000 2012
RT @FIFAcom: RT if you would like @lfc to win the FA Cup final today #CFC #LFC #FACupFinal,Sat May 05 16:03:59 +0000 2012
Fucking well nervous #YNWA #FACup,Sat May 05 16:03:59 +0000 2012
Call the match off. It can't compete with dancers in foil suits and masks. #wtf #facup,Sat May 05 16:03:59 +0000 2012
Buzzing for the match...Come on Chelsea #Buzzing #CFCWembley #comeonyoublues,Sat May 05 16:03:59 +0000 2012
RT @chelseafc: You can follow all the action by clicking on the live coverage tab right here http://t.co/UyqvckuQ #CFCWembley #FACupFina ...,Sat May 05 16:03:59 +0000 2012
@empireofthekop it's not hard to stay up for this. Let's be having it!! #facupfinal #ynwa,Sat May 05 16:03:59 +0000 2012
Nerves are building #LFC #FACupFinal,Sat May 05 16:03:59 +0000 2012
@robhull83 I hope you finish 4th and #CFC win #championsleague,Sat May 05 16:03:59 +0000 2012
@DanMacPherson hope you're awake and watching @LFC Would give anything to be at #Wembley right now #YNWA #FACupfinal,Sat May 05 16:03:59 +0000 2012
RT @AdamWoodyatt: I wasn't this nervous before the #EastEnders live episode!! Guess that's the magic of #FACupFinal Come on redmen #YNWA,Sat May 05 16:03:59 +0000 2012
